# Blender v2.81 (sub 16) OBJ File: ''
# www.blender.org
mtllib AerodromeBeaconLightHead.mtl
o AerodromeBeaconLightHead
v -0.450000 0.120001 -0.429998
v -0.500000 0.120001 -0.429998
v -0.450000 0.000001 -0.449998
v -0.500000 0.000001 -0.449998
v -0.450000 -0.119999 -0.429998
v -0.500000 -0.119999 -0.429998
v -0.450000 -0.230000 -0.389998
v -0.500000 -0.230000 -0.389998
v -0.450000 -0.320001 -0.319998
v -0.500000 -0.320001 -0.319998
v -0.450000 -0.390000 -0.219998
v -0.500000 -0.390000 -0.219998
v -0.450000 -0.430000 -0.119998
v -0.500000 -0.430000 -0.119998
v -0.450000 -0.450000 0.000002
v -0.500000 -0.450000 0.000002
v -0.450000 -0.430000 0.120002
v -0.500000 -0.430000 0.120002
v -0.450000 -0.390000 0.220002
v -0.500000 -0.390000 0.220002
v -0.450000 -0.320001 0.320002
v -0.500000 -0.320001 0.320002
v -0.450000 -0.230000 0.390002
v -0.500000 -0.230000 0.390002
v -0.450000 -0.119999 0.430002
v -0.500000 -0.119999 0.430002
v -0.450000 0.000001 0.450002
v -0.500000 0.000001 0.450002
v -0.450000 0.120001 0.430002
v -0.500000 0.120001 0.430002
v -0.450000 0.220000 0.390002
v -0.500000 0.220000 0.390002
v -0.450000 0.320001 0.320002
v -0.500000 0.320001 0.320002
v -0.450000 0.390001 0.220002
v -0.500000 0.390001 0.220002
v -0.450000 0.430001 0.120002
v -0.500000 0.430001 0.120002
v -0.450000 0.450001 0.000002
v -0.500000 0.450001 0.000002
v -0.450000 0.430001 -0.119998
v -0.500000 0.430001 -0.119998
v -0.450000 0.390001 -0.219998
v -0.500000 0.390001 -0.219998
v -0.450000 0.320001 -0.319998
v -0.500000 0.320001 -0.319998
v -0.450000 0.220000 -0.389998
v -0.500000 0.220000 -0.389998
v 0.430000 0.120001 -0.449998
v 0.430000 0.120001 -0.499998
v 0.450000 0.000001 -0.449998
v 0.450000 0.000001 -0.499998
v 0.430000 -0.119999 -0.449998
v 0.430000 -0.119999 -0.499998
v 0.390000 -0.230000 -0.449998
v 0.390000 -0.230000 -0.499998
v 0.320000 -0.320001 -0.449998
v 0.320000 -0.320001 -0.499998
v 0.220000 -0.390000 -0.449998
v 0.220000 -0.390000 -0.499998
v 0.120000 -0.430000 -0.449998
v 0.120000 -0.430000 -0.499998
v 0.000000 -0.450000 -0.449998
v 0.000000 -0.450000 -0.499998
v -0.120000 -0.430000 -0.449998
v -0.120000 -0.430000 -0.499998
v -0.220000 -0.390000 -0.449998
v -0.220000 -0.390000 -0.499998
v -0.320000 -0.320001 -0.449998
v -0.320000 -0.320001 -0.499998
v -0.390000 -0.230000 -0.449998
v -0.390000 -0.230000 -0.499998
v -0.430000 -0.119999 -0.449998
v -0.430000 -0.119999 -0.499998
v -0.450000 0.000001 -0.499998
v -0.430000 0.120001 -0.449998
v -0.430000 0.120001 -0.499998
v -0.390000 0.220000 -0.449998
v -0.390000 0.220000 -0.499998
v -0.320000 0.320001 -0.449998
v -0.320000 0.320001 -0.499998
v -0.220000 0.390001 -0.449998
v -0.220000 0.390001 -0.499998
v -0.120000 0.430001 -0.449998
v -0.120000 0.430001 -0.499998
v 0.000000 0.450001 -0.449998
v 0.000000 0.450001 -0.499998
v 0.120000 0.430001 -0.449998
v 0.120000 0.430001 -0.499998
v 0.220000 0.390001 -0.449998
v 0.220000 0.390001 -0.499998
v 0.320000 0.320001 -0.449998
v 0.320000 0.320001 -0.499998
v 0.390000 0.220000 -0.449998
v 0.390000 0.220000 -0.499998
v 0.450000 0.120001 0.430002
v 0.500000 0.120001 0.430002
v 0.450000 0.000001 0.450002
v 0.500000 0.000001 0.450002
v 0.450000 -0.119999 0.430002
v 0.500000 -0.119999 0.430002
v 0.450000 -0.230000 0.390002
v 0.500000 -0.230000 0.390002
v 0.450000 -0.320001 0.320002
v 0.500000 -0.320001 0.320002
v 0.450000 -0.390000 0.220002
v 0.500000 -0.390000 0.220002
v 0.450000 -0.430000 0.120002
v 0.500000 -0.430000 0.120002
v 0.450000 -0.450000 0.000002
v 0.500000 -0.450000 0.000002
v 0.450000 -0.430000 -0.119998
v 0.500000 -0.430000 -0.119998
v 0.450000 -0.390000 -0.219998
v 0.500000 -0.390000 -0.219998
v 0.450000 -0.320001 -0.319998
v 0.500000 -0.320001 -0.319998
v 0.450000 -0.230000 -0.389998
v 0.500000 -0.230000 -0.389998
v 0.450000 -0.119999 -0.429998
v 0.500000 -0.119999 -0.429998
v 0.500000 0.000001 -0.449998
v 0.450000 0.120001 -0.429998
v 0.500000 0.120001 -0.429998
v 0.450000 0.220000 -0.389998
v 0.500000 0.220000 -0.389998
v 0.450000 0.320001 -0.319998
v 0.500000 0.320001 -0.319998
v 0.450000 0.390001 -0.219998
v 0.500000 0.390001 -0.219998
v 0.450000 0.430001 -0.119998
v 0.500000 0.430001 -0.119998
v 0.450000 0.450001 0.000002
v 0.500000 0.450001 0.000002
v 0.450000 0.430001 0.120002
v 0.500000 0.430001 0.120002
v 0.450000 0.390001 0.220002
v 0.500000 0.390001 0.220002
v 0.450000 0.320001 0.320002
v 0.500000 0.320001 0.320002
v 0.450000 0.220000 0.390002
v 0.500000 0.220000 0.390002
v -0.430000 0.120001 0.450002
v -0.430000 0.120001 0.500002
v -0.450000 0.000001 0.500002
v -0.430000 -0.119999 0.450002
v -0.430000 -0.119999 0.500002
v -0.390000 -0.230000 0.450002
v -0.390000 -0.230000 0.500002
v -0.320000 -0.320001 0.450002
v -0.320000 -0.320001 0.500002
v -0.220000 -0.390000 0.450002
v -0.220000 -0.390000 0.500002
v -0.120000 -0.430000 0.450002
v -0.120000 -0.430000 0.500002
v 0.000000 -0.450000 0.450002
v 0.000000 -0.450000 0.500002
v 0.120000 -0.430000 0.450002
v 0.120000 -0.430000 0.500002
v 0.220000 -0.390000 0.450002
v 0.220000 -0.390000 0.500002
v 0.320000 -0.320001 0.450002
v 0.320000 -0.320001 0.500002
v 0.390000 -0.230000 0.450002
v 0.390000 -0.230000 0.500002
v 0.430000 -0.119999 0.450002
v 0.430000 -0.119999 0.500002
v 0.450000 0.000001 0.500002
v 0.430000 0.120001 0.450002
v 0.430000 0.120001 0.500002
v 0.390000 0.220000 0.450002
v 0.390000 0.220000 0.500002
v 0.320000 0.320001 0.450002
v 0.320000 0.320001 0.500002
v 0.220000 0.390001 0.450002
v 0.220000 0.390001 0.500002
v 0.120000 0.430001 0.450002
v 0.120000 0.430001 0.500002
v 0.000000 0.450001 0.450002
v 0.000000 0.450001 0.500002
v -0.120000 0.430001 0.450002
v -0.120000 0.430001 0.500002
v -0.220000 0.390001 0.450002
v -0.220000 0.390001 0.500002
v -0.320000 0.320001 0.450002
v -0.320000 0.320001 0.500002
v -0.390000 0.220000 0.450002
v -0.390000 0.220000 0.500002
v -0.500000 0.000001 -0.499998
v -0.500000 0.130001 -0.479998
v -0.500000 0.250001 -0.429998
v -0.500000 0.350001 -0.349998
v -0.500000 0.430001 -0.249998
v -0.500000 0.480001 -0.129998
v -0.500000 0.500001 0.000002
v -0.500000 0.480001 0.130002
v -0.500000 0.430001 0.250002
v -0.500000 0.350001 0.350002
v -0.500000 0.250001 0.430002
v -0.500000 0.130001 0.480002
v -0.500000 0.000001 0.500002
v -0.500000 -0.129999 0.480002
v -0.500000 -0.249999 0.430002
v -0.500000 -0.349999 0.350002
v -0.500000 -0.430000 0.250002
v -0.500000 -0.480000 0.130002
v -0.500000 -0.500000 0.000002
v -0.500000 -0.480000 -0.129998
v -0.500000 -0.430000 -0.249998
v -0.500000 -0.349999 -0.349998
v -0.500000 -0.249999 -0.429998
v -0.500000 -0.129999 -0.479998
v 0.500000 0.000001 0.500002
v 0.500000 0.130001 0.480002
v 0.500000 0.250001 0.430002
v 0.500000 0.350001 0.350002
v 0.500000 0.430001 0.250002
v 0.500000 0.480001 0.130002
v 0.500000 0.500001 0.000002
v 0.500000 0.480001 -0.129998
v 0.500000 0.430001 -0.249998
v 0.500000 0.350001 -0.349998
v 0.500000 0.250001 -0.429998
v 0.500000 0.130001 -0.479998
v 0.500000 0.000001 -0.499998
v 0.500000 -0.129999 -0.479998
v 0.500000 -0.249999 -0.429998
v 0.500000 -0.349999 -0.349998
v 0.500000 -0.430000 -0.249998
v 0.500000 -0.480000 -0.129998
v 0.500000 -0.500000 0.000002
v 0.500000 -0.480000 0.130002
v 0.500000 -0.430000 0.250002
v 0.500000 -0.349999 0.350002
v 0.500000 -0.249999 0.430002
v 0.500000 -0.129999 0.480002
v -0.100000 0.490001 0.100002
v 0.000000 0.500001 0.000002
v -0.100000 0.490001 -0.099998
v -0.190000 0.460001 -0.189998
v -0.280000 0.420001 -0.279998
v -0.350000 0.350001 -0.349998
v -0.420000 0.280002 -0.419998
v -0.460000 0.190001 -0.459998
v -0.490000 0.099998 -0.489998
v -0.500000 0.050001 -0.499998
v -0.190000 0.460001 0.190002
v -0.280000 0.420001 0.280002
v -0.350000 0.350001 0.350002
v -0.420000 0.280002 0.420002
v -0.460000 0.190001 0.460002
v -0.490000 0.099998 0.490002
v -0.500000 0.050001 0.500002
v 0.500000 0.050001 -0.499998
v 0.490000 0.099998 -0.489998
v 0.460000 0.190001 -0.459998
v 0.420000 0.280002 -0.419998
v 0.350000 0.350001 -0.349998
v 0.280000 0.420001 -0.279998
v 0.190000 0.460001 -0.189998
v 0.100000 0.490001 -0.099998
v 0.100000 0.490001 0.100002
v 0.190000 0.460001 0.190002
v 0.280000 0.420001 0.280002
v 0.350000 0.350001 0.350002
v 0.420000 0.280002 0.420002
v 0.460000 0.190001 0.460002
v 0.490000 0.099998 0.490002
v 0.500000 0.050001 0.500002
v 0.420000 -0.280001 0.420002
v 0.350000 -0.349999 0.350002
v 0.420000 -0.420000 0.280002
v 0.460000 -0.460000 0.190002
v 0.490000 -0.490000 0.100002
v 0.500000 -0.500000 0.050002
v 0.460000 -0.190000 0.460002
v 0.490000 -0.099999 0.490002
v 0.500000 -0.050001 0.500002
v 0.420000 -0.420000 -0.279998
v 0.350000 -0.349999 -0.349998
v 0.420000 -0.280001 -0.419998
v 0.460000 -0.190000 -0.459998
v 0.490000 -0.099999 -0.489998
v 0.500000 -0.050001 -0.499998
v 0.460000 -0.460000 -0.189998
v 0.490000 -0.490000 -0.099998
v 0.500000 -0.500000 -0.049998
v -0.420000 -0.280001 -0.419998
v -0.350000 -0.349999 -0.349998
v -0.420000 -0.420000 -0.279998
v -0.460000 -0.460000 -0.189998
v -0.490000 -0.490000 -0.099998
v -0.500000 -0.500000 -0.049998
v -0.460000 -0.190000 -0.459998
v -0.490000 -0.099999 -0.489998
v -0.500000 -0.050001 -0.499998
v -0.500000 -0.500000 0.050002
v -0.490000 -0.490000 0.100002
v -0.460000 -0.460000 0.190002
v -0.420000 -0.420000 0.280002
v -0.350000 -0.349999 0.350002
v -0.420000 -0.280001 0.420002
v -0.460000 -0.190000 0.460002
v -0.490000 -0.099999 0.490002
v -0.500000 -0.050001 0.500002
v 0.480000 0.130001 -0.499998
v 0.430000 0.250001 -0.499998
v 0.350000 0.350001 -0.499998
v 0.250000 0.430001 -0.499998
v 0.130000 0.480001 -0.499998
v 0.000000 0.500001 -0.499998
v -0.130000 0.480001 -0.499998
v -0.250000 0.430001 -0.499998
v -0.350000 0.350001 -0.499998
v -0.430000 0.250001 -0.499998
v -0.480000 0.130001 -0.499998
v -0.480000 -0.129999 -0.499998
v -0.430000 -0.249999 -0.499998
v -0.350000 -0.349999 -0.499998
v -0.250000 -0.430000 -0.499998
v -0.130000 -0.480000 -0.499998
v 0.000000 -0.500000 -0.499998
v 0.130000 -0.480000 -0.499998
v 0.250000 -0.430000 -0.499998
v 0.350000 -0.349999 -0.499998
v 0.430000 -0.249999 -0.499998
v 0.480000 -0.129999 -0.499998
v -0.480000 0.130001 0.500002
v -0.430000 0.250001 0.500002
v -0.350000 0.350001 0.500002
v -0.250000 0.430001 0.500002
v -0.130000 0.480001 0.500003
v 0.000000 0.500001 0.500003
v 0.130000 0.480001 0.500003
v 0.250000 0.430001 0.500002
v 0.350000 0.350001 0.500002
v 0.430000 0.250001 0.500002
v 0.480000 0.130001 0.500002
v 0.480000 -0.129999 0.500002
v 0.430000 -0.249999 0.500002
v 0.350000 -0.349999 0.500002
v 0.250000 -0.430000 0.500002
v 0.130000 -0.480000 0.500002
v 0.000000 -0.500000 0.500002
v -0.130000 -0.480000 0.500002
v -0.250000 -0.430000 0.500002
v -0.350000 -0.349999 0.500002
v -0.430000 -0.249999 0.500002
v -0.480000 -0.129999 0.500002
v 0.280000 -0.420000 0.420002
v 0.190000 -0.460000 0.460002
v 0.100000 -0.490000 0.490002
v 0.050000 -0.500000 0.500002
v 0.280000 -0.420000 -0.419998
v 0.190000 -0.460000 -0.459998
v 0.100000 -0.490000 -0.489998
v 0.050000 -0.500000 -0.499998
v -0.280000 -0.420000 -0.419998
v -0.190000 -0.460000 -0.459998
v -0.100000 -0.490000 -0.489998
v -0.050000 -0.500000 -0.499998
v -0.280000 -0.420000 0.420002
v -0.190000 -0.460000 0.460002
v -0.100000 -0.490000 0.490002
v -0.050000 -0.500000 0.500002
v 0.480000 -0.700000 0.130002
v 0.190000 -0.700000 0.050002
v 0.500000 -0.700000 0.000002
v 0.200000 -0.700000 0.000002
v 0.480000 -0.700000 -0.129998
v 0.190000 -0.700000 -0.049998
v 0.170000 -0.700000 -0.099998
v 0.170000 -0.700000 0.100002
v 0.430000 -0.700000 0.250002
v 0.140000 -0.700000 0.140002
v 0.350000 -0.700000 0.350002
v 0.100000 -0.700000 0.170002
v 0.250000 -0.700000 0.430002
v 0.050000 -0.700000 0.190002
v 0.130000 -0.700000 0.480002
v 0.000000 -0.700000 0.200002
v 0.000000 -0.700000 0.500002
v -0.130000 -0.700000 0.480002
v -0.050000 -0.700000 0.190002
v -0.250000 -0.700000 0.430002
v -0.100000 -0.700000 0.170002
v -0.350000 -0.700000 0.350002
v -0.140000 -0.700000 0.140002
v -0.430000 -0.700000 0.250002
v -0.170000 -0.700000 0.100002
v -0.480000 -0.700000 0.130002
v -0.190000 -0.700000 0.050002
v -0.500000 -0.700000 0.000002
v -0.200000 -0.700000 0.000002
v -0.190000 -0.700000 -0.049998
v -0.480000 -0.700000 -0.129998
v -0.170000 -0.700000 -0.099998
v -0.430000 -0.700000 -0.249998
v -0.140000 -0.700000 -0.139998
v -0.350000 -0.700000 -0.349998
v -0.100000 -0.700000 -0.169998
v -0.250000 -0.700000 -0.429998
v -0.050000 -0.700000 -0.189998
v -0.130000 -0.700000 -0.479998
v 0.000000 -0.700000 -0.199998
v 0.000000 -0.700000 -0.499998
v 0.130000 -0.700000 -0.479998
v 0.050000 -0.700000 -0.189998
v 0.250000 -0.700000 -0.429998
v 0.100000 -0.700000 -0.169998
v 0.350000 -0.700000 -0.349998
v 0.140000 -0.700000 -0.139998
v 0.430000 -0.700000 -0.249998
vt 5.000000 -129.590698
vt 0.000000 -129.590698
vt 5.000000 -141.371674
vt 0.000000 -141.371674
vt 5.000000 141.371674
vt 0.000000 141.371674
vt 5.000000 129.590698
vt 0.000000 129.590698
vt 5.000000 117.809723
vt 0.000000 117.809723
vt 5.000000 106.028763
vt 0.000000 106.028763
vt 5.000000 94.247780
vt 0.000000 94.247780
vt 5.000000 82.466797
vt 0.000000 82.466797
vt 5.000000 70.685837
vt 0.000000 70.685837
vt 5.000000 58.904861
vt 0.000000 58.904861
vt 5.000000 47.123890
vt 0.000000 47.123890
vt 5.000000 35.342918
vt 0.000000 35.342918
vt 5.000000 23.561939
vt 0.000000 23.561939
vt 5.000000 11.780970
vt 0.000000 11.780970
vt 5.000000 0.000000
vt 0.000000 0.000000
vt 5.000000 -11.780970
vt 0.000000 -11.780970
vt 5.000000 -23.561939
vt 0.000000 -23.561939
vt 5.000000 -35.342918
vt 0.000000 -35.342918
vt 5.000000 -47.123890
vt 0.000000 -47.123890
vt 5.000000 -58.904861
vt 0.000000 -58.904861
vt 5.000000 -70.685837
vt 0.000000 -70.685837
vt 5.000000 -82.466797
vt 0.000000 -82.466797
vt 5.000000 -94.247780
vt 0.000000 -94.247780
vt 5.000000 -106.028763
vt 0.000000 -106.028763
vt 5.000000 -117.809723
vt 0.000000 -117.809723
vt 43.466660 11.646860
vt -43.466660 11.646860
vt 45.000000 0.000000
vt -45.000000 0.000000
vt 43.466660 -11.646860
vt -43.466660 -11.646860
vt 38.971142 -22.500000
vt -38.971142 -22.500000
vt 31.819811 -31.819811
vt -31.819811 -31.819811
vt 22.500000 -38.971142
vt -22.500000 -38.971142
vt 11.646860 -43.466660
vt -11.646860 -43.466660
vt 0.000000 -45.000000
vt -38.971142 22.500000
vt 38.971142 22.500000
vt -31.819811 31.819811
vt 31.819811 31.819811
vt -22.500000 38.971142
vt 22.500000 38.971142
vt -11.646860 43.466660
vt 11.646860 43.466660
vt 0.000000 45.000000
vt 5.000000 -129.590698
vt 0.000000 -129.590698
vt 5.000000 -141.371674
vt 0.000000 -141.371674
vt 5.000000 141.371674
vt 0.000000 141.371674
vt 5.000000 129.590698
vt 0.000000 129.590698
vt 5.000000 117.809723
vt 0.000000 117.809723
vt 5.000000 106.028763
vt 0.000000 106.028763
vt 5.000000 94.247780
vt 0.000000 94.247780
vt 5.000000 82.466797
vt 0.000000 82.466797
vt 5.000000 70.685837
vt 0.000000 70.685837
vt 5.000000 58.904861
vt 0.000000 58.904861
vt 5.000000 47.123890
vt 0.000000 47.123890
vt 5.000000 35.342918
vt 0.000000 35.342918
vt 5.000000 23.561939
vt 0.000000 23.561939
vt 5.000000 11.780970
vt 0.000000 11.780970
vt 5.000000 0.000000
vt 0.000000 0.000000
vt 5.000000 -11.780970
vt 0.000000 -11.780970
vt 5.000000 -23.561939
vt 0.000000 -23.561939
vt 5.000000 -35.342918
vt 0.000000 -35.342918
vt 5.000000 -47.123890
vt 0.000000 -47.123890
vt 5.000000 -58.904861
vt 0.000000 -58.904861
vt 5.000000 -70.685837
vt 0.000000 -70.685837
vt 5.000000 -82.466797
vt 0.000000 -82.466797
vt 5.000000 -94.247780
vt 0.000000 -94.247780
vt 5.000000 -106.028763
vt 0.000000 -106.028763
vt 5.000000 -117.809723
vt 0.000000 -117.809723
vt 43.466660 11.646860
vt -43.466660 11.646860
vt 45.000000 0.000000
vt -45.000000 0.000000
vt 43.466660 -11.646860
vt -43.466660 -11.646860
vt 38.971142 -22.500000
vt -38.971142 -22.500000
vt 31.819811 -31.819811
vt -31.819811 -31.819811
vt 22.500000 -38.971142
vt -22.500000 -38.971142
vt 11.646860 -43.466660
vt -11.646860 -43.466660
vt 0.000000 -45.000000
vt -38.971142 22.500000
vt 38.971142 22.500000
vt -31.819811 31.819811
vt 31.819811 31.819811
vt -22.500000 38.971142
vt 22.500000 38.971142
vt -11.646860 43.466660
vt 11.646860 43.466660
vt 0.000000 45.000000
vt 5.000000 -129.590698
vt 0.000000 -129.590698
vt 5.000000 -141.371674
vt 0.000000 -141.371674
vt 5.000000 141.371674
vt 0.000000 141.371674
vt 5.000000 129.590698
vt 0.000000 129.590698
vt 5.000000 117.809723
vt 0.000000 117.809723
vt 5.000000 106.028763
vt 0.000000 106.028763
vt 5.000000 94.247780
vt 0.000000 94.247780
vt 5.000000 82.466797
vt 0.000000 82.466797
vt 5.000000 70.685837
vt 0.000000 70.685837
vt 5.000000 58.904861
vt 0.000000 58.904861
vt 5.000000 47.123890
vt 0.000000 47.123890
vt 5.000000 35.342918
vt 0.000000 35.342918
vt 5.000000 23.561939
vt 0.000000 23.561939
vt 5.000000 11.780970
vt 0.000000 11.780970
vt 5.000000 0.000000
vt 0.000000 0.000000
vt 5.000000 -11.780970
vt 0.000000 -11.780970
vt 5.000000 -23.561939
vt 0.000000 -23.561939
vt 5.000000 -35.342918
vt 0.000000 -35.342918
vt 5.000000 -47.123890
vt 0.000000 -47.123890
vt 5.000000 -58.904861
vt 0.000000 -58.904861
vt 5.000000 -70.685837
vt 0.000000 -70.685837
vt 5.000000 -82.466797
vt 0.000000 -82.466797
vt 5.000000 -94.247780
vt 0.000000 -94.247780
vt 5.000000 -106.028763
vt 0.000000 -106.028763
vt 5.000000 -117.809723
vt 0.000000 -117.809723
vt 43.466660 11.646860
vt -43.466660 11.646860
vt 45.000000 0.000000
vt -45.000000 0.000000
vt 43.466660 -11.646860
vt -43.466660 -11.646860
vt 38.971142 -22.500000
vt -38.971142 -22.500000
vt 31.819811 -31.819811
vt -31.819811 -31.819811
vt 22.500000 -38.971142
vt -22.500000 -38.971142
vt 11.646860 -43.466660
vt -11.646860 -43.466660
vt 0.000000 -45.000000
vt -38.971142 22.500000
vt 38.971142 22.500000
vt -31.819811 31.819811
vt 31.819811 31.819811
vt -22.500000 38.971142
vt 22.500000 38.971142
vt -11.646860 43.466660
vt 11.646860 43.466660
vt 0.000000 45.000000
vt 5.000000 -129.590698
vt 0.000000 -129.590698
vt 5.000000 -141.371674
vt 0.000000 -141.371674
vt 5.000000 141.371674
vt 0.000000 141.371674
vt 5.000000 129.590698
vt 0.000000 129.590698
vt 5.000000 117.809723
vt 0.000000 117.809723
vt 5.000000 106.028763
vt 0.000000 106.028763
vt 5.000000 94.247780
vt 0.000000 94.247780
vt 5.000000 82.466797
vt 0.000000 82.466797
vt 5.000000 70.685837
vt 0.000000 70.685837
vt 5.000000 58.904861
vt 0.000000 58.904861
vt 5.000000 47.123890
vt 0.000000 47.123890
vt 5.000000 35.342918
vt 0.000000 35.342918
vt 5.000000 23.561939
vt 0.000000 23.561939
vt 5.000000 11.780970
vt 0.000000 11.780970
vt 5.000000 0.000000
vt 0.000000 0.000000
vt 5.000000 -11.780970
vt 0.000000 -11.780970
vt 5.000000 -23.561939
vt 0.000000 -23.561939
vt 5.000000 -35.342918
vt 0.000000 -35.342918
vt 5.000000 -47.123890
vt 0.000000 -47.123890
vt 5.000000 -58.904861
vt 0.000000 -58.904861
vt 5.000000 -70.685837
vt 0.000000 -70.685837
vt 5.000000 -82.466797
vt 0.000000 -82.466797
vt 5.000000 -94.247780
vt 0.000000 -94.247780
vt 5.000000 -106.028763
vt 0.000000 -106.028763
vt 5.000000 -117.809723
vt 0.000000 -117.809723
vt 43.466660 11.646860
vt -43.466660 11.646860
vt 45.000000 0.000000
vt -45.000000 0.000000
vt 43.466660 -11.646860
vt -43.466660 -11.646860
vt 38.971142 -22.500000
vt -38.971142 -22.500000
vt 31.819811 -31.819811
vt -31.819811 -31.819811
vt 22.500000 -38.971142
vt -22.500000 -38.971142
vt 11.646860 -43.466660
vt -11.646860 -43.466660
vt 0.000000 -45.000000
vt -38.971142 22.500000
vt 38.971142 22.500000
vt -31.819811 31.819811
vt 31.819811 31.819811
vt -22.500000 38.971142
vt 22.500000 38.971142
vt -11.646860 43.466660
vt 11.646860 43.466660
vt 0.000000 45.000000
vt -43.466660 -11.646860
vt -45.000000 0.000000
vt -50.000000 0.000000
vt -43.466660 11.646860
vt -48.296291 12.940950
vt -38.971142 22.500000
vt -43.301270 25.000000
vt -31.819811 31.819811
vt -35.355339 35.355339
vt -22.500000 38.971142
vt -25.000000 43.301270
vt -11.646860 43.466660
vt -12.940950 48.296291
vt 0.000000 45.000000
vt -0.000000 50.000000
vt 12.940950 48.296291
vt 11.646860 43.466660
vt 25.000000 43.301270
vt 22.500000 38.971142
vt 35.355339 35.355339
vt 31.819811 31.819811
vt 43.301270 25.000000
vt 38.971142 22.500000
vt 48.296291 12.940950
vt 43.466660 11.646860
vt 50.000000 0.000000
vt 45.000000 0.000000
vt 48.296291 -12.940950
vt 43.466660 -11.646860
vt 38.971142 -22.500000
vt 43.301270 -25.000000
vt 31.819811 -31.819811
vt 35.355339 -35.355339
vt 22.500000 -38.971142
vt 25.000000 -43.301270
vt 11.646860 -43.466660
vt 12.940950 -48.296291
vt 0.000000 -45.000000
vt -0.000000 -50.000000
vt -12.940950 -48.296291
vt -11.646860 -43.466660
vt -25.000000 -43.301270
vt -22.500000 -38.971142
vt -35.355339 -35.355339
vt -31.819811 -31.819811
vt -43.301270 -25.000000
vt -38.971142 -22.500000
vt -48.296291 -12.940950
vt -43.466660 -11.646860
vt -45.000000 0.000000
vt -50.000000 0.000000
vt -43.466660 11.646860
vt -48.296291 12.940950
vt -38.971142 22.500000
vt -43.301270 25.000000
vt -31.819811 31.819811
vt -35.355339 35.355339
vt -22.500000 38.971142
vt -25.000000 43.301270
vt -11.646860 43.466660
vt -12.940950 48.296291
vt 0.000000 45.000000
vt -0.000000 50.000000
vt 12.940950 48.296291
vt 11.646860 43.466660
vt 25.000000 43.301270
vt 22.500000 38.971142
vt 35.355339 35.355339
vt 31.819811 31.819811
vt 43.301270 25.000000
vt 38.971142 22.500000
vt 48.296291 12.940950
vt 43.466660 11.646860
vt 50.000000 0.000000
vt 45.000000 0.000000
vt 48.296291 -12.940950
vt 43.466660 -11.646860
vt 38.971142 -22.500000
vt 43.301270 -25.000000
vt 31.819811 -31.819811
vt 35.355339 -35.355339
vt 22.500000 -38.971142
vt 25.000000 -43.301270
vt 11.646860 -43.466660
vt 12.940950 -48.296291
vt 0.000000 -45.000000
vt -0.000000 -50.000000
vt -12.940950 -48.296291
vt -11.646860 -43.466660
vt -25.000000 -43.301270
vt -22.500000 -38.971142
vt -35.355339 -35.355339
vt -31.819811 -31.819811
vt -43.301270 -25.000000
vt -38.971142 -22.500000
vt -48.296291 -12.940950
vt 9.754520 88.357292
vt -0.000000 78.539818
vt 50.000000 78.539818
vt 9.754520 68.722343
vt 50.000000 65.449837
vt 19.134171 58.904861
vt 50.000000 52.359879
vt 27.778509 49.087379
vt 50.000000 39.269909
vt 35.355339 39.269909
vt 41.573479 29.452431
vt 50.000000 26.179939
vt 46.193981 19.634951
vt 50.000000 13.089970
vt 49.039261 9.817480
vt 49.759239 4.908740
vt 50.000000 0.000000
vt 50.000000 91.629784
vt 19.134171 98.174767
vt 50.000000 104.719757
vt 27.778509 107.992249
vt 50.000000 117.809723
vt 35.355339 117.809723
vt 41.573479 127.627197
vt 50.000000 130.899689
vt 46.193981 137.444672
vt 50.000000 143.989670
vt 49.039261 147.262161
vt 49.759239 152.170898
vt 50.000000 157.079636
vt -50.000000 0.000000
vt -49.759239 4.908740
vt -50.000000 13.089970
vt -49.039261 9.817480
vt -46.193981 19.634951
vt -50.000000 26.179939
vt -41.573479 29.452431
vt -50.000000 39.269909
vt -35.355339 39.269909
vt -27.778509 49.087379
vt -50.000000 52.359879
vt -19.134171 58.904861
vt -50.000000 65.449837
vt -9.754520 68.722343
vt -50.000000 78.539818
vt -9.754520 88.357292
vt -50.000000 91.629784
vt -19.134171 98.174767
vt -50.000000 104.719757
vt -27.778509 107.992249
vt -50.000000 117.809723
vt -35.355339 117.809723
vt -41.573479 127.627197
vt -50.000000 130.899689
vt -46.193981 137.444672
vt -50.000000 143.989670
vt -49.039261 147.262161
vt -49.759239 152.170898
vt -50.000000 157.079636
vt -41.573479 -127.627197
vt -35.355339 -117.809723
vt -50.000000 -117.809723
vt -41.573479 -107.992249
vt -50.000000 -104.719757
vt -46.193981 -98.174767
vt -50.000000 -91.629784
vt -49.039261 -88.357292
vt -49.759239 -83.448547
vt -50.000000 -78.539818
vt -50.000000 -130.899689
vt -46.193981 -137.444672
vt -50.000000 -143.989670
vt -49.039261 -147.262161
vt -49.759239 -152.170898
vt -50.000000 -157.079636
vt -41.573479 -49.087379
vt -35.355339 -39.269909
vt -50.000000 -39.269909
vt -41.573479 -29.452431
vt -50.000000 -26.179939
vt -46.193981 -19.634951
vt -50.000000 -13.089970
vt -49.039261 -9.817480
vt -49.759239 -4.908740
vt -50.000000 -52.359879
vt -46.193981 -58.904861
vt -50.000000 -65.449837
vt -49.039261 -68.722343
vt -49.759239 -73.631081
vt 41.573479 -29.452431
vt 35.355339 -39.269909
vt 50.000000 -39.269909
vt 41.573479 -49.087379
vt 50.000000 -52.359879
vt 46.193981 -58.904861
vt 50.000000 -65.449837
vt 49.039261 -68.722343
vt 49.759239 -73.631081
vt 50.000000 -78.539818
vt 50.000000 -26.179939
vt 46.193981 -19.634951
vt 50.000000 -13.089970
vt 49.039261 -9.817480
vt 49.759239 -4.908740
vt 49.759239 -83.448547
vt 50.000000 -91.629784
vt 49.039261 -88.357292
vt 46.193981 -98.174767
vt 50.000000 -104.719757
vt 41.573479 -107.992249
vt 50.000000 -117.809723
vt 35.355339 -117.809723
vt 41.573479 -127.627197
vt 50.000000 -130.899689
vt 46.193981 -137.444672
vt 50.000000 -143.989670
vt 49.039261 -147.262161
vt 49.759239 -152.170898
vt 50.000000 -157.079636
vt -43.466660 -11.646860
vt -45.000000 0.000000
vt -43.466660 11.646860
vt -48.296291 12.940950
vt -38.971142 22.500000
vt -43.301270 25.000000
vt -31.819811 31.819811
vt -35.355339 35.355339
vt -22.500000 38.971142
vt -25.000000 43.301270
vt -11.646860 43.466660
vt -12.940950 48.296291
vt 0.000000 45.000000
vt -0.000000 50.000000
vt 12.940950 48.296291
vt 11.646860 43.466660
vt 25.000000 43.301270
vt 22.500000 38.971142
vt 35.355339 35.355339
vt 31.819811 31.819811
vt 43.301270 25.000000
vt 38.971142 22.500000
vt 48.296291 12.940950
vt 43.466660 11.646860
vt 45.000000 0.000000
vt 48.296291 -12.940950
vt 43.466660 -11.646860
vt 38.971142 -22.500000
vt 43.301270 -25.000000
vt 31.819811 -31.819811
vt 35.355339 -35.355339
vt 22.500000 -38.971142
vt 25.000000 -43.301270
vt 11.646860 -43.466660
vt 12.940950 -48.296291
vt 0.000000 -45.000000
vt -0.000000 -50.000000
vt -12.940950 -48.296291
vt -11.646860 -43.466660
vt -25.000000 -43.301270
vt -22.500000 -38.971142
vt -35.355339 -35.355339
vt -31.819811 -31.819811
vt -43.301270 -25.000000
vt -38.971142 -22.500000
vt -48.296291 -12.940950
vt -43.466660 -11.646860
vt -45.000000 0.000000
vt -50.000000 0.000000
vt -43.466660 11.646860
vt -48.296291 12.940950
vt -38.971142 22.500000
vt -43.301270 25.000000
vt -31.819811 31.819811
vt -35.355339 35.355339
vt -22.500000 38.971142
vt -25.000000 43.301270
vt -11.646860 43.466660
vt -12.940950 48.296291
vt 0.000000 45.000000
vt -0.000000 50.000000
vt 12.940950 48.296291
vt 11.646860 43.466660
vt 25.000000 43.301270
vt 22.500000 38.971142
vt 35.355339 35.355339
vt 31.819811 31.819811
vt 43.301270 25.000000
vt 38.971142 22.500000
vt 48.296291 12.940950
vt 43.466660 11.646860
vt 50.000000 0.000000
vt 45.000000 0.000000
vt 48.296291 -12.940950
vt 43.466660 -11.646860
vt 38.971142 -22.500000
vt 43.301270 -25.000000
vt 31.819811 -31.819811
vt 35.355339 -35.355339
vt 22.500000 -38.971142
vt 25.000000 -43.301270
vt 11.646860 -43.466660
vt 12.940950 -48.296291
vt 0.000000 -45.000000
vt -0.000000 -50.000000
vt -12.940950 -48.296291
vt -11.646860 -43.466660
vt -25.000000 -43.301270
vt -22.500000 -38.971142
vt -35.355339 -35.355339
vt -31.819811 -31.819811
vt -43.301270 -25.000000
vt -38.971142 -22.500000
vt -48.296291 -12.940950
vt -41.573479 -49.087379
vt -35.355339 -39.269909
vt -50.000000 -39.269909
vt -41.573479 -29.452431
vt -50.000000 -26.179939
vt -46.193981 -19.634951
vt -50.000000 -13.089970
vt -49.039261 -9.817480
vt -49.759239 -4.908740
vt -50.000000 -52.359879
vt -46.193981 -58.904861
vt -50.000000 -65.449837
vt -49.039261 -68.722343
vt -49.759239 -73.631081
vt -50.000000 -78.539818
vt 49.759239 -4.908740
vt 50.000000 -13.089970
vt 49.039261 -9.817480
vt 46.193981 -19.634951
vt 50.000000 -26.179939
vt 41.573479 -29.452431
vt 50.000000 -39.269909
vt 35.355339 -39.269909
vt 41.573479 -49.087379
vt 50.000000 -52.359879
vt 46.193981 -58.904861
vt 50.000000 -65.449837
vt 49.039261 -68.722343
vt 49.759239 -73.631081
vt 50.000000 -78.539818
vt 41.573479 -107.992249
vt 35.355339 -117.809723
vt 50.000000 -117.809723
vt 41.573479 -127.627197
vt 50.000000 -130.899689
vt 46.193981 -137.444672
vt 50.000000 -143.989670
vt 49.039261 -147.262161
vt 49.759239 -152.170898
vt 50.000000 -157.079636
vt 50.000000 -104.719757
vt 46.193981 -98.174767
vt 50.000000 -91.629784
vt 49.039261 -88.357292
vt 49.759239 -83.448547
vt -50.000000 -157.079636
vt -49.759239 -152.170898
vt -50.000000 -143.989670
vt -49.039261 -147.262161
vt -46.193981 -137.444672
vt -50.000000 -130.899689
vt -41.573479 -127.627197
vt -50.000000 -117.809723
vt -35.355339 -117.809723
vt -41.573479 -107.992249
vt -50.000000 -104.719757
vt -46.193981 -98.174767
vt -50.000000 -91.629784
vt -49.039261 -88.357292
vt -49.759239 -83.448547
vt -9.754520 68.722343
vt -50.000000 78.539818
vt -9.754520 88.357292
vt -50.000000 91.629784
vt -19.134171 98.174767
vt -50.000000 104.719757
vt -27.778509 107.992249
vt -50.000000 117.809723
vt -35.355339 117.809723
vt -41.573479 127.627197
vt -50.000000 130.899689
vt -46.193981 137.444672
vt -50.000000 143.989670
vt -49.039261 147.262161
vt -49.759239 152.170898
vt -50.000000 157.079636
vt -50.000000 65.449837
vt -19.134171 58.904861
vt -50.000000 52.359879
vt -27.778509 49.087379
vt -50.000000 39.269909
vt -35.355339 39.269909
vt -41.573479 29.452431
vt -50.000000 26.179939
vt -46.193981 19.634951
vt -50.000000 13.089970
vt -49.039261 9.817480
vt -49.759239 4.908740
vt 50.000000 157.079636
vt 49.759239 152.170898
vt 50.000000 143.989670
vt 49.039261 147.262161
vt 46.193981 137.444672
vt 50.000000 130.899689
vt 41.573479 127.627197
vt 50.000000 117.809723
vt 35.355339 117.809723
vt 27.778509 107.992249
vt 50.000000 104.719757
vt 19.134171 98.174767
vt 50.000000 91.629784
vt 9.754520 88.357292
vt 50.000000 78.539818
vt 9.754520 68.722343
vt 50.000000 65.449837
vt 19.134171 58.904861
vt 50.000000 52.359879
vt 27.778509 49.087379
vt 50.000000 39.269909
vt 35.355339 39.269909
vt 41.573479 29.452431
vt 50.000000 26.179939
vt 46.193981 19.634951
vt 50.000000 13.089970
vt 49.039261 9.817480
vt 49.759239 4.908740
vt 48.296291 12.940950
vt 19.318520 5.176380
vt 50.000000 0.000000
vt 20.000000 0.000000
vt 48.296291 -12.940950
vt 19.318520 -5.176380
vt 17.320511 -10.000000
vt 17.320511 10.000000
vt 43.301270 25.000000
vt 14.142140 14.142140
vt 35.355339 35.355339
vt 10.000000 17.320511
vt 25.000000 43.301270
vt 5.176380 19.318520
vt 12.940950 48.296291
vt -0.000000 20.000000
vt -0.000000 50.000000
vt -12.940950 48.296291
vt -5.176380 19.318520
vt -25.000000 43.301270
vt -10.000000 17.320511
vt -35.355339 35.355339
vt -14.142140 14.142140
vt -43.301270 25.000000
vt -17.320511 10.000000
vt -48.296291 12.940950
vt -19.318520 5.176380
vt -50.000000 0.000000
vt -20.000000 0.000000
vt -19.318520 -5.176380
vt -48.296291 -12.940950
vt -17.320511 -10.000000
vt -43.301270 -25.000000
vt -14.142140 -14.142140
vt -35.355339 -35.355339
vt -10.000000 -17.320511
vt -25.000000 -43.301270
vt -5.176380 -19.318520
vt -12.940950 -48.296291
vt -0.000000 -20.000000
vt -0.000000 -50.000000
vt 12.940950 -48.296291
vt 5.176380 -19.318520
vt 25.000000 -43.301270
vt 10.000000 -17.320511
vt 35.355339 -35.355339
vt 14.142140 -14.142140
vt 43.301270 -25.000000
vt -20.240761 4.908740
vt -20.000000 0.000000
vt 0.000000 0.000000
vt -20.240761 -4.908740
vt -0.000000 -13.089970
vt -20.960739 -9.817480
vt -23.806021 -19.634951
vt -0.000000 -26.179939
vt -28.426519 -29.452431
vt -0.000000 -39.269909
vt -34.644661 -39.269909
vt -28.426519 -49.087379
vt -0.000000 -52.359879
vt -23.806021 -58.904861
vt -0.000000 -65.449837
vt -20.960739 -68.722343
vt -20.240761 -73.631081
vt -0.000000 -78.539818
vt -20.000000 -78.539818
vt -20.240761 -83.448547
vt -0.000000 -91.629784
vt -20.960739 -88.357292
vt -23.806021 -98.174767
vt -0.000000 -104.719757
vt -28.426519 -107.992249
vt 0.000000 -117.809723
vt -34.644661 -117.809723
vt -28.426519 -127.627197
vt -0.000000 -130.899689
vt -23.806021 -137.444672
vt -0.000000 -143.989670
vt -20.960739 -147.262161
vt -20.240761 -152.170898
vt -0.000000 -157.079636
vt -20.000000 -157.079636
vt -0.000000 157.079636
vt -20.000000 157.079636
vt -20.240761 152.170898
vt -0.000000 143.989670
vt -20.960739 147.262161
vt -23.806021 137.444672
vt -0.000000 130.899689
vt -28.426519 127.627197
vt 0.000000 117.809723
vt -34.644661 117.809723
vt -28.426519 107.992249
vt -0.000000 104.719757
vt -23.806021 98.174767
vt -0.000000 91.629784
vt -20.960739 88.357292
vt -20.240761 83.448547
vt -0.000000 78.539818
vt -20.000000 78.539818
vt -20.240761 73.631081
vt -0.000000 65.449837
vt -20.960739 68.722343
vt -23.806021 58.904861
vt -0.000000 52.359879
vt -28.426519 49.087379
vt -0.000000 39.269909
vt -34.644661 39.269909
vt -28.426519 29.452431
vt -0.000000 26.179939
vt -23.806021 19.634951
vt -0.000000 13.089970
vt -20.960739 9.817480
vn 0.0000 -0.1644 0.9864
vn 0.0000 0.1644 0.9864
vn 0.0000 0.3417 0.9398
vn 0.0000 0.6139 0.7894
vn 0.0000 0.8192 0.5735
vn 0.0000 0.9285 0.3714
vn 0.0000 0.9864 0.1644
vn 0.0000 0.9864 -0.1644
vn 0.0000 0.9285 -0.3714
vn 0.0000 0.8192 -0.5735
vn 0.0000 0.6139 -0.7894
vn 0.0000 0.3417 -0.9398
vn 0.0000 0.1644 -0.9864
vn 0.0000 -0.1644 -0.9864
vn 0.0000 -0.3714 -0.9285
vn 0.0000 -0.5735 -0.8192
vn 0.0000 -0.8192 -0.5735
vn 0.0000 -0.9285 -0.3714
vn 0.0000 -0.9864 -0.1644
vn 0.0000 -0.9864 0.1644
vn 0.0000 -0.9285 0.3714
vn 0.0000 -0.8192 0.5735
vn 0.0000 -0.5735 0.8192
vn 0.0000 -0.3714 0.9285
vn -1.0000 -0.0000 0.0000
vn -0.9864 -0.1644 0.0000
vn -0.9864 0.1644 0.0000
vn -0.9398 0.3417 0.0000
vn -0.7894 0.6139 0.0000
vn -0.5735 0.8192 0.0000
vn -0.3714 0.9285 0.0000
vn -0.1644 0.9864 0.0000
vn 0.1644 0.9864 0.0000
vn 0.3714 0.9285 0.0000
vn 0.5735 0.8192 0.0000
vn 0.7894 0.6139 0.0000
vn 0.9398 0.3417 0.0000
vn 0.9864 0.1644 0.0000
vn 0.9864 -0.1644 0.0000
vn 0.9285 -0.3714 0.0000
vn 0.8192 -0.5735 0.0000
vn 0.5735 -0.8192 0.0000
vn 0.3714 -0.9285 0.0000
vn 0.1644 -0.9864 0.0000
vn -0.1644 -0.9864 0.0000
vn -0.3714 -0.9285 0.0000
vn -0.5735 -0.8192 0.0000
vn -0.8192 -0.5735 0.0000
vn -0.9285 -0.3714 0.0000
vn 0.0000 0.0000 -1.0000
vn 1.0000 -0.0000 0.0000
vn 0.0000 -0.0000 1.0000
vn 0.0000 0.9950 0.0995
vn 0.0000 0.9950 -0.0995
vn -0.0133 0.9883 -0.1520
vn 0.0000 0.9487 -0.3162
vn -0.0149 0.9230 -0.3846
vn -0.0146 0.9226 -0.3855
vn -0.0128 0.9192 -0.3935
vn -0.0122 0.9182 -0.3959
vn -0.0496 0.7799 -0.6239
vn 0.0000 0.7071 -0.7071
vn -0.1354 0.6189 -0.7737
vn -0.0453 0.4224 -0.9053
vn -0.1146 0.3821 -0.9170
vn 0.0000 0.3162 -0.9487
vn -0.2356 0.2357 -0.9428
vn -0.0133 0.9883 0.1520
vn 0.0000 0.9487 0.3162
vn -0.0146 0.9226 0.3856
vn -0.0149 0.9230 0.3846
vn -0.0128 0.9192 0.3935
vn -0.0122 0.9182 0.3959
vn -0.0496 0.7799 0.6239
vn 0.0000 0.7071 0.7071
vn -0.1354 0.6189 0.7737
vn -0.0453 0.4224 0.9053
vn -0.1146 0.3821 0.9170
vn 0.0000 0.3162 0.9487
vn -0.2356 0.2357 0.9428
vn 0.2356 0.2357 -0.9428
vn 0.1146 0.3821 -0.9170
vn 0.0453 0.4224 -0.9053
vn 0.1354 0.6189 -0.7737
vn 0.0496 0.7799 -0.6239
vn 0.0128 0.9192 -0.3935
vn 0.0122 0.9182 -0.3959
vn 0.0146 0.9226 -0.3855
vn 0.0149 0.9230 -0.3846
vn 0.0133 0.9883 -0.1520
vn 0.0133 0.9883 0.1520
vn 0.0149 0.9230 0.3846
vn 0.0146 0.9226 0.3856
vn 0.0128 0.9192 0.3935
vn 0.0122 0.9182 0.3959
vn 0.0496 0.7799 0.6239
vn 0.1354 0.6189 0.7737
vn 0.0453 0.4224 0.9053
vn 0.1146 0.3821 0.9170
vn 0.2356 0.2357 0.9428
vn 0.0000 -0.7071 0.7071
vn 0.1354 -0.7737 0.6189
vn 0.0453 -0.9053 0.4225
vn 0.1146 -0.9170 0.3821
vn 0.0000 -0.9487 0.3162
vn 0.2357 -0.9428 0.2357
vn 0.1354 -0.6189 0.7737
vn 0.0453 -0.4225 0.9053
vn 0.1146 -0.3821 0.9170
vn 0.0000 -0.3162 0.9487
vn 0.2357 -0.2357 0.9428
vn 0.0000 -0.7071 -0.7071
vn 0.1354 -0.6189 -0.7737
vn 0.0453 -0.4225 -0.9053
vn 0.1146 -0.3821 -0.9170
vn 0.0000 -0.3162 -0.9487
vn 0.2357 -0.2357 -0.9428
vn 0.1354 -0.7737 -0.6189
vn 0.0453 -0.9053 -0.4225
vn 0.1146 -0.9170 -0.3821
vn 0.0000 -0.9487 -0.3162
vn 0.2357 -0.9428 -0.2357
vn -0.1354 -0.7737 -0.6189
vn -0.0453 -0.9053 -0.4225
vn -0.1146 -0.9170 -0.3821
vn -0.2357 -0.9428 -0.2357
vn -0.1354 -0.6189 -0.7737
vn -0.0453 -0.4225 -0.9053
vn -0.1146 -0.3821 -0.9170
vn -0.2357 -0.2357 -0.9428
vn -0.2357 -0.9428 0.2357
vn -0.1146 -0.9170 0.3821
vn -0.0453 -0.9053 0.4225
vn -0.1354 -0.7737 0.6189
vn -0.1354 -0.6189 0.7737
vn -0.0453 -0.4225 0.9053
vn -0.1146 -0.3821 0.9170
vn -0.2357 -0.2357 0.9428
vn 0.7071 -0.7071 0.0000
vn 0.7737 -0.6189 0.1354
vn 0.9053 -0.4224 0.0453
vn 0.9170 -0.3821 0.1146
vn 0.9487 -0.3162 0.0000
vn 0.9428 -0.2357 0.2357
vn 0.6189 -0.7737 0.1354
vn 0.4225 -0.9053 0.0453
vn 0.3821 -0.9170 0.1146
vn 0.3162 -0.9487 0.0000
vn 0.9428 -0.2357 -0.2357
vn 0.9170 -0.3821 -0.1146
vn 0.9053 -0.4225 -0.0453
vn 0.7737 -0.6189 -0.1354
vn 0.6189 -0.7737 -0.1354
vn 0.4225 -0.9053 -0.0453
vn 0.3821 -0.9170 -0.1146
vn -0.7071 -0.7071 0.0000
vn -0.7737 -0.6189 -0.1354
vn -0.9053 -0.4225 -0.0453
vn -0.9170 -0.3821 -0.1146
vn -0.9487 -0.3162 -0.0000
vn -0.9428 -0.2357 -0.2357
vn -0.6189 -0.7737 -0.1354
vn -0.4225 -0.9053 -0.0453
vn -0.3821 -0.9170 -0.1146
vn -0.3162 -0.9487 -0.0000
vn -0.9428 -0.2357 0.2357
vn -0.9170 -0.3821 0.1146
vn -0.9053 -0.4224 0.0453
vn -0.7737 -0.6189 0.1354
vn -0.6189 -0.7737 0.1354
vn -0.4225 -0.9053 0.0453
vn -0.3821 -0.9170 0.1146
vn 0.0995 0.9950 0.0000
vn -0.0995 0.9950 0.0000
vn -0.1520 0.9883 0.0133
vn -0.3162 0.9487 -0.0000
vn -0.3846 0.9230 0.0149
vn -0.3856 0.9226 0.0146
vn -0.3935 0.9192 0.0128
vn -0.3959 0.9182 0.0122
vn -0.6239 0.7799 0.0496
vn -0.7071 0.7071 0.0000
vn -0.7737 0.6189 0.1354
vn -0.9053 0.4224 0.0453
vn -0.9170 0.3821 0.1146
vn -0.9487 0.3162 -0.0000
vn -0.9428 0.2357 0.2356
vn 0.1520 0.9883 0.0133
vn 0.3162 0.9487 -0.0000
vn 0.3856 0.9226 0.0146
vn 0.3846 0.9230 0.0149
vn 0.3935 0.9192 0.0128
vn 0.3959 0.9182 0.0122
vn 0.6239 0.7799 0.0496
vn 0.7071 0.7071 0.0000
vn 0.7737 0.6189 0.1354
vn 0.9053 0.4224 0.0453
vn 0.9170 0.3821 0.1146
vn 0.9487 0.3162 -0.0000
vn 0.9428 0.2357 0.2356
vn -0.9428 0.2357 -0.2356
vn -0.9170 0.3821 -0.1146
vn -0.9053 0.4224 -0.0453
vn -0.7737 0.6189 -0.1354
vn -0.6239 0.7799 -0.0496
vn -0.3935 0.9192 -0.0128
vn -0.3959 0.9182 -0.0122
vn -0.3856 0.9226 -0.0146
vn -0.3846 0.9230 -0.0149
vn -0.1520 0.9883 -0.0133
vn 0.1520 0.9883 -0.0133
vn 0.3846 0.9230 -0.0149
vn 0.3856 0.9226 -0.0146
vn 0.3935 0.9192 -0.0128
vn 0.3959 0.9182 -0.0122
vn 0.6239 0.7799 -0.0496
vn 0.7737 0.6189 -0.1354
vn 0.9053 0.4224 -0.0453
vn 0.9170 0.3821 -0.1146
vn 0.9428 0.2357 -0.2356
vn 0.0000 -1.0000 0.0000
vn -0.9877 -0.0380 -0.1519
vn -0.9797 -0.0181 -0.1996
vn -0.9487 -0.0000 -0.3162
vn -0.9229 -0.0192 -0.3845
vn -0.9119 -0.0114 -0.4103
vn -0.7803 -0.0390 -0.6242
vn -0.7071 0.0000 -0.7071
vn -0.6242 -0.0390 -0.7803
vn -0.4103 -0.0114 -0.9119
vn -0.3845 -0.0192 -0.9229
vn -0.3162 0.0000 -0.9487
vn -0.1996 -0.0181 -0.9797
vn -0.1519 -0.0380 -0.9877
vn 0.1519 -0.0380 -0.9877
vn 0.1996 -0.0181 -0.9797
vn 0.3162 0.0000 -0.9487
vn 0.3845 -0.0192 -0.9229
vn 0.4103 -0.0114 -0.9119
vn 0.6242 -0.0390 -0.7803
vn 0.7071 0.0000 -0.7071
vn 0.7803 -0.0390 -0.6242
vn 0.9119 -0.0114 -0.4103
vn 0.9229 -0.0192 -0.3845
vn 0.9487 -0.0000 -0.3162
vn 0.9797 -0.0181 -0.1996
vn 0.9877 -0.0380 -0.1519
vn 0.9877 -0.0380 0.1519
vn 0.9797 -0.0181 0.1996
vn 0.9487 -0.0000 0.3162
vn 0.9229 -0.0192 0.3845
vn 0.9119 -0.0114 0.4103
vn 0.7803 -0.0390 0.6242
vn 0.7071 -0.0000 0.7071
vn 0.6242 -0.0390 0.7803
vn 0.4103 -0.0114 0.9119
vn 0.3845 -0.0192 0.9229
vn 0.3162 -0.0000 0.9487
vn 0.1996 -0.0181 0.9797
vn 0.1519 -0.0380 0.9877
vn -0.1519 -0.0380 0.9877
vn -0.1996 -0.0181 0.9797
vn -0.3162 -0.0000 0.9487
vn -0.3845 -0.0192 0.9229
vn -0.4103 -0.0114 0.9119
vn -0.6242 -0.0390 0.7803
vn -0.7071 -0.0000 0.7071
vn -0.7803 -0.0390 0.6242
vn -0.9119 -0.0114 0.4103
vn -0.9229 -0.0192 0.3845
vn -0.9487 -0.0000 0.3162
vn -0.9797 -0.0181 0.1996
vn -0.9877 -0.0380 0.1519
usemtl Default_OBJ.001
s 1
f 1/1/1 2/2/1 3/3/1
f 3/3/1 2/2/1 4/4/1
f 3/5/2 4/6/2 5/7/2
f 5/7/2 4/6/2 6/8/2
f 5/7/3 6/8/3 7/9/3
f 7/9/3 6/8/3 8/10/3
f 7/9/4 8/10/4 9/11/4
f 9/11/4 8/10/4 10/12/4
f 9/11/5 10/12/5 11/13/5
f 11/13/5 10/12/5 12/14/5
f 11/13/6 12/14/6 13/15/6
f 13/15/6 12/14/6 14/16/6
f 13/15/7 14/16/7 15/17/7
f 15/17/7 14/16/7 16/18/7
f 15/17/8 16/18/8 17/19/8
f 17/19/8 16/18/8 18/20/8
f 17/19/9 18/20/9 19/21/9
f 19/21/9 18/20/9 20/22/9
f 19/21/10 20/22/10 21/23/10
f 21/23/10 20/22/10 22/24/10
f 21/23/11 22/24/11 23/25/11
f 23/25/11 22/24/11 24/26/11
f 23/25/12 24/26/12 25/27/12
f 25/27/12 24/26/12 26/28/12
f 25/27/13 26/28/13 27/29/13
f 27/29/13 26/28/13 28/30/13
f 27/29/14 28/30/14 29/31/14
f 29/31/14 28/30/14 30/32/14
f 29/31/15 30/32/15 31/33/15
f 31/33/15 30/32/15 32/34/15
f 31/33/16 32/34/16 33/35/16
f 33/35/16 32/34/16 34/36/16
f 33/35/17 34/36/17 35/37/17
f 35/37/17 34/36/17 36/38/17
f 35/37/18 36/38/18 37/39/18
f 37/39/18 36/38/18 38/40/18
f 37/39/19 38/40/19 39/41/19
f 39/41/19 38/40/19 40/42/19
f 39/41/20 40/42/20 41/43/20
f 41/43/20 40/42/20 42/44/20
f 41/43/21 42/44/21 43/45/21
f 43/45/21 42/44/21 44/46/21
f 43/45/22 44/46/22 45/47/22
f 45/47/22 44/46/22 46/48/22
f 45/47/23 46/48/23 47/49/23
f 47/49/23 46/48/23 48/50/23
f 47/49/24 48/50/24 1/1/24
f 1/1/24 48/50/24 2/2/24
f 29/51/25 1/52/25 27/53/25
f 27/53/25 1/52/25 3/54/25
f 27/53/25 3/54/25 25/55/25
f 25/55/25 3/54/25 5/56/25
f 25/55/25 5/56/25 23/57/25
f 23/57/25 5/56/25 7/58/25
f 23/57/25 7/58/25 21/59/25
f 21/59/25 7/58/25 9/60/25
f 21/59/25 9/60/25 19/61/25
f 19/61/25 9/60/25 11/62/25
f 19/61/25 11/62/25 17/63/25
f 17/63/25 11/62/25 13/64/25
f 17/63/25 13/64/25 15/65/25
f 1/52/25 29/51/25 47/66/25
f 47/66/25 29/51/25 31/67/25
f 47/66/25 31/67/25 45/68/25
f 45/68/25 31/67/25 33/69/25
f 45/68/25 33/69/25 43/70/25
f 43/70/25 33/69/25 35/71/25
f 43/70/25 35/71/25 41/72/25
f 41/72/25 35/71/25 37/73/25
f 41/72/25 37/73/25 39/74/25
f 49/75/26 50/76/26 51/77/26
f 51/77/26 50/76/26 52/78/26
f 51/79/27 52/80/27 53/81/27
f 53/81/27 52/80/27 54/82/27
f 53/81/28 54/82/28 55/83/28
f 55/83/28 54/82/28 56/84/28
f 55/83/29 56/84/29 57/85/29
f 57/85/29 56/84/29 58/86/29
f 57/85/30 58/86/30 59/87/30
f 59/87/30 58/86/30 60/88/30
f 59/87/31 60/88/31 61/89/31
f 61/89/31 60/88/31 62/90/31
f 61/89/32 62/90/32 63/91/32
f 63/91/32 62/90/32 64/92/32
f 63/91/33 64/92/33 65/93/33
f 65/93/33 64/92/33 66/94/33
f 65/93/34 66/94/34 67/95/34
f 67/95/34 66/94/34 68/96/34
f 67/95/35 68/96/35 69/97/35
f 69/97/35 68/96/35 70/98/35
f 69/97/36 70/98/36 71/99/36
f 71/99/36 70/98/36 72/100/36
f 71/99/37 72/100/37 73/101/37
f 73/101/37 72/100/37 74/102/37
f 73/101/38 74/102/38 3/103/38
f 3/103/38 74/102/38 75/104/38
f 3/103/39 75/104/39 76/105/39
f 76/105/39 75/104/39 77/106/39
f 76/105/40 77/106/40 78/107/40
f 78/107/40 77/106/40 79/108/40
f 78/107/41 79/108/41 80/109/41
f 80/109/41 79/108/41 81/110/41
f 80/109/42 81/110/42 82/111/42
f 82/111/42 81/110/42 83/112/42
f 82/111/43 83/112/43 84/113/43
f 84/113/43 83/112/43 85/114/43
f 84/113/44 85/114/44 86/115/44
f 86/115/44 85/114/44 87/116/44
f 86/115/45 87/116/45 88/117/45
f 88/117/45 87/116/45 89/118/45
f 88/117/46 89/118/46 90/119/46
f 90/119/46 89/118/46 91/120/46
f 90/119/47 91/120/47 92/121/47
f 92/121/47 91/120/47 93/122/47
f 92/121/48 93/122/48 94/123/48
f 94/123/48 93/122/48 95/124/48
f 94/123/49 95/124/49 49/75/49
f 49/75/49 95/124/49 50/76/49
f 76/125/50 49/126/50 3/127/50
f 3/127/50 49/126/50 51/128/50
f 3/127/50 51/128/50 73/129/50
f 73/129/50 51/128/50 53/130/50
f 73/129/50 53/130/50 71/131/50
f 71/131/50 53/130/50 55/132/50
f 71/131/50 55/132/50 69/133/50
f 69/133/50 55/132/50 57/134/50
f 69/133/50 57/134/50 67/135/50
f 67/135/50 57/134/50 59/136/50
f 67/135/50 59/136/50 65/137/50
f 65/137/50 59/136/50 61/138/50
f 65/137/50 61/138/50 63/139/50
f 49/126/50 76/125/50 94/140/50
f 94/140/50 76/125/50 78/141/50
f 94/140/50 78/141/50 92/142/50
f 92/142/50 78/141/50 80/143/50
f 92/142/50 80/143/50 90/144/50
f 90/144/50 80/143/50 82/145/50
f 90/144/50 82/145/50 88/146/50
f 88/146/50 82/145/50 84/147/50
f 88/146/50 84/147/50 86/148/50
f 96/149/14 97/150/14 98/151/14
f 98/151/14 97/150/14 99/152/14
f 98/153/13 99/154/13 100/155/13
f 100/155/13 99/154/13 101/156/13
f 100/155/12 101/156/12 102/157/12
f 102/157/12 101/156/12 103/158/12
f 102/157/11 103/158/11 104/159/11
f 104/159/11 103/158/11 105/160/11
f 104/159/10 105/160/10 106/161/10
f 106/161/10 105/160/10 107/162/10
f 106/161/9 107/162/9 108/163/9
f 108/163/9 107/162/9 109/164/9
f 108/163/8 109/164/8 110/165/8
f 110/165/8 109/164/8 111/166/8
f 110/165/7 111/166/7 112/167/7
f 112/167/7 111/166/7 113/168/7
f 112/167/6 113/168/6 114/169/6
f 114/169/6 113/168/6 115/170/6
f 114/169/5 115/170/5 116/171/5
f 116/171/5 115/170/5 117/172/5
f 116/171/4 117/172/4 118/173/4
f 118/173/4 117/172/4 119/174/4
f 118/173/3 119/174/3 120/175/3
f 120/175/3 119/174/3 121/176/3
f 120/175/2 121/176/2 51/177/2
f 51/177/2 121/176/2 122/178/2
f 51/177/1 122/178/1 123/179/1
f 123/179/1 122/178/1 124/180/1
f 123/179/24 124/180/24 125/181/24
f 125/181/24 124/180/24 126/182/24
f 125/181/23 126/182/23 127/183/23
f 127/183/23 126/182/23 128/184/23
f 127/183/22 128/184/22 129/185/22
f 129/185/22 128/184/22 130/186/22
f 129/185/21 130/186/21 131/187/21
f 131/187/21 130/186/21 132/188/21
f 131/187/20 132/188/20 133/189/20
f 133/189/20 132/188/20 134/190/20
f 133/189/19 134/190/19 135/191/19
f 135/191/19 134/190/19 136/192/19
f 135/191/18 136/192/18 137/193/18
f 137/193/18 136/192/18 138/194/18
f 137/193/17 138/194/17 139/195/17
f 139/195/17 138/194/17 140/196/17
f 139/195/16 140/196/16 141/197/16
f 141/197/16 140/196/16 142/198/16
f 141/197/15 142/198/15 96/149/15
f 96/149/15 142/198/15 97/150/15
f 123/199/51 96/200/51 51/201/51
f 51/201/51 96/200/51 98/202/51
f 51/201/51 98/202/51 120/203/51
f 120/203/51 98/202/51 100/204/51
f 120/203/51 100/204/51 118/205/51
f 118/205/51 100/204/51 102/206/51
f 118/205/51 102/206/51 116/207/51
f 116/207/51 102/206/51 104/208/51
f 116/207/51 104/208/51 114/209/51
f 114/209/51 104/208/51 106/210/51
f 114/209/51 106/210/51 112/211/51
f 112/211/51 106/210/51 108/212/51
f 112/211/51 108/212/51 110/213/51
f 96/200/51 123/199/51 141/214/51
f 141/214/51 123/199/51 125/215/51
f 141/214/51 125/215/51 139/216/51
f 139/216/51 125/215/51 127/217/51
f 139/216/51 127/217/51 137/218/51
f 137/218/51 127/217/51 129/219/51
f 137/218/51 129/219/51 135/220/51
f 135/220/51 129/219/51 131/221/51
f 135/220/51 131/221/51 133/222/51
f 143/223/39 144/224/39 27/225/39
f 27/225/39 144/224/39 145/226/39
f 27/227/38 145/228/38 146/229/38
f 146/229/38 145/228/38 147/230/38
f 146/229/37 147/230/37 148/231/37
f 148/231/37 147/230/37 149/232/37
f 148/231/36 149/232/36 150/233/36
f 150/233/36 149/232/36 151/234/36
f 150/233/35 151/234/35 152/235/35
f 152/235/35 151/234/35 153/236/35
f 152/235/34 153/236/34 154/237/34
f 154/237/34 153/236/34 155/238/34
f 154/237/33 155/238/33 156/239/33
f 156/239/33 155/238/33 157/240/33
f 156/239/32 157/240/32 158/241/32
f 158/241/32 157/240/32 159/242/32
f 158/241/31 159/242/31 160/243/31
f 160/243/31 159/242/31 161/244/31
f 160/243/30 161/244/30 162/245/30
f 162/245/30 161/244/30 163/246/30
f 162/245/29 163/246/29 164/247/29
f 164/247/29 163/246/29 165/248/29
f 164/247/28 165/248/28 166/249/28
f 166/249/28 165/248/28 167/250/28
f 166/249/27 167/250/27 98/251/27
f 98/251/27 167/250/27 168/252/27
f 98/251/26 168/252/26 169/253/26
f 169/253/26 168/252/26 170/254/26
f 169/253/49 170/254/49 171/255/49
f 171/255/49 170/254/49 172/256/49
f 171/255/48 172/256/48 173/257/48
f 173/257/48 172/256/48 174/258/48
f 173/257/47 174/258/47 175/259/47
f 175/259/47 174/258/47 176/260/47
f 175/259/46 176/260/46 177/261/46
f 177/261/46 176/260/46 178/262/46
f 177/261/45 178/262/45 179/263/45
f 179/263/45 178/262/45 180/264/45
f 179/263/44 180/264/44 181/265/44
f 181/265/44 180/264/44 182/266/44
f 181/265/43 182/266/43 183/267/43
f 183/267/43 182/266/43 184/268/43
f 183/267/42 184/268/42 185/269/42
f 185/269/42 184/268/42 186/270/42
f 185/269/41 186/270/41 187/271/41
f 187/271/41 186/270/41 188/272/41
f 187/271/40 188/272/40 143/223/40
f 143/223/40 188/272/40 144/224/40
f 169/273/52 143/274/52 98/275/52
f 98/275/52 143/274/52 27/276/52
f 98/275/52 27/276/52 166/277/52
f 166/277/52 27/276/52 146/278/52
f 166/277/52 146/278/52 164/279/52
f 164/279/52 146/278/52 148/280/52
f 164/279/52 148/280/52 162/281/52
f 162/281/52 148/280/52 150/282/52
f 162/281/52 150/282/52 160/283/52
f 160/283/52 150/282/52 152/284/52
f 160/283/52 152/284/52 158/285/52
f 158/285/52 152/284/52 154/286/52
f 158/285/52 154/286/52 156/287/52
f 143/274/52 169/273/52 187/288/52
f 187/288/52 169/273/52 171/289/52
f 187/288/52 171/289/52 185/290/52
f 185/290/52 171/289/52 173/291/52
f 185/290/52 173/291/52 183/292/52
f 183/292/52 173/291/52 175/293/52
f 183/292/52 175/293/52 181/294/52
f 181/294/52 175/293/52 177/295/52
f 181/294/52 177/295/52 179/296/52
f 6/297/25 4/298/25 189/299/25
f 189/299/25 4/298/25 2/300/25
f 189/299/25 2/300/25 190/301/25
f 190/301/25 2/300/25 48/302/25
f 190/301/25 48/302/25 191/303/25
f 191/303/25 48/302/25 46/304/25
f 191/303/25 46/304/25 192/305/25
f 192/305/25 46/304/25 44/306/25
f 192/305/25 44/306/25 193/307/25
f 193/307/25 44/306/25 42/308/25
f 193/307/25 42/308/25 194/309/25
f 194/309/25 42/308/25 40/310/25
f 194/309/25 40/310/25 195/311/25
f 195/311/25 40/310/25 196/312/25
f 196/312/25 40/310/25 38/313/25
f 196/312/25 38/313/25 197/314/25
f 197/314/25 38/313/25 36/315/25
f 197/314/25 36/315/25 198/316/25
f 198/316/25 36/315/25 34/317/25
f 198/316/25 34/317/25 199/318/25
f 199/318/25 34/317/25 32/319/25
f 199/318/25 32/319/25 200/320/25
f 200/320/25 32/319/25 30/321/25
f 200/320/25 30/321/25 201/322/25
f 201/322/25 30/321/25 28/323/25
f 201/322/25 28/323/25 202/324/25
f 202/324/25 28/323/25 26/325/25
f 202/324/25 26/325/25 24/326/25
f 202/324/25 24/326/25 203/327/25
f 203/327/25 24/326/25 22/328/25
f 203/327/25 22/328/25 204/329/25
f 204/329/25 22/328/25 20/330/25
f 204/329/25 20/330/25 205/331/25
f 205/331/25 20/330/25 18/332/25
f 205/331/25 18/332/25 206/333/25
f 206/333/25 18/332/25 16/334/25
f 206/333/25 16/334/25 207/335/25
f 207/335/25 16/334/25 208/336/25
f 208/336/25 16/334/25 14/337/25
f 208/336/25 14/337/25 209/338/25
f 209/338/25 14/337/25 12/339/25
f 209/338/25 12/339/25 210/340/25
f 210/340/25 12/339/25 10/341/25
f 210/340/25 10/341/25 211/342/25
f 211/342/25 10/341/25 8/343/25
f 211/342/25 8/343/25 212/344/25
f 212/344/25 8/343/25 6/297/25
f 212/344/25 6/297/25 189/299/25
f 101/345/51 99/346/51 213/347/51
f 213/347/51 99/346/51 97/348/51
f 213/347/51 97/348/51 214/349/51
f 214/349/51 97/348/51 142/350/51
f 214/349/51 142/350/51 215/351/51
f 215/351/51 142/350/51 140/352/51
f 215/351/51 140/352/51 216/353/51
f 216/353/51 140/352/51 138/354/51
f 216/353/51 138/354/51 217/355/51
f 217/355/51 138/354/51 136/356/51
f 217/355/51 136/356/51 218/357/51
f 218/357/51 136/356/51 134/358/51
f 218/357/51 134/358/51 219/359/51
f 219/359/51 134/358/51 220/360/51
f 220/360/51 134/358/51 132/361/51
f 220/360/51 132/361/51 221/362/51
f 221/362/51 132/361/51 130/363/51
f 221/362/51 130/363/51 222/364/51
f 222/364/51 130/363/51 128/365/51
f 222/364/51 128/365/51 223/366/51
f 223/366/51 128/365/51 126/367/51
f 223/366/51 126/367/51 224/368/51
f 224/368/51 126/367/51 124/369/51
f 224/368/51 124/369/51 225/370/51
f 225/370/51 124/369/51 122/371/51
f 225/370/51 122/371/51 226/372/51
f 226/372/51 122/371/51 121/373/51
f 226/372/51 121/373/51 119/374/51
f 226/372/51 119/374/51 227/375/51
f 227/375/51 119/374/51 117/376/51
f 227/375/51 117/376/51 228/377/51
f 228/377/51 117/376/51 115/378/51
f 228/377/51 115/378/51 229/379/51
f 229/379/51 115/378/51 113/380/51
f 229/379/51 113/380/51 230/381/51
f 230/381/51 113/380/51 111/382/51
f 230/381/51 111/382/51 231/383/51
f 231/383/51 111/382/51 232/384/51
f 232/384/51 111/382/51 109/385/51
f 232/384/51 109/385/51 233/386/51
f 233/386/51 109/385/51 107/387/51
f 233/386/51 107/387/51 234/388/51
f 234/388/51 107/387/51 105/389/51
f 234/388/51 105/389/51 235/390/51
f 235/390/51 105/389/51 103/391/51
f 235/390/51 103/391/51 236/392/51
f 236/392/51 103/391/51 101/345/51
f 236/392/51 101/345/51 213/347/51
f 237/393/53 238/394/53 195/395/53
f 195/395/54 238/394/54 239/396/54
f 195/395/55 239/396/55 194/397/55
f 194/397/56 239/396/56 240/398/56
f 194/397/57 240/398/58 193/399/59
f 193/399/59 240/398/58 241/400/60
f 193/399/61 241/400/61 192/401/61
f 192/401/62 241/400/62 242/402/62
f 192/401/62 242/402/62 243/403/62
f 192/401/63 243/403/63 191/404/63
f 191/404/64 243/403/64 244/405/64
f 191/404/65 244/405/65 190/406/65
f 190/406/66 244/405/66 245/407/66
f 190/406/67 245/407/67 246/408/67
f 246/408/25 189/409/25 190/406/25
f 195/395/68 196/410/68 237/393/68
f 237/393/69 196/410/69 247/411/69
f 247/411/70 196/410/71 197/412/72
f 247/411/70 197/412/72 248/413/73
f 248/413/74 197/412/74 198/414/74
f 248/413/75 198/414/75 249/415/75
f 249/415/75 198/414/75 250/416/75
f 250/416/76 198/414/76 199/417/76
f 250/416/77 199/417/77 251/418/77
f 251/418/78 199/417/78 200/419/78
f 251/418/79 200/419/79 252/420/79
f 252/420/80 200/419/80 253/421/80
f 253/421/25 200/419/25 201/422/25
f 225/423/51 254/424/51 224/425/51
f 224/425/81 254/424/81 255/426/81
f 224/425/66 255/426/66 256/427/66
f 224/425/82 256/427/82 223/428/82
f 223/428/83 256/427/83 257/429/83
f 223/428/84 257/429/84 222/430/84
f 222/430/62 257/429/62 258/431/62
f 222/430/62 258/431/62 259/432/62
f 222/430/85 259/432/85 221/433/85
f 221/433/86 259/432/87 260/434/88
f 221/433/86 260/434/88 220/435/89
f 220/435/56 260/434/56 261/436/56
f 220/435/90 261/436/90 219/437/90
f 219/437/54 261/436/54 238/394/54
f 219/437/53 238/394/53 262/438/53
f 219/437/91 262/438/91 218/439/91
f 218/439/69 262/438/69 263/440/69
f 218/439/92 263/440/93 217/441/94
f 217/441/94 263/440/93 264/442/95
f 217/441/96 264/442/96 216/443/96
f 216/443/75 264/442/75 265/444/75
f 216/443/75 265/444/75 266/445/75
f 216/443/97 266/445/97 215/446/97
f 215/446/98 266/445/98 267/447/98
f 215/446/99 267/447/99 214/448/99
f 214/448/79 267/447/79 268/449/79
f 214/448/100 268/449/100 269/450/100
f 269/450/51 213/451/51 214/448/51
f 270/452/101 271/453/101 234/454/101
f 234/454/101 271/453/101 272/455/101
f 234/454/102 272/455/102 233/456/102
f 233/456/103 272/455/103 273/457/103
f 233/456/104 273/457/104 232/458/104
f 232/458/105 273/457/105 274/459/105
f 232/458/106 274/459/106 275/460/106
f 275/460/51 231/461/51 232/458/51
f 234/454/107 235/462/107 270/452/107
f 270/452/108 235/462/108 276/463/108
f 276/463/109 235/462/109 236/464/109
f 276/463/110 236/464/110 277/465/110
f 277/465/111 236/464/111 278/466/111
f 278/466/51 236/464/51 213/467/51
f 279/468/112 280/469/112 228/470/112
f 228/470/112 280/469/112 281/471/112
f 228/470/113 281/471/113 227/472/113
f 227/472/114 281/471/114 282/473/114
f 227/472/115 282/473/115 226/474/115
f 226/474/116 282/473/116 283/475/116
f 226/474/117 283/475/117 284/476/117
f 284/476/51 225/423/51 226/474/51
f 228/470/118 229/477/118 279/468/118
f 279/468/119 229/477/119 285/478/119
f 285/478/120 229/477/120 230/479/120
f 285/478/121 230/479/121 286/480/121
f 286/480/122 230/479/122 287/481/122
f 287/481/51 230/479/51 231/461/51
f 288/482/112 289/483/112 210/484/112
f 210/484/112 289/483/112 290/485/112
f 210/484/123 290/485/123 209/486/123
f 209/486/124 290/485/124 291/487/124
f 209/486/125 291/487/125 208/488/125
f 208/488/121 291/487/121 292/489/121
f 208/488/126 292/489/126 293/490/126
f 293/490/25 207/491/25 208/488/25
f 210/484/127 211/492/127 288/482/127
f 288/482/128 211/492/128 294/493/128
f 294/493/129 211/492/129 212/494/129
f 294/493/116 212/494/116 295/495/116
f 295/495/130 212/494/130 296/496/130
f 296/496/25 212/494/25 189/409/25
f 207/491/25 297/497/25 206/498/25
f 206/498/131 297/497/131 298/499/131
f 206/498/105 298/499/105 299/500/105
f 206/498/132 299/500/132 205/501/132
f 205/501/133 299/500/133 300/502/133
f 205/501/134 300/502/134 204/503/134
f 204/503/101 300/502/101 301/504/101
f 204/503/101 301/504/101 302/505/101
f 204/503/135 302/505/135 203/506/135
f 203/506/136 302/505/136 303/507/136
f 203/506/137 303/507/137 202/508/137
f 202/508/110 303/507/110 304/509/110
f 202/508/138 304/509/138 305/510/138
f 305/510/25 201/511/25 202/508/25
f 54/512/50 52/513/50 225/423/50
f 225/423/50 52/513/50 50/514/50
f 225/423/50 50/514/50 306/515/50
f 306/515/50 50/514/50 95/516/50
f 306/515/50 95/516/50 307/517/50
f 307/517/50 95/516/50 93/518/50
f 307/517/50 93/518/50 308/519/50
f 308/519/50 93/518/50 91/520/50
f 308/519/50 91/520/50 309/521/50
f 309/521/50 91/520/50 89/522/50
f 309/521/50 89/522/50 310/523/50
f 310/523/50 89/522/50 87/524/50
f 310/523/50 87/524/50 311/525/50
f 311/525/50 87/524/50 312/526/50
f 312/526/50 87/524/50 85/527/50
f 312/526/50 85/527/50 313/528/50
f 313/528/50 85/527/50 83/529/50
f 313/528/50 83/529/50 314/530/50
f 314/530/50 83/529/50 81/531/50
f 314/530/50 81/531/50 315/532/50
f 315/532/50 81/531/50 79/533/50
f 315/532/50 79/533/50 316/534/50
f 316/534/50 79/533/50 77/535/50
f 316/534/50 77/535/50 189/409/50
f 189/409/50 77/535/50 75/536/50
f 189/409/50 75/536/50 317/537/50
f 317/537/50 75/536/50 74/538/50
f 317/537/50 74/538/50 72/539/50
f 317/537/50 72/539/50 318/540/50
f 318/540/50 72/539/50 70/541/50
f 318/540/50 70/541/50 319/542/50
f 319/542/50 70/541/50 68/543/50
f 319/542/50 68/543/50 320/544/50
f 320/544/50 68/543/50 66/545/50
f 320/544/50 66/545/50 321/546/50
f 321/546/50 66/545/50 64/547/50
f 321/546/50 64/547/50 322/548/50
f 322/548/50 64/547/50 323/549/50
f 323/549/50 64/547/50 62/550/50
f 323/549/50 62/550/50 324/551/50
f 324/551/50 62/550/50 60/552/50
f 324/551/50 60/552/50 325/553/50
f 325/553/50 60/552/50 58/554/50
f 325/553/50 58/554/50 326/555/50
f 326/555/50 58/554/50 56/556/50
f 326/555/50 56/556/50 327/557/50
f 327/557/50 56/556/50 54/512/50
f 327/557/50 54/512/50 225/423/50
f 147/558/52 145/559/52 201/560/52
f 201/560/52 145/559/52 144/561/52
f 201/560/52 144/561/52 328/562/52
f 328/562/52 144/561/52 188/563/52
f 328/562/52 188/563/52 329/564/52
f 329/564/52 188/563/52 186/565/52
f 329/564/52 186/565/52 330/566/52
f 330/566/52 186/565/52 184/567/52
f 330/566/52 184/567/52 331/568/52
f 331/568/52 184/567/52 182/569/52
f 331/568/52 182/569/52 332/570/52
f 332/570/52 182/569/52 180/571/52
f 332/570/52 180/571/52 333/572/52
f 333/572/52 180/571/52 334/573/52
f 334/573/52 180/571/52 178/574/52
f 334/573/52 178/574/52 335/575/52
f 335/575/52 178/574/52 176/576/52
f 335/575/52 176/576/52 336/577/52
f 336/577/52 176/576/52 174/578/52
f 336/577/52 174/578/52 337/579/52
f 337/579/52 174/578/52 172/580/52
f 337/579/52 172/580/52 338/581/52
f 338/581/52 172/580/52 170/582/52
f 338/581/52 170/582/52 213/583/52
f 213/583/52 170/582/52 168/584/52
f 213/583/52 168/584/52 339/585/52
f 339/585/52 168/584/52 167/586/52
f 339/585/52 167/586/52 165/587/52
f 339/585/52 165/587/52 340/588/52
f 340/588/52 165/587/52 163/589/52
f 340/588/52 163/589/52 341/590/52
f 341/590/52 163/589/52 161/591/52
f 341/590/52 161/591/52 342/592/52
f 342/592/52 161/591/52 159/593/52
f 342/592/52 159/593/52 343/594/52
f 343/594/52 159/593/52 157/595/52
f 343/594/52 157/595/52 344/596/52
f 344/596/52 157/595/52 345/597/52
f 345/597/52 157/595/52 155/598/52
f 345/597/52 155/598/52 346/599/52
f 346/599/52 155/598/52 153/600/52
f 346/599/52 153/600/52 347/601/52
f 347/601/52 153/600/52 151/602/52
f 347/601/52 151/602/52 348/603/52
f 348/603/52 151/602/52 149/604/52
f 348/603/52 149/604/52 349/605/52
f 349/605/52 149/604/52 147/558/52
f 349/605/52 147/558/52 201/560/52
f 350/606/139 271/607/139 341/608/139
f 341/608/139 271/607/139 270/609/139
f 341/608/140 270/609/140 340/610/140
f 340/610/141 270/609/141 276/611/141
f 340/610/142 276/611/142 339/612/142
f 339/612/143 276/611/143 277/613/143
f 339/612/144 277/613/144 278/614/144
f 278/614/52 213/347/52 339/612/52
f 341/608/145 342/615/145 350/606/145
f 350/606/146 342/615/146 351/616/146
f 351/616/147 342/615/147 343/617/147
f 351/616/148 343/617/148 352/618/148
f 352/618/106 343/617/106 353/619/106
f 353/619/52 343/617/52 344/620/52
f 225/370/50 284/621/50 327/622/50
f 327/622/149 284/621/149 283/623/149
f 327/622/143 283/623/143 282/624/143
f 327/622/150 282/624/150 326/625/150
f 326/625/151 282/624/151 281/626/151
f 326/625/152 281/626/152 325/627/152
f 325/627/139 281/626/139 280/628/139
f 325/627/139 280/628/139 354/629/139
f 325/627/153 354/629/153 324/630/153
f 324/630/154 354/629/154 355/631/154
f 324/630/155 355/631/155 323/632/155
f 323/632/148 355/631/148 356/633/148
f 323/632/122 356/633/122 357/634/122
f 357/634/50 322/635/50 323/632/50
f 358/636/156 289/637/156 319/638/156
f 319/638/156 289/637/156 288/639/156
f 319/638/157 288/639/157 318/640/157
f 318/640/158 288/639/158 294/641/158
f 318/640/159 294/641/159 317/642/159
f 317/642/160 294/641/160 295/643/160
f 317/642/161 295/643/161 296/644/161
f 296/644/50 189/645/50 317/642/50
f 319/638/162 320/646/162 358/636/162
f 358/636/163 320/646/163 359/647/163
f 359/647/164 320/646/164 321/648/164
f 359/647/165 321/648/165 360/649/165
f 360/649/126 321/648/126 361/650/126
f 361/650/50 321/648/50 322/635/50
f 201/651/52 305/652/52 349/653/52
f 349/653/166 305/652/166 304/654/166
f 349/653/160 304/654/160 303/655/160
f 349/653/167 303/655/167 348/656/167
f 348/656/168 303/655/168 302/657/168
f 348/656/169 302/657/169 347/658/169
f 347/658/156 302/657/156 301/659/156
f 347/658/156 301/659/156 362/660/156
f 347/658/170 362/660/170 346/661/170
f 346/661/171 362/660/171 363/662/171
f 346/661/172 363/662/172 345/663/172
f 345/663/165 363/662/165 364/664/165
f 345/663/131 364/664/131 365/665/131
f 365/665/52 344/620/52 345/663/52
f 262/666/173 238/394/173 333/667/173
f 333/667/174 238/394/174 237/668/174
f 333/667/175 237/668/175 332/669/175
f 332/669/176 237/668/176 247/670/176
f 332/669/177 247/670/178 331/671/179
f 331/671/179 247/670/178 248/672/180
f 331/671/181 248/672/181 330/673/181
f 330/673/182 248/672/182 249/674/182
f 330/673/182 249/674/182 250/675/182
f 330/673/183 250/675/183 329/676/183
f 329/676/184 250/675/184 251/677/184
f 329/676/185 251/677/185 328/678/185
f 328/678/186 251/677/186 252/679/186
f 328/678/187 252/679/187 253/680/187
f 253/680/52 201/681/52 328/678/52
f 333/667/188 334/682/188 262/666/188
f 262/666/189 334/682/189 263/683/189
f 263/683/190 334/682/191 335/684/192
f 263/683/190 335/684/192 264/685/193
f 264/685/194 335/684/194 336/686/194
f 264/685/195 336/686/195 265/687/195
f 265/687/195 336/686/195 266/688/195
f 266/688/196 336/686/196 337/689/196
f 266/688/197 337/689/197 267/690/197
f 267/690/198 337/689/198 338/691/198
f 267/690/199 338/691/199 268/692/199
f 268/692/200 338/691/200 269/693/200
f 269/693/52 338/691/52 213/347/52
f 189/694/50 246/695/50 316/696/50
f 316/696/201 246/695/201 245/697/201
f 316/696/186 245/697/186 244/698/186
f 316/696/202 244/698/202 315/699/202
f 315/699/203 244/698/203 243/700/203
f 315/699/204 243/700/204 314/701/204
f 314/701/182 243/700/182 242/702/182
f 314/701/182 242/702/182 241/703/182
f 314/701/205 241/703/205 313/704/205
f 313/704/206 241/703/207 240/705/208
f 313/704/206 240/705/208 312/706/209
f 312/706/176 240/705/176 239/707/176
f 312/706/210 239/707/210 311/708/210
f 311/708/174 239/707/174 238/394/174
f 311/708/173 238/394/173 261/709/173
f 311/708/211 261/709/211 310/710/211
f 310/710/189 261/709/189 260/711/189
f 310/710/212 260/711/213 309/712/214
f 309/712/214 260/711/213 259/713/215
f 309/712/216 259/713/216 308/714/216
f 308/714/195 259/713/195 258/715/195
f 308/714/195 258/715/195 257/716/195
f 308/714/217 257/716/217 307/717/217
f 307/717/218 257/716/218 256/718/218
f 307/717/219 256/718/219 306/719/219
f 306/719/199 256/718/199 255/720/199
f 306/719/220 255/720/220 254/721/220
f 254/721/50 225/370/50 306/719/50
f 366/722/221 367/723/221 368/724/221
f 368/724/221 367/723/221 369/725/221
f 368/724/221 369/725/221 370/726/221
f 370/726/221 369/725/221 371/727/221
f 370/726/221 371/727/221 372/728/221
f 367/723/221 366/722/221 373/729/221
f 373/729/221 366/722/221 374/730/221
f 373/729/221 374/730/221 375/731/221
f 375/731/221 374/730/221 376/732/221
f 375/731/221 376/732/221 377/733/221
f 377/733/221 376/732/221 378/734/221
f 377/733/221 378/734/221 379/735/221
f 379/735/221 378/734/221 380/736/221
f 379/735/221 380/736/221 381/737/221
f 381/737/221 380/736/221 382/738/221
f 381/737/221 382/738/221 383/739/221
f 381/737/221 383/739/221 384/740/221
f 384/740/221 383/739/221 385/741/221
f 384/740/221 385/741/221 386/742/221
f 386/742/221 385/741/221 387/743/221
f 386/742/221 387/743/221 388/744/221
f 388/744/221 387/743/221 389/745/221
f 388/744/221 389/745/221 390/746/221
f 390/746/221 389/745/221 391/747/221
f 390/746/221 391/747/221 392/748/221
f 392/748/221 391/747/221 393/749/221
f 392/748/221 393/749/221 394/750/221
f 394/750/221 393/749/221 395/751/221
f 395/751/221 393/749/221 396/752/221
f 395/751/221 396/752/221 397/753/221
f 397/753/221 396/752/221 398/754/221
f 397/753/221 398/754/221 399/755/221
f 399/755/221 398/754/221 400/756/221
f 399/755/221 400/756/221 401/757/221
f 401/757/221 400/756/221 402/758/221
f 401/757/221 402/758/221 403/759/221
f 403/759/221 402/758/221 404/760/221
f 403/759/221 404/760/221 405/761/221
f 405/761/221 404/760/221 406/762/221
f 405/761/221 406/762/221 407/763/221
f 405/761/221 407/763/221 408/764/221
f 408/764/221 407/763/221 409/765/221
f 408/764/221 409/765/221 410/766/221
f 410/766/221 409/765/221 411/767/221
f 410/766/221 411/767/221 412/768/221
f 412/768/221 411/767/221 413/769/221
f 412/768/221 413/769/221 372/728/221
f 372/728/221 413/769/221 370/726/221
f 297/770/25 207/771/25 393/772/25
f 393/772/25 207/771/25 293/773/25
f 393/772/222 293/773/222 396/774/222
f 396/774/223 293/773/223 292/775/223
f 396/774/224 292/775/224 291/776/224
f 396/774/225 291/776/225 398/777/225
f 398/777/226 291/776/226 290/778/226
f 398/777/227 290/778/227 400/779/227
f 400/779/228 290/778/228 289/780/228
f 400/779/228 289/780/228 358/781/228
f 400/779/229 358/781/229 402/782/229
f 402/782/230 358/781/230 359/783/230
f 402/782/231 359/783/231 404/784/231
f 404/784/232 359/783/232 360/785/232
f 404/784/233 360/785/233 361/786/233
f 404/784/234 361/786/234 406/787/234
f 406/787/50 361/786/50 322/788/50
f 406/787/50 322/788/50 357/789/50
f 406/787/235 357/789/235 407/790/235
f 407/790/236 357/789/236 356/791/236
f 407/790/237 356/791/237 355/792/237
f 407/790/238 355/792/238 409/793/238
f 409/793/239 355/792/239 354/794/239
f 409/793/240 354/794/240 411/795/240
f 411/795/241 354/794/241 280/796/241
f 411/795/241 280/796/241 279/797/241
f 411/795/242 279/797/242 413/798/242
f 413/798/243 279/797/243 285/799/243
f 413/798/244 285/799/244 370/800/244
f 370/800/245 285/799/245 286/801/245
f 370/800/246 286/801/246 287/802/246
f 370/800/247 287/802/247 368/803/247
f 368/803/51 287/802/51 231/804/51
f 368/805/51 231/806/51 275/807/51
f 368/805/248 275/807/248 366/808/248
f 366/808/249 275/807/249 274/809/249
f 366/808/250 274/809/250 273/810/250
f 366/808/251 273/810/251 374/811/251
f 374/811/252 273/810/252 272/812/252
f 374/811/253 272/812/253 376/813/253
f 376/813/254 272/812/254 271/814/254
f 376/813/254 271/814/254 350/815/254
f 376/813/255 350/815/255 378/816/255
f 378/816/256 350/815/256 351/817/256
f 378/816/257 351/817/257 380/818/257
f 380/818/258 351/817/258 352/819/258
f 380/818/259 352/819/259 353/820/259
f 380/818/260 353/820/260 382/821/260
f 382/821/52 353/820/52 344/822/52
f 382/821/52 344/822/52 365/823/52
f 382/821/261 365/823/261 383/824/261
f 383/824/262 365/823/262 364/825/262
f 383/824/263 364/825/263 363/826/263
f 383/824/264 363/826/264 385/827/264
f 385/827/265 363/826/265 362/828/265
f 385/827/266 362/828/266 387/829/266
f 387/829/267 362/828/267 301/830/267
f 387/829/267 301/830/267 300/831/267
f 387/829/268 300/831/268 389/832/268
f 389/832/269 300/831/269 299/833/269
f 389/832/270 299/833/270 391/834/270
f 391/834/271 299/833/271 298/835/271
f 391/834/272 298/835/272 297/770/272
f 391/834/273 297/770/273 393/772/273
