# Created by Metasequoia

v -0.141848 0.010000 -0.071006
v -0.140000 0.040000 -0.050000
v -0.140000 0.037132 -0.045904
v -0.141848 0.007132 -0.066910
v -0.060000 0.040000 -0.050000
v -0.060000 0.037132 -0.045904
v -0.058538 0.010000 -0.071006
v -0.058538 0.007132 -0.066910
v -0.041848 0.010000 -0.101006
v -0.040000 0.040000 -0.080000
v -0.040000 0.037132 -0.075904
v -0.041848 0.007132 -0.096910
v 0.040000 0.040000 -0.080000
v 0.040000 0.037132 -0.075904
v 0.041848 0.010000 -0.101006
v 0.041848 0.007132 -0.096910
v 0.058538 0.010000 -0.071006
v 0.060000 0.040000 -0.050000
v 0.060000 0.037132 -0.045904
v 0.058538 0.007132 -0.066910
v 0.140000 0.040000 -0.050000
v 0.140000 0.037132 -0.045904
v 0.141848 0.010000 -0.071006
v 0.141848 0.007132 -0.066910
v 0.141848 0.010000 0.071006
v 0.140000 0.040000 0.050000
v 0.140000 0.037132 0.045904
v 0.141848 0.007132 0.066910
v 0.060000 0.040000 0.050000
v 0.060000 0.037132 0.045904
v 0.058538 0.010000 0.071006
v 0.058538 0.007132 0.066910
v 0.041848 0.010000 0.101006
v 0.040000 0.040000 0.080000
v 0.040000 0.037132 0.075904
v 0.041848 0.007132 0.096910
v -0.040000 0.040000 0.080000
v -0.040000 0.037132 0.075904
v -0.041848 0.010000 0.101006
v -0.041848 0.007132 0.096910
v -0.058538 0.010000 0.071006
v -0.060000 0.040000 0.050000
v -0.060000 0.037132 0.045904
v -0.058538 0.007132 0.066910
v -0.140000 0.040000 0.050000
v -0.140000 0.037132 0.045904
v -0.141848 0.010000 0.071006
v -0.141848 0.007132 0.066910
v 0.050367 0.010000 0.188383
v -0.058733 0.040000 0.068194
v -0.045156 0.024029 0.138595
v -0.056268 0.031968 0.103609
v -0.052789 0.019281 0.153590
v -0.054545 0.025831 -0.128359
v -0.057178 0.035118 -0.090544
v 0.046617 0.040000 0.076986
v 0.049556 0.010000 0.188598
v 0.049826 0.010000 0.188527
v 0.050096 0.010000 0.188455
v 0.163392 0.040000 -0.029310
v 0.179700 0.011000 -0.075716
v 0.165392 0.011000 -0.103297
v 0.144873 0.026853 0.105382
v 0.046617 0.040000 -0.076986
v -0.143016 0.040000 -0.084276
v -0.143016 0.040000 0.084276
v -0.194380 0.011000 0.015536
v -0.052858 0.040000 0.072842
v -0.046617 0.040000 0.076986
v -0.144873 0.026853 -0.105382
v -0.049556 0.010000 0.188598
v -0.043818 0.028259 -0.123394
v 0.043152 0.030380 -0.115821
v 0.056268 0.031968 -0.103609
v -0.146886 0.011000 0.128256
v -0.144873 0.026853 0.105382
v -0.050367 0.010000 0.188383
v -0.050096 0.010000 0.188455
v -0.049826 0.010000 0.188527
v -0.050367 0.010000 -0.188383
v -0.155649 0.040000 -0.057700
v -0.163392 0.040000 -0.029310
v -0.166000 0.040000 0.000000
v -0.163392 0.040000 0.029310
v -0.155649 0.040000 0.057700
v -0.049556 0.010000 -0.188598
v -0.049826 0.010000 -0.188527
v -0.050096 0.010000 -0.188455
v 0.049556 0.010000 -0.188598
v 0.047899 0.015316 -0.169767
v 0.143016 0.040000 -0.084276
v 0.058733 0.040000 -0.068194
v -0.049738 0.040000 -0.074914
v -0.058733 0.040000 -0.068194
v 0.051846 0.015716 -0.167136
v 0.050367 0.010000 -0.188383
v 0.050096 0.010000 -0.188455
v 0.049826 0.010000 -0.188527
v -0.189445 0.011000 -0.046213
v -0.194380 0.011000 -0.015536
v 0.043818 0.028259 0.123394
v -0.165392 0.011000 -0.103297
v -0.179700 0.011000 -0.075716
v 0.058733 0.040000 0.068194
v 0.054545 0.025831 0.128359
v 0.057178 0.035118 0.090544
v -0.189445 0.011000 0.046213
v -0.179700 0.011000 0.075716
v -0.165392 0.011000 0.103297
v -0.146886 0.010000 -0.128256
v 0.155649 0.040000 0.057700
v 0.144873 0.026853 -0.105382
v 0.155649 0.040000 -0.057700
v 0.166000 0.040000 0.000000
v 0.165392 0.011000 0.103297
v 0.179700 0.011000 0.075716
v 0.189445 0.011000 0.046213
v 0.194380 0.011000 0.015536
v 0.194380 0.011000 -0.015536
v 0.189445 0.011000 -0.046213
v 0.163392 0.040000 0.029310
v 0.143016 0.040000 0.084276
v 0.146886 0.010000 -0.128256
v -0.091335 0.010000 -0.232718
v -0.018683 0.010000 -0.249301
v -0.189445 0.010000 -0.046213
v -0.194380 0.010000 -0.015536
v -0.194380 0.010000 0.015536
v -0.189445 0.010000 0.046213
v -0.179700 0.010000 0.075716
v -0.165392 0.010000 0.103297
v -0.146886 0.010000 0.128256
v 0.146886 0.010000 0.128256
v -0.125000 -0.010000 -0.216506
v 0.000000 -0.010000 -0.249301
v 0.108168 -0.010000 -0.224612
v 0.215901 -0.010000 -0.124650
v 0.248604 -0.010000 0.018630
v 0.215901 -0.010000 0.124650
v 0.179700 0.010000 -0.075716
v 0.165392 0.010000 -0.103297
v -0.248604 0.010000 0.018630
v -0.232068 0.010000 0.091080
v -0.206560 0.010000 0.140830
v -0.169568 0.010000 0.182751
v -0.125000 0.010000 0.216506
v -0.073483 0.010000 0.238225
v -0.018683 0.010000 0.249301
v 0.125000 0.010000 -0.216506
v 0.073483 0.010000 -0.238225
v 0.018683 0.010000 -0.249301
v -0.055630 0.010000 -0.243732
v -0.125000 0.010000 -0.216506
v -0.169568 0.010000 -0.182751
v -0.206560 0.010000 -0.140830
v -0.225242 0.010000 -0.108471
v -0.238893 0.010000 -0.073689
v -0.247208 0.010000 -0.037261
v -0.243050 -0.010000 0.055475
v -0.215901 -0.010000 0.124650
v -0.169568 -0.010000 0.182751
v -0.125000 -0.010000 0.216506
v -0.091335 -0.010000 0.232718
v -0.055630 -0.010000 0.243732
v 0.000000 -0.010000 0.249301
v 0.073483 -0.010000 0.238225
v 0.125000 -0.010000 0.216506
v 0.169568 -0.010000 0.182751
v 0.238893 -0.010000 0.073689
v 0.243050 -0.010000 -0.055475
v 0.169568 -0.010000 -0.182751
v 0.055630 -0.010000 -0.243732
v -0.073483 -0.010000 -0.238225
v -0.169568 -0.010000 -0.182751
v -0.215901 -0.010000 -0.124650
v -0.238893 -0.010000 -0.073689
v -0.248604 -0.010000 -0.018630
v 0.018683 0.010000 0.249301
v 0.055630 0.010000 0.243732
v 0.091335 0.010000 0.232718
v 0.125000 0.010000 0.216506
v 0.169568 0.010000 0.182751
v 0.206560 0.010000 0.140830
v 0.225242 0.010000 0.108471
v 0.238893 0.010000 0.073689
v 0.247208 0.010000 0.037261
v 0.248604 0.010000 -0.018630
v 0.232068 0.010000 -0.091080
v 0.206560 0.010000 -0.140830
v 0.169568 0.010000 -0.182751
# 190 vertices

vt 0.00000 0.00000
# 1 texture vertices

g body
f 2/1 5/1 3/1
f 3/1 5/1 6/1
f 6/1 7/1 8/1
f 7/1 1/1 8/1
f 8/1 1/1 4/1
f 4/1 3/1 8/1
f 8/1 3/1 6/1
f 10/1 13/1 11/1
f 11/1 13/1 14/1
f 15/1 9/1 16/1
f 16/1 9/1 12/1
f 16/1 12/1 14/1
f 14/1 12/1 11/1
f 18/1 21/1 19/1
f 19/1 21/1 22/1
f 23/1 17/1 24/1
f 24/1 17/1 20/1
f 24/1 20/1 22/1
f 22/1 20/1 19/1
f 26/1 29/1 27/1
f 27/1 29/1 30/1
f 30/1 31/1 32/1
f 31/1 25/1 32/1
f 32/1 25/1 28/1
f 28/1 27/1 32/1
f 32/1 27/1 30/1
f 34/1 37/1 35/1
f 35/1 37/1 38/1
f 39/1 33/1 40/1
f 40/1 33/1 36/1
f 40/1 36/1 38/1
f 38/1 36/1 35/1
f 42/1 45/1 43/1
f 43/1 45/1 46/1
f 47/1 41/1 48/1
f 48/1 41/1 44/1
f 48/1 44/1 46/1
f 46/1 44/1 43/1
f 34/1 56/1 68/1
f 64/1 13/1 10/1
f 128/1 67/1 100/1
f 128/1 100/1 127/1
f 126/1 99/1 103/1
f 123/1 62/1 141/1
f 140/1 61/1 120/1
f 77/1 41/1 132/1
f 184/1 116/1 115/1
f 69/1 37/1 34/1
f 184/1 115/1 183/1
f 122/1 26/1 25/1
f 25/1 63/1 122/1
f 25/1 133/1 63/1
f 141/1 61/1 140/1
f 141/1 62/1 61/1
f 15/1 90/1 89/1
f 73/1 90/1 15/1
f 13/1 73/1 15/1
f 7/1 54/1 80/1
f 7/1 55/1 54/1
f 5/1 55/1 7/1
f 94/1 55/1 5/1
f 31/1 105/1 49/1
f 31/1 106/1 105/1
f 29/1 106/1 31/1
f 104/1 106/1 29/1
f 39/1 51/1 71/1
f 37/1 51/1 39/1
f 75/1 132/1 47/1
f 47/1 76/1 75/1
f 47/1 66/1 76/1
f 45/1 66/1 47/1
f 127/1 99/1 126/1
f 127/1 100/1 99/1
f 129/1 67/1 128/1
f 129/1 107/1 67/1
f 130/1 107/1 129/1
f 130/1 108/1 107/1
f 132/1 109/1 131/1
f 75/1 109/1 132/1
f 23/1 112/1 123/1
f 23/1 91/1 112/1
f 21/1 91/1 23/1
f 115/1 63/1 133/1
f 115/1 122/1 63/1
f 116/1 122/1 115/1
f 116/1 111/1 122/1
f 117/1 111/1 116/1
f 117/1 121/1 111/1
f 118/1 121/1 117/1
f 118/1 114/1 121/1
f 119/1 114/1 118/1
f 119/1 60/1 114/1
f 120/1 60/1 119/1
f 120/1 113/1 60/1
f 61/1 113/1 120/1
f 89/1 90/1 98/1
f 98/1 90/1 97/1
f 97/1 90/1 96/1
f 96/1 90/1 95/1
f 61/1 91/1 113/1
f 62/1 91/1 61/1
f 62/1 112/1 91/1
f 123/1 112/1 62/1
f 65/1 2/1 1/1
f 1/1 70/1 65/1
f 1/1 110/1 70/1
f 102/1 70/1 110/1
f 102/1 65/1 70/1
f 103/1 65/1 102/1
f 103/1 81/1 65/1
f 99/1 81/1 103/1
f 99/1 82/1 81/1
f 100/1 82/1 99/1
f 100/1 83/1 82/1
f 67/1 83/1 100/1
f 67/1 84/1 83/1
f 107/1 84/1 67/1
f 107/1 85/1 84/1
f 108/1 85/1 107/1
f 108/1 66/1 85/1
f 109/1 66/1 108/1
f 109/1 76/1 66/1
f 75/1 76/1 109/1
f 18/1 74/1 92/1
f 17/1 74/1 18/1
f 95/1 74/1 17/1
f 96/1 95/1 17/1
f 74/1 64/1 92/1
f 74/1 13/1 64/1
f 74/1 73/1 13/1
f 95/1 73/1 74/1
f 95/1 90/1 73/1
f 9/1 72/1 10/1
f 86/1 72/1 9/1
f 72/1 87/1 88/1
f 86/1 87/1 72/1
f 93/1 55/1 94/1
f 93/1 54/1 55/1
f 10/1 54/1 93/1
f 72/1 54/1 10/1
f 72/1 80/1 54/1
f 88/1 80/1 72/1
f 42/1 52/1 50/1
f 41/1 52/1 42/1
f 53/1 52/1 41/1
f 77/1 53/1 41/1
f 52/1 68/1 50/1
f 52/1 69/1 68/1
f 52/1 37/1 69/1
f 52/1 51/1 37/1
f 53/1 51/1 52/1
f 77/1 51/1 53/1
f 78/1 51/1 77/1
f 79/1 51/1 78/1
f 71/1 51/1 79/1
f 18/1 5/1 29/1
f 42/1 50/1 68/1
f 45/1 85/1 66/1
f 45/1 84/1 85/1
f 42/1 84/1 45/1
f 83/1 84/1 42/1
f 64/1 10/1 93/1
f 5/1 93/1 94/1
f 18/1 93/1 5/1
f 18/1 64/1 93/1
f 92/1 64/1 18/1
f 26/1 111/1 121/1
f 122/1 111/1 26/1
f 21/1 113/1 91/1
f 21/1 60/1 113/1
f 18/1 60/1 21/1
f 18/1 114/1 60/1
f 29/1 114/1 18/1
f 29/1 121/1 114/1
f 26/1 121/1 29/1
f 56/1 104/1 29/1
f 81/1 2/1 65/1
f 82/1 2/1 81/1
f 82/1 5/1 2/1
f 83/1 5/1 82/1
f 42/1 5/1 83/1
f 42/1 29/1 5/1
f 68/1 29/1 42/1
f 68/1 56/1 29/1
f 34/1 68/1 69/1
f 33/1 101/1 34/1
f 57/1 101/1 33/1
f 101/1 58/1 59/1
f 57/1 58/1 101/1
f 56/1 106/1 104/1
f 56/1 105/1 106/1
f 34/1 105/1 56/1
f 101/1 105/1 34/1
f 101/1 49/1 105/1
f 59/1 49/1 101/1
f 46/1 47/1 48/1
f 45/1 47/1 46/1
f 44/1 42/1 43/1
f 41/1 42/1 44/1
f 38/1 39/1 40/1
f 37/1 39/1 38/1
f 36/1 34/1 35/1
f 33/1 34/1 36/1
f 29/1 31/1 30/1
f 28/1 26/1 27/1
f 25/1 26/1 28/1
f 182/1 133/1 181/1
f 183/1 133/1 182/1
f 183/1 115/1 133/1
f 22/1 23/1 24/1
f 21/1 23/1 22/1
f 185/1 116/1 184/1
f 185/1 117/1 116/1
f 186/1 117/1 185/1
f 186/1 118/1 117/1
f 187/1 118/1 186/1
f 187/1 119/1 118/1
f 187/1 120/1 119/1
f 188/1 120/1 187/1
f 188/1 140/1 120/1
f 188/1 141/1 140/1
f 189/1 141/1 188/1
f 189/1 123/1 141/1
f 190/1 123/1 189/1
f 149/1 123/1 190/1
f 149/1 96/1 123/1
f 150/1 96/1 149/1
f 97/1 96/1 150/1
f 150/1 98/1 97/1
f 150/1 89/1 98/1
f 151/1 89/1 150/1
f 125/1 89/1 151/1
f 125/1 86/1 89/1
f 152/1 86/1 125/1
f 87/1 86/1 152/1
f 152/1 88/1 87/1
f 152/1 80/1 88/1
f 124/1 80/1 152/1
f 153/1 80/1 124/1
f 153/1 110/1 80/1
f 154/1 110/1 153/1
f 155/1 110/1 154/1
f 155/1 102/1 110/1
f 156/1 102/1 155/1
f 156/1 103/1 102/1
f 157/1 103/1 156/1
f 157/1 126/1 103/1
f 158/1 126/1 157/1
f 158/1 127/1 126/1
f 142/1 127/1 158/1
f 142/1 128/1 127/1
f 142/1 129/1 128/1
f 143/1 129/1 142/1
f 143/1 130/1 129/1
f 143/1 131/1 130/1
f 144/1 131/1 143/1
f 144/1 132/1 131/1
f 145/1 132/1 144/1
f 146/1 132/1 145/1
f 146/1 77/1 132/1
f 147/1 77/1 146/1
f 78/1 77/1 147/1
f 147/1 79/1 78/1
f 147/1 71/1 79/1
f 148/1 71/1 147/1
f 178/1 71/1 148/1
f 178/1 57/1 71/1
f 179/1 57/1 178/1
f 58/1 57/1 179/1
f 179/1 59/1 58/1
f 179/1 49/1 59/1
f 180/1 49/1 179/1
f 181/1 49/1 180/1
f 133/1 49/1 181/1
f 159/1 143/1 142/1
f 160/1 143/1 159/1
f 160/1 144/1 143/1
f 160/1 145/1 144/1
f 161/1 145/1 160/1
f 161/1 146/1 145/1
f 162/1 146/1 161/1
f 162/1 147/1 146/1
f 163/1 147/1 162/1
f 164/1 147/1 163/1
f 164/1 148/1 147/1
f 165/1 148/1 164/1
f 25/1 31/1 133/1
f 133/1 31/1 49/1
f 165/1 178/1 148/1
f 165/1 179/1 178/1
f 166/1 179/1 165/1
f 166/1 180/1 179/1
f 166/1 181/1 180/1
f 167/1 181/1 166/1
f 167/1 182/1 181/1
f 168/1 182/1 167/1
f 168/1 183/1 182/1
f 139/1 183/1 168/1
f 139/1 184/1 183/1
f 139/1 185/1 184/1
f 33/1 39/1 57/1
f 57/1 39/1 71/1
f 169/1 185/1 139/1
f 169/1 186/1 185/1
f 138/1 186/1 169/1
f 138/1 187/1 186/1
f 170/1 187/1 138/1
f 170/1 188/1 187/1
f 137/1 188/1 170/1
f 137/1 189/1 188/1
f 137/1 190/1 189/1
f 171/1 190/1 137/1
f 171/1 149/1 190/1
f 136/1 149/1 171/1
f 136/1 150/1 149/1
f 172/1 150/1 136/1
f 172/1 151/1 150/1
f 135/1 151/1 172/1
f 135/1 125/1 151/1
f 135/1 152/1 125/1
f 173/1 152/1 135/1
f 173/1 124/1 152/1
f 173/1 153/1 124/1
f 134/1 153/1 173/1
f 134/1 154/1 153/1
f 174/1 154/1 134/1
f 174/1 155/1 154/1
f 175/1 155/1 174/1
f 175/1 156/1 155/1
f 175/1 157/1 156/1
f 176/1 157/1 175/1
f 176/1 158/1 157/1
f 177/1 158/1 176/1
f 177/1 142/1 158/1
f 20/1 18/1 19/1
f 132/1 41/1 47/1
f 1/1 7/1 110/1
f 110/1 7/1 80/1
f 159/1 142/1 177/1
f 172/1 173/1 135/1
f 136/1 173/1 172/1
f 136/1 134/1 173/1
f 136/1 174/1 134/1
f 171/1 174/1 136/1
f 171/1 175/1 174/1
f 9/1 15/1 86/1
f 86/1 15/1 89/1
f 137/1 175/1 171/1
f 137/1 176/1 175/1
f 170/1 176/1 137/1
f 170/1 177/1 176/1
f 164/1 166/1 165/1
f 163/1 166/1 164/1
f 163/1 167/1 166/1
f 162/1 167/1 163/1
f 162/1 168/1 167/1
f 161/1 168/1 162/1
f 161/1 139/1 168/1
f 160/1 139/1 161/1
f 160/1 169/1 139/1
f 159/1 169/1 160/1
f 159/1 138/1 169/1
f 177/1 138/1 159/1
f 177/1 170/1 138/1
f 17/1 18/1 20/1
f 14/1 15/1 16/1
f 13/1 15/1 14/1
f 12/1 10/1 11/1
f 9/1 10/1 12/1
f 5/1 7/1 6/1
f 4/1 2/1 3/1
f 1/1 2/1 4/1
f 131/1 108/1 130/1
f 131/1 109/1 108/1
f 96/1 17/1 123/1
f 123/1 17/1 23/1
# 376 elements

