# Created by Metasequoia

v -0.019134 0.200000 -0.046194
v -0.019134 1.700000 -0.046194
v 0.019134 0.200000 -0.046194
v 0.019134 1.700000 -0.046194
v 0.046194 0.200000 -0.019134
v 0.046194 1.700000 -0.019134
v 0.046194 0.200000 0.019134
v 0.046194 1.700000 0.019134
v 0.019134 0.200000 0.046194
v 0.019134 1.700000 0.046194
v -0.019134 0.200000 0.046194
v -0.019134 1.700000 0.046194
v -0.046194 0.200000 0.019134
v -0.046194 1.700000 0.019134
v -0.046194 0.200000 -0.019134
v -0.046194 1.700000 -0.019134
v -0.019134 0.200000 -1.046194
v -0.019134 1.700000 -1.046194
v 0.019134 0.200000 -1.046194
v 0.019134 1.700000 -1.046194
v 0.046194 0.200000 -1.019134
v 0.046194 1.700000 -1.019134
v 0.046194 0.200000 -0.980866
v 0.046194 1.700000 -0.980866
v 0.019134 0.200000 -0.953806
v 0.019134 1.700000 -0.953806
v -0.019134 0.200000 -0.953806
v -0.019134 1.700000 -0.953806
v -0.046194 0.200000 -0.980866
v -0.046194 1.700000 -0.980866
v -0.046194 0.200000 -1.019134
v -0.046194 1.700000 -1.019134
v -0.075000 1.800000 0.250000
v -0.075000 1.950000 0.250000
v -0.075000 1.800000 -1.250000
v -0.075000 1.950000 -1.250000
v 0.075000 1.800000 0.250000
v 0.075000 1.950000 0.250000
v 0.075000 1.800000 -1.250000
v 0.075000 1.950000 -1.250000
v -0.026788 1.700000 -0.064672
v 0.026788 1.700000 -0.064672
v 0.064672 1.700000 -0.026788
v 0.064672 1.700000 0.026788
v 0.026788 1.700000 0.064672
v -0.026788 1.700000 0.064672
v -0.064672 1.700000 0.026788
v -0.064672 1.700000 -0.026788
v -0.026788 1.700000 -1.064672
v 0.026788 1.700000 -1.064672
v 0.064672 1.700000 -1.026788
v 0.064672 1.700000 -0.973212
v 0.026788 1.700000 -0.935328
v -0.026788 1.700000 -0.935328
v -0.064672 1.700000 -0.973212
v -0.064672 1.700000 -1.026788
v -0.026788 1.800000 -0.064672
v 0.026788 1.800000 -0.064672
v 0.064672 1.800000 -0.026788
v 0.064672 1.800000 0.026788
v 0.026788 1.800000 0.064672
v -0.026788 1.800000 0.064672
v -0.064672 1.800000 0.026788
v -0.064672 1.800000 -0.026788
v -0.026788 1.800000 -1.064672
v 0.026788 1.800000 -1.064672
v 0.064672 1.800000 -1.026788
v 0.064672 1.800000 -0.973212
v 0.026788 1.800000 -0.935328
v -0.026788 1.800000 -0.935328
v -0.064672 1.800000 -0.973212
v -0.064672 1.800000 -1.026788
v -0.019134 0.000000 -0.046194
v 0.019134 0.000000 -0.046194
v 0.046194 0.000000 -0.019134
v 0.046194 0.000000 0.019134
v 0.019134 0.000000 0.046194
v -0.019134 0.000000 0.046194
v -0.046194 0.000000 0.019134
v -0.046194 0.000000 -0.019134
v -0.019134 0.000000 -1.046194
v 0.019134 0.000000 -1.046194
v 0.046194 0.000000 -1.019134
v 0.046194 0.000000 -0.980866
v 0.019134 0.000000 -0.953806
v -0.019134 0.000000 -0.953806
v -0.046194 0.000000 -0.980866
v -0.046194 0.000000 -1.019134
v -0.019134 0.000000 -0.106194
v 0.019134 0.000000 -0.106194
v 0.106194 0.000000 -0.019134
v 0.106194 0.000000 0.019134
v 0.019134 0.000000 0.106194
v -0.019134 0.000000 0.106194
v -0.106194 0.000000 0.019134
v -0.106194 0.000000 -0.019134
v -0.019134 0.000000 -1.106194
v 0.019134 0.000000 -1.106194
v 0.106194 0.000000 -1.019134
v 0.106194 0.000000 -0.980866
v 0.019134 0.000000 -0.893806
v -0.019134 0.000000 -0.893806
v -0.106194 0.000000 -0.980866
v -0.106194 0.000000 -1.019134
v -0.400000 1.835858 -0.014142
v 0.400000 1.835858 -0.014142
v -0.400000 1.850000 -0.020000
v -0.400000 1.830000 0.000000
v -0.400000 1.835858 0.014142
v 0.400000 1.830000 0.000000
v -0.400000 1.850000 0.020000
v 0.400000 1.835858 0.014142
v -0.400000 1.864142 0.014142
v 0.400000 1.850000 0.020000
v -0.400000 1.870000 0.000000
v 0.400000 1.864142 0.014142
v 0.400000 1.870000 0.000000
v -0.400000 1.864142 -0.014142
v 0.400000 1.864142 -0.014142
v -0.400000 1.850000 -0.354000
v -0.400000 1.835858 -0.348142
v 0.400000 1.850000 -0.354000
v -0.400000 1.830000 -0.334000
v 0.400000 1.835858 -0.348142
v -0.400000 1.835858 -0.319858
v 0.400000 1.830000 -0.334000
v -0.400000 1.850000 -0.314000
v 0.400000 1.835858 -0.319858
v -0.400000 1.864142 -0.319858
v 0.400000 1.850000 -0.314000
v -0.400000 1.870000 -0.334000
v 0.400000 1.864142 -0.319858
v 0.400000 1.870000 -0.334000
v -0.400000 1.864142 -0.348142
v 0.400000 1.864142 -0.348142
v -0.400000 1.850000 -0.688000
v -0.400000 1.835858 -0.682142
v 0.400000 1.850000 -0.688000
v -0.400000 1.830000 -0.668000
v 0.400000 1.835858 -0.682142
v -0.400000 1.835858 -0.653858
v 0.400000 1.830000 -0.668000
v -0.400000 1.850000 -0.648000
v 0.400000 1.835858 -0.653858
v -0.400000 1.864142 -0.653858
v 0.400000 1.850000 -0.648000
v -0.400000 1.870000 -0.668000
v 0.400000 1.864142 -0.653858
v 0.400000 1.870000 -0.668000
v -0.400000 1.864142 -0.682142
v 0.400000 1.864142 -0.682142
v -0.400000 1.835858 -1.016142
v 0.400000 1.835858 -1.016142
v -0.400000 1.850000 -1.022000
v -0.400000 1.830000 -1.002000
v -0.400000 1.835858 -0.987858
v 0.400000 1.830000 -1.002000
v -0.400000 1.850000 -0.982000
v 0.400000 1.835858 -0.987858
v -0.400000 1.864142 -0.987858
v 0.400000 1.850000 -0.982000
v -0.400000 1.870000 -1.002000
v 0.400000 1.864142 -0.987858
v 0.400000 1.870000 -1.002000
v -0.400000 1.864142 -1.016142
v 0.400000 1.864142 -1.016142
v 0.400000 1.850000 -0.020000
v 0.400000 1.850000 -1.022000
v -0.400000 1.885857 -0.179142
v 0.400000 1.885857 -0.179142
v -0.400000 1.900000 -0.185000
v -0.400000 1.880000 -0.165000
v -0.400000 1.885857 -0.150858
v 0.400000 1.880000 -0.165000
v -0.400000 1.900000 -0.145000
v 0.400000 1.885857 -0.150858
v -0.400000 1.914142 -0.150858
v 0.400000 1.900000 -0.145000
v -0.400000 1.920000 -0.165000
v 0.400000 1.914142 -0.150858
v -0.400000 1.914142 -0.179142
v 0.400000 1.920000 -0.165000
v 0.400000 1.914142 -0.179142
v -0.400000 1.885857 -0.513142
v 0.400000 1.885857 -0.513142
v -0.400000 1.900000 -0.519000
v -0.400000 1.880000 -0.499000
v -0.400000 1.885857 -0.484858
v 0.400000 1.880000 -0.499000
v -0.400000 1.900000 -0.479000
v 0.400000 1.885857 -0.484858
v -0.400000 1.914142 -0.484858
v 0.400000 1.900000 -0.479000
v -0.400000 1.920000 -0.499000
v 0.400000 1.914142 -0.484858
v -0.400000 1.914142 -0.513142
v 0.400000 1.920000 -0.499000
v 0.400000 1.914142 -0.513142
v -0.400000 1.885857 -0.847143
v 0.400000 1.885857 -0.847143
v -0.400000 1.900000 -0.853000
v -0.400000 1.880000 -0.833000
v -0.400000 1.885857 -0.818858
v 0.400000 1.880000 -0.833000
v -0.400000 1.900000 -0.813000
v 0.400000 1.885857 -0.818858
v -0.400000 1.914142 -0.818858
v 0.400000 1.900000 -0.813000
v -0.400000 1.920000 -0.833000
v 0.400000 1.914142 -0.818858
v -0.400000 1.914142 -0.847143
v 0.400000 1.920000 -0.833000
v 0.400000 1.914142 -0.847143
v 0.400000 1.900000 -0.185000
v 0.400000 1.900000 -0.519000
v 0.400000 1.900000 -0.853000
# 216 vertices

vt 0.44986 0.12175
vt 0.43371 0.12175
vt 0.44986 0.18632
vt 0.41757 0.12175
vt 0.43371 0.18632
vt 0.40143 0.12175
vt 0.41757 0.18632
vt 0.38528 0.12175
vt 0.40143 0.18632
vt 0.36914 0.12175
vt 0.38528 0.18632
vt 0.35300 0.12175
vt 0.36914 0.18632
vt 0.33686 0.12175
vt 0.35300 0.18632
vt 0.32071 0.12175
vt 0.33686 0.18632
vt 0.36914 0.05718
vt 0.36914 0.08947
vt 0.40143 0.05718
vt 0.40143 0.08947
vt 0.36914 0.15404
vt 0.40143 0.15404
vt 0.33686 0.15404
vt 0.32071 0.18632
vt 0.43949 0.06755
vt 0.39566 0.11138
vt 0.38658 0.08947
vt 0.39566 0.06755
vt 0.43949 0.11138
vt 0.44857 0.08947
vt 0.41757 0.12046
vt 0.41757 0.05847
vt 0.43371 0.15404
vt 0.38399 0.08947
vt 0.35300 0.05847
vt 0.32201 0.08947
vt 0.35300 0.12046
vt 0.37492 0.11138
vt 0.33108 0.11138
vt 0.33108 0.06755
vt 0.37492 0.06755
# 42 texture vertices

g leg
f 2/3 3/2 1/1
f 4/5 5/4 3/2
f 6/7 7/6 5/4
f 8/9 9/8 7/6
f 10/11 11/10 9/8
f 12/13 13/12 11/10
f 14/15 15/14 13/12
f 16/17 1/16 15/14
f 1/16 80/14 15/14
f 18/3 19/2 17/1
f 20/5 21/4 19/2
f 22/7 23/6 21/4
f 24/9 25/8 23/6
f 26/11 27/10 25/8
f 28/13 29/12 27/10
f 30/15 31/14 29/12
f 32/17 17/16 31/14
f 34/20 35/19 33/18
f 36/21 39/10 35/19
f 40/6 37/22 39/10
f 38/23 33/13 37/22
f 39/10 33/24 35/14
f 36/2 38/23 40/6
f 8/9 45/11 10/11
f 16/17 47/15 48/17
f 4/5 43/7 6/7
f 10/11 46/13 12/13
f 2/25 48/17 41/25
f 2/3 42/5 4/5
f 6/7 44/9 8/9
f 12/13 47/15 14/15
f 26/11 52/9 53/11
f 32/17 55/15 56/17
f 20/5 51/7 22/7
f 26/11 54/13 28/13
f 32/17 49/25 18/25
f 18/3 50/5 20/5
f 22/7 52/9 24/9
f 28/13 55/15 30/15
f 47/15 64/17 48/17
f 54/13 71/15 55/15
f 48/17 57/25 41/25
f 55/15 72/17 56/17
f 41/3 58/5 42/5
f 56/17 65/25 49/25
f 42/5 59/7 43/7
f 49/3 66/5 50/5
f 43/7 60/9 44/9
f 50/5 67/7 51/7
f 44/9 61/11 45/11
f 51/7 68/9 52/9
f 45/11 62/13 46/13
f 52/9 69/11 53/11
f 46/13 63/15 47/15
f 53/11 70/13 54/13
f 79/28 80/27 76/26
f 82/30 84/26 86/29
f 83/31 100/26 84/26
f 13/12 78/10 11/10
f 79/12 13/12 95/12
f 17/16 88/14 31/14
f 85/8 25/8 101/8
f 9/8 76/6 7/6
f 29/12 86/10 27/10
f 5/4 74/2 3/2
f 81/32 98/30 82/30
f 25/8 84/6 23/6
f 27/10 86/10 102/10
f 21/4 82/2 19/2
f 7/6 91/4 5/4
f 3/2 89/1 1/1
f 27/10 101/8 25/8
f 23/6 99/4 21/4
f 19/2 97/1 17/1
f 15/14 95/12 13/12
f 11/10 93/8 9/8
f 31/14 103/12 29/12
f 11/10 78/10 94/10
f 23/6 84/6 100/6
f 86/29 101/33 102/29
f 83/4 21/4 99/4
f 73/32 90/30 74/30
f 81/16 17/16 97/16
f 88/27 103/28 104/27
f 31/14 88/14 104/14
f 75/31 92/26 76/26
f 19/2 82/2 98/2
f 7/6 76/6 92/6
f 77/8 9/8 93/8
f 75/4 5/4 91/4
f 77/33 94/29 78/29
f 87/12 29/12 103/12
f 73/16 1/16 89/16
f 15/14 80/14 96/14
f 79/28 96/27 80/27
f 3/2 74/2 90/2
f 2/3 4/5 3/2
f 4/5 6/7 5/4
f 6/7 8/9 7/6
f 8/9 10/11 9/8
f 10/11 12/13 11/10
f 12/13 14/15 13/12
f 14/15 16/17 15/14
f 16/17 2/25 1/16
f 1/16 73/16 80/14
f 18/3 20/5 19/2
f 20/5 22/7 21/4
f 22/7 24/9 23/6
f 24/9 26/11 25/8
f 26/11 28/13 27/10
f 28/13 30/15 29/12
f 30/15 32/17 31/14
f 32/17 18/25 17/16
f 34/20 36/21 35/19
f 36/21 40/6 39/10
f 40/6 38/23 37/22
f 38/23 34/9 33/13
f 39/10 37/22 33/24
f 36/2 34/34 38/23
f 8/9 44/9 45/11
f 16/17 14/15 47/15
f 4/5 42/5 43/7
f 10/11 45/11 46/13
f 2/25 16/17 48/17
f 2/3 41/3 42/5
f 6/7 43/7 44/9
f 12/13 46/13 47/15
f 26/11 24/9 52/9
f 32/17 30/15 55/15
f 20/5 50/5 51/7
f 26/11 53/11 54/13
f 32/17 56/17 49/25
f 18/3 49/3 50/5
f 22/7 51/7 52/9
f 28/13 54/13 55/15
f 47/15 63/15 64/17
f 54/13 70/13 71/15
f 48/17 64/17 57/25
f 55/15 71/15 72/17
f 41/3 57/3 58/5
f 56/17 72/17 65/25
f 42/5 58/5 59/7
f 49/3 65/3 66/5
f 43/7 59/7 60/9
f 50/5 66/5 67/7
f 44/9 60/9 61/11
f 51/7 67/7 68/9
f 45/11 61/11 62/13
f 52/9 68/9 69/11
f 46/13 62/13 63/15
f 53/11 69/11 70/13
f 80/27 73/32 74/30
f 74/30 75/31 80/27
f 75/31 76/26 80/27
f 76/26 77/33 78/29
f 78/29 79/28 76/26
f 88/27 81/32 82/30
f 82/30 83/31 84/26
f 84/26 85/33 86/29
f 86/29 87/28 88/27
f 88/27 82/30 86/29
f 83/31 99/31 100/26
f 13/12 79/12 78/10
f 17/16 81/16 88/14
f 9/8 77/8 76/6
f 29/12 87/12 86/10
f 5/4 75/4 74/2
f 81/32 97/32 98/30
f 25/8 85/8 84/6
f 21/4 83/4 82/2
f 7/6 92/6 91/4
f 3/2 90/2 89/1
f 27/10 102/10 101/8
f 23/6 100/6 99/4
f 19/2 98/2 97/1
f 15/14 96/14 95/12
f 11/10 94/10 93/8
f 31/14 104/14 103/12
f 86/29 85/33 101/33
f 73/32 89/32 90/30
f 88/27 87/28 103/28
f 75/31 91/31 92/26
f 77/33 93/33 94/29
f 79/28 95/28 96/27
g antenna.lower
f 107/1 106/5 105/2
f 106/5 108/4 105/2
f 110/7 109/6 108/4
f 112/9 111/8 109/6
f 114/11 113/10 111/8
f 116/13 115/12 113/10
f 117/37 114/36 110/35
f 117/15 118/14 115/12
f 119/17 107/16 118/14
f 115/28 118/27 109/26
f 122/3 121/2 120/1
f 124/5 123/4 121/2
f 126/7 125/6 123/4
f 128/9 127/8 125/6
f 130/11 129/10 127/8
f 132/13 131/12 129/10
f 133/37 130/36 126/35
f 133/15 134/14 131/12
f 135/17 120/16 134/14
f 131/28 134/27 125/26
f 138/3 137/2 136/1
f 140/5 139/4 137/2
f 142/7 141/6 139/4
f 144/9 143/8 141/6
f 146/11 145/10 143/8
f 148/13 147/12 145/10
f 149/37 146/36 142/35
f 149/15 150/14 147/12
f 151/17 136/16 150/14
f 147/28 150/27 141/26
f 154/1 153/5 152/2
f 153/5 155/4 152/2
f 157/7 156/6 155/4
f 159/9 158/8 156/6
f 161/11 160/10 158/8
f 163/13 162/12 160/10
f 164/37 161/36 157/35
f 164/15 165/14 162/12
f 166/17 154/16 165/14
f 162/28 165/27 156/26
f 107/1 167/3 106/5
f 106/5 110/7 108/4
f 110/7 112/9 109/6
f 112/9 114/11 111/8
f 114/11 116/13 113/10
f 116/13 117/15 115/12
f 110/35 106/39 167/38
f 167/38 119/40 117/37
f 117/37 116/41 114/36
f 114/36 112/42 110/35
f 110/35 167/38 117/37
f 117/15 119/17 118/14
f 119/17 167/25 107/16
f 118/27 107/32 105/30
f 105/30 108/31 118/27
f 108/31 109/26 118/27
f 109/26 111/33 113/29
f 113/29 115/28 109/26
f 122/3 124/5 121/2
f 124/5 126/7 123/4
f 126/7 128/9 125/6
f 128/9 130/11 127/8
f 130/11 132/13 129/10
f 132/13 133/15 131/12
f 126/35 124/39 122/38
f 122/38 135/40 133/37
f 133/37 132/41 130/36
f 130/36 128/42 126/35
f 126/35 122/38 133/37
f 133/15 135/17 134/14
f 135/17 122/25 120/16
f 134/27 120/32 121/30
f 121/30 123/31 134/27
f 123/31 125/26 134/27
f 125/26 127/33 129/29
f 129/29 131/28 125/26
f 138/3 140/5 137/2
f 140/5 142/7 139/4
f 142/7 144/9 141/6
f 144/9 146/11 143/8
f 146/11 148/13 145/10
f 148/13 149/15 147/12
f 142/35 140/39 138/38
f 138/38 151/40 149/37
f 149/37 148/41 146/36
f 146/36 144/42 142/35
f 142/35 138/38 149/37
f 149/15 151/17 150/14
f 151/17 138/25 136/16
f 150/27 136/32 137/30
f 137/30 139/31 150/27
f 139/31 141/26 150/27
f 141/26 143/33 145/29
f 145/29 147/28 141/26
f 154/1 168/3 153/5
f 153/5 157/7 155/4
f 157/7 159/9 156/6
f 159/9 161/11 158/8
f 161/11 163/13 160/10
f 163/13 164/15 162/12
f 157/35 153/39 168/38
f 168/38 166/40 164/37
f 164/37 163/41 161/36
f 161/36 159/42 157/35
f 157/35 168/38 164/37
f 164/15 166/17 165/14
f 166/17 168/25 154/16
f 165/27 154/32 152/30
f 152/30 155/31 165/27
f 155/31 156/26 165/27
f 156/26 158/33 160/29
f 160/29 162/28 156/26
g antenna.uper
f 171/1 170/5 169/2
f 170/5 172/4 169/2
f 174/7 173/6 172/4
f 176/9 175/8 173/6
f 178/11 177/10 175/8
f 180/13 179/12 177/10
f 178/36 176/42 174/35
f 182/15 181/14 179/12
f 183/17 171/16 181/14
f 173/26 177/29 181/27
f 186/1 185/5 184/2
f 185/5 187/4 184/2
f 189/7 188/6 187/4
f 191/9 190/8 188/6
f 193/11 192/10 190/8
f 195/13 194/12 192/10
f 193/36 191/42 189/35
f 197/15 196/14 194/12
f 198/17 186/16 196/14
f 188/26 192/29 196/27
f 201/1 200/5 199/2
f 200/5 202/4 199/2
f 204/7 203/6 202/4
f 206/9 205/8 203/6
f 208/11 207/10 205/8
f 210/13 209/12 207/10
f 208/36 206/42 204/35
f 212/15 211/14 209/12
f 213/17 201/16 211/14
f 203/26 207/29 211/27
f 171/1 214/3 170/5
f 170/5 174/7 172/4
f 174/7 176/9 173/6
f 176/9 178/11 175/8
f 178/11 180/13 177/10
f 180/13 182/15 179/12
f 174/35 170/39 214/38
f 214/38 183/40 174/35
f 183/40 182/37 174/35
f 182/37 180/41 174/35
f 180/41 178/36 174/35
f 182/15 183/17 181/14
f 183/17 214/25 171/16
f 181/27 171/32 169/30
f 169/30 172/31 181/27
f 172/31 173/26 181/27
f 173/26 175/33 177/29
f 177/29 179/28 181/27
f 186/1 215/3 185/5
f 185/5 189/7 187/4
f 189/7 191/9 188/6
f 191/9 193/11 190/8
f 193/11 195/13 192/10
f 195/13 197/15 194/12
f 189/35 185/39 215/38
f 215/38 198/40 189/35
f 198/40 197/37 189/35
f 197/37 195/41 189/35
f 195/41 193/36 189/35
f 197/15 198/17 196/14
f 198/17 215/25 186/16
f 196/27 186/32 184/30
f 184/30 187/31 196/27
f 187/31 188/26 196/27
f 188/26 190/33 192/29
f 192/29 194/28 196/27
f 201/1 216/3 200/5
f 200/5 204/7 202/4
f 204/7 206/9 203/6
f 206/9 208/11 205/8
f 208/11 210/13 207/10
f 210/13 212/15 209/12
f 204/35 200/39 216/38
f 216/38 213/40 204/35
f 213/40 212/37 204/35
f 212/37 210/41 204/35
f 210/41 208/36 204/35
f 212/15 213/17 211/14
f 213/17 216/25 201/16
f 211/27 201/32 199/30
f 199/30 202/31 211/27
f 202/31 203/26 211/27
f 203/26 205/33 207/29
f 207/29 209/28 211/27
# 380 elements

