# Created by Metasequoia

v 0.000000 0.000000 1.500000
v 0.000000 0.000000 1.200000
v 0.000000 0.050000 1.200000
v 0.000000 0.050000 1.500000
v -0.500000 0.050000 1.500000
v -0.500000 0.000000 1.500000
v -0.500000 0.050000 1.200000
v -0.500000 0.000000 1.200000
v 0.000000 0.000000 2.100000
v 0.000000 0.000000 1.800000
v 0.000000 0.050000 1.800000
v 0.000000 0.050000 2.100000
v -0.500000 0.000000 2.100000
v -0.500000 0.050000 2.100000
v -0.500000 0.000000 1.800000
v -0.500000 0.050000 1.800000
v 0.000000 0.050000 1.200000
v 0.000000 0.000000 1.500000
v 0.000000 0.000000 1.200000
v 0.000000 0.050000 1.500000
v 0.500000 0.050000 1.200000
v 0.500000 0.050000 1.500000
v 0.500000 0.000000 1.500000
v 0.500000 0.000000 1.200000
v 0.000000 0.050000 1.800000
v 0.000000 0.000000 2.100000
v 0.000000 0.000000 1.800000
v 0.000000 0.050000 2.100000
v 0.500000 0.050000 1.800000
v 0.500000 0.050000 2.100000
v 0.500000 0.000000 2.100000
v 0.500000 0.000000 1.800000
v 0.000000 0.000000 0.300000
v 0.000000 0.000000 0.000000
v 0.000000 0.050000 0.000000
v 0.000000 0.050000 0.300000
v -0.500000 0.050000 0.000000
v -0.500000 0.050000 0.300000
v -0.500000 0.000000 0.000000
v -0.500000 0.000000 0.300000
v 0.000000 0.000000 0.900000
v 0.000000 0.000000 0.600000
v 0.000000 0.050000 0.600000
v 0.000000 0.050000 0.900000
v -0.500000 0.050000 0.600000
v -0.500000 0.050000 0.900000
v -0.500000 0.000000 0.600000
v -0.500000 0.000000 0.900000
v 0.000000 0.000000 0.600000
v 0.000000 0.000000 0.900000
v 0.000000 0.050000 0.900000
v 0.000000 0.050000 0.600000
v 0.500000 0.000000 0.600000
v 0.500000 0.000000 0.900000
v 0.500000 0.050000 0.600000
v 0.500000 0.050000 0.900000
v 0.000000 0.000000 0.000000
v 0.000000 0.000000 0.300000
v 0.000000 0.050000 0.300000
v 0.000000 0.050000 0.000000
v 0.500000 0.000000 0.000000
v 0.500000 0.000000 0.300000
v 0.500000 0.050000 0.000000
v 0.500000 0.050000 0.300000
# 64 vertices

vt -0.00000 0.00500
vt 0.03000 0.00000
vt -0.00000 0.00000
vt 0.03000 0.00500
vt 0.05000 0.00000
vt 0.05000 0.00500
vt 0.01500 -0.05000
vt -0.01500 0.00000
vt 0.01500 0.00000
vt -0.01500 -0.05000
vt 0.10000 0.00000
vt 0.10000 0.00500
vt 0.00000 -0.01500
vt -0.05000 0.01500
vt 0.00000 0.01500
vt -0.05000 -0.01500
vt -0.01500 0.02500
vt 0.01500 -0.02500
vt -0.01500 -0.02500
vt 0.01500 0.02500
vt 0.02500 -0.01500
vt -0.02500 0.01500
vt 0.02500 0.01500
vt -0.02500 -0.01500
vt -0.01500 0.05000
vt 0.01500 0.05000
vt 0.05000 -0.01500
vt 0.05000 0.01500
# 28 texture vertices

g solidL
f 1/3 2/2 4/1
f 4/1 2/2 3/4
f 4/6 5/1 1/5
f 1/5 5/1 6/3
f 4/9 3/8 5/7
f 5/7 3/8 7/10
f 8/3 6/2 7/1
f 7/1 6/2 5/4
f 2/5 8/11 3/6
f 3/6 8/11 7/12
f 1/15 6/14 2/13
f 2/13 6/14 8/16
f 9/3 10/2 12/1
f 12/1 10/2 11/4
f 13/3 9/5 14/1
f 14/1 9/5 12/6
f 15/3 13/2 16/1
f 16/1 13/2 14/4
f 10/3 15/5 11/1
f 11/1 15/5 16/6
f 16/19 14/18 11/17
f 11/17 14/18 12/20
f 15/23 10/22 13/21
f 13/21 10/22 9/24
g solidR
f 19/3 18/2 17/1
f 17/1 18/2 20/4
f 17/8 20/9 21/25
f 21/25 20/9 22/26
f 18/5 23/11 20/6
f 20/6 23/11 22/12
f 23/3 24/2 22/1
f 22/1 24/2 21/4
f 17/6 21/1 19/5
f 19/5 21/1 24/3
f 19/13 24/27 18/15
f 18/15 24/27 23/28
f 27/3 26/2 25/1
f 25/1 26/2 28/4
f 25/8 28/9 29/25
f 29/25 28/9 30/26
f 26/5 31/11 28/6
f 28/6 31/11 30/12
f 31/3 32/2 30/1
f 30/1 32/2 29/4
f 25/6 29/1 27/5
f 27/5 29/1 32/3
f 27/13 32/27 26/15
f 26/15 32/27 31/28
g dashedL
f 33/3 34/2 36/1
f 36/1 34/2 35/4
f 36/9 35/8 38/7
f 38/7 35/8 37/10
f 34/5 39/11 35/6
f 35/6 39/11 37/12
f 36/6 38/1 33/5
f 33/5 38/1 40/3
f 39/3 40/2 37/1
f 37/1 40/2 38/4
f 33/13 40/27 34/15
f 34/15 40/27 39/28
f 41/3 42/2 44/1
f 44/1 42/2 43/4
f 44/9 43/8 46/7
f 46/7 43/8 45/10
f 42/5 47/11 43/6
f 43/6 47/11 45/12
f 44/6 46/1 41/5
f 41/5 46/1 48/3
f 47/3 48/2 45/1
f 45/1 48/2 46/4
f 41/13 48/27 42/15
f 42/15 48/27 47/28
g dashedR
f 49/3 50/2 52/1
f 52/1 50/2 51/4
f 49/15 53/14 50/13
f 50/13 53/14 54/16
f 52/6 55/1 49/5
f 49/5 55/1 53/3
f 54/3 53/2 56/1
f 56/1 53/2 55/4
f 50/5 54/11 51/6
f 51/6 54/11 56/12
f 52/8 51/9 55/25
f 55/25 51/9 56/26
f 57/3 58/2 60/1
f 60/1 58/2 59/4
f 57/15 61/14 58/13
f 58/13 61/14 62/16
f 60/6 63/1 57/5
f 57/5 63/1 61/3
f 62/3 61/2 64/1
f 64/1 61/2 63/4
f 58/5 62/11 59/6
f 59/6 62/11 64/12
f 60/8 59/9 63/25
f 63/25 59/9 64/26
# 96 elements

