# Created by Metasequoia

v -0.040000 0.037132 0.075904
v -0.041848 0.007132 0.096910
v -0.041848 0.010000 0.101006
v -0.040000 0.040000 0.080000
v 0.040000 0.037132 0.075904
v 0.040000 0.040000 0.080000
v 0.041848 0.007132 0.096910
v 0.041848 0.010000 0.101006
# 8 vertices

vt 0.00000 0.00000
# 1 texture vertices

g LED
f 1/1 2/1 4/1
f 4/1 2/1 3/1
f 5/1 1/1 6/1
f 6/1 1/1 4/1
f 7/1 5/1 8/1
f 8/1 5/1 6/1
f 2/1 7/1 3/1
f 3/1 7/1 8/1
f 3/1 8/1 4/1
f 4/1 8/1 6/1
f 7/1 2/1 5/1
f 5/1 2/1 1/1
# 12 elements

