# Created by Metasequoia

v -0.150000 0.000000 0.300000
v -0.450000 0.000000 0.300000
v -0.450000 0.050000 0.300000
v -0.150000 0.050000 0.300000
v -0.150000 0.000000 1.800000
v -0.150000 0.050000 1.800000
v -0.450000 0.000000 1.800000
v -0.450000 0.050000 1.800000
v 0.150000 0.000000 0.300000
v 0.150000 0.000000 1.800000
v 0.150000 0.050000 1.800000
v 0.150000 0.050000 0.300000
v 0.450000 0.000000 0.300000
v 0.450000 0.050000 0.300000
v 0.450000 0.000000 1.800000
v 0.450000 0.050000 1.800000
v 0.000000 0.000000 2.100000
v 0.000000 0.000000 1.800000
v 0.000000 0.050000 1.800000
v 0.000000 0.050000 2.100000
v -0.500000 0.000000 2.100000
v -0.500000 0.050000 2.100000
v -0.500000 0.000000 1.800000
v -0.500000 0.050000 1.800000
v 0.000000 0.000000 0.300000
v 0.000000 0.000000 0.000000
v 0.000000 0.050000 0.000000
v 0.000000 0.050000 0.300000
v -0.500000 0.000000 0.300000
v -0.500000 0.050000 0.300000
v -0.500000 0.000000 0.000000
v -0.500000 0.050000 0.000000
v 0.500000 0.000000 2.100000
v 0.500000 0.000000 1.800000
v 0.500000 0.050000 1.800000
v 0.500000 0.050000 2.100000
v 0.000000 0.000000 2.100000
v 0.000000 0.050000 2.100000
v 0.000000 0.000000 1.800000
v 0.000000 0.050000 1.800000
v 0.500000 0.000000 0.300000
v 0.500000 0.000000 0.000000
v 0.500000 0.050000 0.000000
v 0.500000 0.050000 0.300000
v 0.000000 0.000000 0.300000
v 0.000000 0.050000 0.300000
v 0.000000 0.000000 0.000000
v 0.000000 0.050000 0.000000
# 48 vertices

vt 0.00000 0.00500
vt 0.03000 0.00000
vt 0.00000 0.00000
vt 0.03000 0.00500
vt 0.15000 0.00000
vt 0.15000 0.00500
vt -0.07500 0.01500
vt 0.07500 -0.01500
vt -0.07500 -0.01500
vt 0.07500 0.01500
vt 0.01500 -0.07500
vt -0.01500 0.07500
vt 0.01500 0.07500
vt -0.01500 -0.07500
vt 0.05000 0.00000
vt 0.05000 0.00500
vt -0.01500 0.02500
vt 0.01500 -0.02500
vt -0.01500 -0.02500
vt 0.01500 0.02500
vt 0.02500 -0.01500
vt -0.02500 0.01500
vt 0.02500 0.01500
vt -0.02500 -0.01500
# 24 texture vertices

g stripe
f 1/3 2/2 4/1
f 4/1 2/2 3/4
f 5/3 1/5 6/1
f 6/1 1/5 4/6
f 7/3 5/2 8/1
f 8/1 5/2 6/4
f 2/3 7/5 3/1
f 3/1 7/5 8/6
f 3/9 8/8 4/7
f 4/7 8/8 6/10
f 2/13 1/12 7/11
f 7/11 1/12 5/14
f 9/3 10/5 12/1
f 12/1 10/5 11/6
f 13/3 9/2 14/1
f 14/1 9/2 12/4
f 15/3 13/5 16/1
f 16/1 13/5 14/6
f 10/3 15/2 11/1
f 11/1 15/2 16/4
f 16/10 14/7 11/8
f 11/8 14/7 12/9
f 15/14 10/11 13/12
f 13/12 10/11 9/13
g lineL
f 17/3 18/2 20/1
f 20/1 18/2 19/4
f 21/3 17/15 22/1
f 22/1 17/15 20/16
f 23/3 21/2 24/1
f 24/1 21/2 22/4
f 18/3 23/15 19/1
f 19/1 23/15 24/16
f 24/19 22/18 19/17
f 19/17 22/18 20/20
f 23/23 18/22 21/21
f 21/21 18/22 17/24
f 25/3 26/2 28/1
f 28/1 26/2 27/4
f 29/3 25/15 30/1
f 30/1 25/15 28/16
f 31/3 29/2 32/1
f 32/1 29/2 30/4
f 26/3 31/15 27/1
f 27/1 31/15 32/16
f 32/19 30/18 27/17
f 27/17 30/18 28/20
f 31/23 26/22 29/21
f 29/21 26/22 25/24
g lineR
f 33/3 34/2 36/1
f 36/1 34/2 35/4
f 37/3 33/15 38/1
f 38/1 33/15 36/16
f 39/3 37/2 40/1
f 40/1 37/2 38/4
f 34/3 39/15 35/1
f 35/1 39/15 40/16
f 40/19 38/18 35/17
f 35/17 38/18 36/20
f 39/23 34/22 37/21
f 37/21 34/22 33/24
f 41/3 42/2 44/1
f 44/1 42/2 43/4
f 45/3 41/15 46/1
f 46/1 41/15 44/16
f 47/3 45/2 48/1
f 48/1 45/2 46/4
f 42/3 47/15 43/1
f 43/1 47/15 48/16
f 48/19 46/18 43/17
f 43/17 46/18 44/20
f 47/23 42/22 45/21
f 45/21 42/22 41/24
# 72 elements

