# Created by Metasequoia

v -0.425000 0.000000 -0.375088
v -0.525000 0.000000 -0.375088
v -0.525000 2.000000 -0.375088
v -0.425000 2.000000 -0.375088
v -0.425000 0.000000 -0.300088
v -0.425000 2.000000 -0.300088
v 0.425000 0.000000 -0.300088
v 0.425000 2.000000 -0.300088
v 0.425000 0.000000 -0.375088
v 0.425000 2.000000 -0.375088
v 0.525000 0.000000 -0.375088
v 0.525000 2.000000 -0.375088
v 0.577452 0.000000 -0.284239
v 0.577452 2.000000 -0.284239
v 0.527452 0.000000 -0.197637
v 0.527452 2.000000 -0.197637
v 0.462500 0.000000 -0.235136
v 0.462500 2.000000 -0.235136
v 0.037500 0.000000 0.500985
v 0.037500 2.000000 0.500985
v 0.102452 0.000000 0.538485
v 0.102452 2.000000 0.538485
v 0.052452 0.000000 0.625088
v 0.052452 2.000000 0.625088
v -0.052452 0.000000 0.625088
v -0.052452 2.000000 0.625088
v -0.102452 0.000000 0.538485
v -0.102452 2.000000 0.538485
v -0.037500 0.000000 0.500985
v -0.037500 2.000000 0.500985
v -0.462500 0.000000 -0.235136
v -0.462500 2.000000 -0.235136
v -0.527452 0.000000 -0.197637
v -0.527452 2.000000 -0.197637
v -0.577452 0.000000 -0.284239
v -0.577452 2.000000 -0.284239
# 36 vertices

vt 0.23608 0.89312
vt 0.23552 0.10494
vt 0.24438 0.21192
vt 0.19829 0.79340
vt 0.29500 0.46289
vt 0.21069 0.89506
vt 0.67948 0.62525
vt 0.89456 0.28973
vt 0.77121 0.31413
vt 0.81026 0.72190
vt 0.17824 0.50421
vt 0.07991 0.79841
vt 0.17164 0.48729
vt 0.06964 0.78512
vt 0.10712 0.73549
vt 0.17449 0.51693
vt 0.14474 0.68726
vt 0.17296 0.51286
vt 0.19019 0.64131
vt 0.17033 0.49596
vt 0.17379 0.48851
vt 0.18190 0.64437
vt 0.75348 0.45644
vt 0.77336 0.31535
vt 0.73554 0.33870
vt 0.78146 0.47121
vt 0.15021 0.52077
vt 0.15392 0.62960
vt 0.13597 0.51186
vt 0.14891 0.62659
vt 0.15547 0.62865
vt 0.16017 0.52984
vt 0.16001 0.62940
vt 0.16870 0.53041
vt 0.16542 0.63144
vt 0.17594 0.51913
vt 0.18956 0.51664
vt 0.15848 0.63181
vt 0.73796 0.45669
vt 0.78913 0.34348
vt 0.75748 0.33662
vt 0.75805 0.45865
vt 0.19395 0.36350
vt 0.13839 0.62985
vt 0.15791 0.50978
vt 0.12817 0.61991
vt 0.17229 0.70855
vt 0.21948 0.24854
# 48 texture vertices

g base
f 1/3 2/2 4/1
f 4/1 2/2 3/4
f 1/3 4/1 5/5
f 5/5 4/1 6/6
f 7/9 5/8 8/7
f 8/7 5/8 6/10
f 7/13 8/12 9/11
f 9/11 8/12 10/14
f 11/16 9/11 12/15
f 12/15 9/11 10/14
f 13/18 11/16 14/17
f 14/17 11/16 12/15
f 15/20 13/18 16/19
f 16/19 13/18 14/17
f 15/20 16/19 17/21
f 17/21 16/19 18/22
f 19/25 17/24 20/23
f 20/23 17/24 18/26
f 19/29 20/28 21/27
f 21/27 20/28 22/30
f 23/32 21/27 24/31
f 24/31 21/27 22/30
f 25/34 23/32 26/33
f 26/33 23/32 24/31
f 27/36 25/34 28/35
f 28/35 25/34 26/33
f 27/36 28/35 29/37
f 29/37 28/35 30/38
f 31/41 29/40 32/39
f 32/39 29/40 30/42
f 31/45 32/44 33/43
f 33/43 32/44 34/46
f 35/48 33/43 36/47
f 36/47 33/43 34/46
f 2/2 35/48 3/4
f 3/4 35/48 36/47
f 4/1 3/4 6/6
f 6/6 3/4 36/47
f 6/6 36/47 32/44
f 32/44 36/47 34/46
f 6/10 32/39 18/26
f 18/26 32/39 30/42
f 18/26 30/42 20/23
f 20/28 30/38 26/33
f 20/28 26/33 24/31
f 30/38 28/35 26/33
f 24/31 22/30 20/28
f 16/19 14/17 18/22
f 18/22 14/17 8/12
f 18/26 8/7 6/10
f 14/17 12/15 8/12
f 8/12 12/15 10/14
f 2/2 5/5 35/48
f 35/48 5/5 31/45
f 35/48 31/45 33/43
f 2/2 1/3 5/5
f 5/8 7/9 31/41
f 31/41 7/9 17/24
f 31/41 17/24 29/40
f 29/40 17/24 19/25
f 29/37 19/29 25/34
f 25/34 19/29 23/32
f 23/32 19/29 21/27
f 9/11 11/16 7/13
f 7/13 11/16 13/18
f 7/13 13/18 17/21
f 17/21 13/18 15/20
f 25/34 27/36 29/37
# 68 elements

