# Created by Metasequoia

v 1.300000 -0.300000 -2.300000
v 1.300000 -0.300000 -2.700000
v 1.300000 -0.400000 -2.700000
v 1.300000 -0.400000 -2.300000
v 1.300000 2.800000 -2.700000
v 1.300000 2.800000 -2.300000
v 1.300000 3.300000 -2.300000
v 1.300000 3.300000 -2.700000
v 1.700000 -0.400000 -2.700000
v 1.700000 -0.400000 -2.300000
v 1.700000 3.300000 -2.300000
v 1.700000 3.300000 -2.700000
v 1.300000 2.800000 -0.820000
v 1.300000 -0.300000 -0.820000
v 1.300000 -0.300000 -19.020000
v 1.300000 2.800000 -19.020000
v -1.300000 2.800000 -2.300000
v -1.300000 2.800000 -2.700000
v -1.300000 3.300000 -2.700000
v -1.300000 3.300000 -2.300000
v -1.300000 -0.300000 -2.700000
v -1.300000 -0.300000 -2.300000
v -1.300000 -0.400000 -2.300000
v -1.300000 -0.400000 -2.700000
v -1.700000 -0.400000 -2.700000
v -1.700000 -0.400000 -2.300000
v -1.700000 3.300000 -2.300000
v -1.700000 3.300000 -2.700000
v -1.300000 -0.300000 -0.820000
v -1.300000 2.800000 -0.820000
v -1.300000 2.800000 -19.020000
v -1.300000 -0.300000 -19.020000
v -1.450000 2.600000 0.000000
v -1.391265 2.600000 -0.408512
v -1.219818 2.600000 -0.783929
v -0.949548 2.600000 -1.095837
v -0.602352 2.600000 -1.318966
v -0.206357 2.600000 -1.435241
v 0.206357 2.600000 -1.435241
v 0.602352 2.600000 -1.318966
v 0.949548 2.600000 -1.095837
v 1.219818 2.600000 -0.783929
v 1.391265 2.600000 -0.408512
v 1.450000 2.600000 0.000000
v 1.391265 2.600000 0.408512
v 1.219818 2.600000 0.783929
v 0.949548 2.600000 1.095837
v 0.602352 2.600000 1.318966
v 0.206357 2.600000 1.435241
v -0.206357 2.600000 1.435241
v -0.602352 2.600000 1.318966
v -0.949548 2.600000 1.095837
v -1.219818 2.600000 0.783929
v -1.391265 2.600000 0.408512
v 1.195868 0.000000 -0.820000
v 1.380228 0.000000 -0.444377
v 1.449652 0.000000 -0.031750
v 1.398360 0.000000 0.383521
v 1.230623 0.000000 0.766855
v 0.960409 0.000000 1.086331
v 0.610218 0.000000 1.315345
v 0.209213 0.000000 1.434827
v -0.209213 0.000000 1.434827
v -0.610218 0.000000 1.315345
v -0.960409 0.000000 1.086331
v -1.230623 0.000000 0.766855
v -1.398360 0.000000 0.383521
v -1.449652 0.000000 -0.031750
v -1.380228 0.000000 -0.444377
v -1.195868 0.000000 -0.820000
v -1.195868 -0.200000 -0.820000
v -1.380228 -0.200000 -0.444377
v -1.449652 -0.200000 -0.031750
v -1.398360 -0.200000 0.383521
v -1.230623 -0.200000 0.766855
v -0.960409 -0.200000 1.086331
v -0.610218 -0.200000 1.315345
v -0.209213 -0.200000 1.434827
v 0.209213 -0.200000 1.434827
v 0.610218 -0.200000 1.315345
v 0.960409 -0.200000 1.086331
v 1.230623 -0.200000 0.766855
v 1.398360 -0.200000 0.383521
v 1.449652 -0.200000 -0.031750
v 1.380228 -0.200000 -0.444377
v 1.195868 -0.200000 -0.820000
v 1.195868 2.700000 -0.820000
v 1.380228 2.700000 -0.444377
v 1.449652 2.700000 -0.031750
v 1.398360 2.700000 0.383521
v 1.230623 2.700000 0.766855
v 0.960409 2.700000 1.086331
v 0.610218 2.700000 1.315345
v 0.209213 2.700000 1.434827
v -0.209213 2.700000 1.434827
v -0.610218 2.700000 1.315345
v -0.960409 2.700000 1.086331
v -1.230623 2.700000 0.766855
v -1.398360 2.700000 0.383521
v -1.449652 2.700000 -0.031750
v -1.380228 2.700000 -0.444377
v -1.195868 2.700000 -0.820000
v -0.925960 2.700000 -1.115840
v -0.585423 2.700000 -1.326567
v -0.200232 2.700000 -1.436108
v 0.200232 2.700000 -1.436108
v 0.585423 2.700000 -1.326567
v 0.925960 2.700000 -1.115840
v 1.200000 0.000000 -0.820000
v 1.200000 0.000000 -19.020000
v -1.200000 0.000000 -19.020000
v -1.200000 0.000000 -0.820000
v -1.200000 2.700000 -0.820000
v 1.200000 2.700000 -0.820000
v -1.200000 2.700000 -19.020000
v 1.200000 2.700000 -19.020000
# 116 vertices

vt 0.00000 0.00000
# 1 texture vertices

g obj
f 1/1 2/1 4/1
f 4/1 2/1 3/1
f 5/1 6/1 8/1
f 8/1 6/1 7/1
f 9/1 10/1 3/1
f 3/1 10/1 4/1
f 11/1 6/1 10/1
f 10/1 6/1 1/1
f 10/1 1/1 4/1
f 11/1 7/1 6/1
f 3/1 2/1 9/1
f 9/1 2/1 5/1
f 9/1 5/1 12/1
f 12/1 5/1 8/1
f 12/1 11/1 9/1
f 9/1 11/1 10/1
f 11/1 12/1 7/1
f 7/1 12/1 8/1
f 1/1 6/1 14/1
f 14/1 6/1 13/1
f 5/1 2/1 16/1
f 16/1 2/1 15/1
f 17/1 18/1 20/1
f 20/1 18/1 19/1
f 21/1 22/1 24/1
f 24/1 22/1 23/1
f 24/1 23/1 25/1
f 25/1 23/1 26/1
f 23/1 22/1 26/1
f 26/1 22/1 17/1
f 26/1 17/1 27/1
f 27/1 17/1 20/1
f 27/1 28/1 26/1
f 26/1 28/1 25/1
f 28/1 18/1 25/1
f 25/1 18/1 21/1
f 25/1 21/1 24/1
f 28/1 19/1 18/1
f 28/1 27/1 19/1
f 19/1 27/1 20/1
f 17/1 22/1 30/1
f 30/1 22/1 29/1
f 21/1 18/1 32/1
f 32/1 18/1 31/1
f 34/1 43/1 33/1
f 33/1 43/1 44/1
f 33/1 44/1 54/1
f 54/1 44/1 45/1
f 54/1 45/1 53/1
f 53/1 45/1 46/1
f 53/1 46/1 52/1
f 52/1 46/1 47/1
f 52/1 47/1 51/1
f 51/1 47/1 48/1
f 51/1 48/1 50/1
f 50/1 48/1 49/1
f 43/1 34/1 42/1
f 42/1 34/1 35/1
f 42/1 35/1 41/1
f 41/1 35/1 36/1
f 41/1 36/1 40/1
f 40/1 36/1 37/1
f 40/1 37/1 39/1
f 39/1 37/1 38/1
f 86/1 55/1 85/1
f 85/1 55/1 56/1
f 85/1 56/1 84/1
f 84/1 56/1 57/1
f 84/1 57/1 83/1
f 83/1 57/1 58/1
f 83/1 58/1 82/1
f 82/1 58/1 59/1
f 82/1 59/1 81/1
f 81/1 59/1 60/1
f 81/1 60/1 80/1
f 80/1 60/1 61/1
f 80/1 61/1 79/1
f 79/1 61/1 62/1
f 79/1 62/1 78/1
f 78/1 62/1 63/1
f 78/1 63/1 77/1
f 77/1 63/1 64/1
f 77/1 64/1 76/1
f 76/1 64/1 65/1
f 76/1 65/1 75/1
f 75/1 65/1 66/1
f 75/1 66/1 74/1
f 74/1 66/1 67/1
f 74/1 67/1 73/1
f 73/1 67/1 68/1
f 73/1 68/1 72/1
f 72/1 68/1 69/1
f 72/1 69/1 71/1
f 71/1 69/1 70/1
f 71/1 86/1 72/1
f 72/1 86/1 85/1
f 72/1 85/1 73/1
f 73/1 85/1 84/1
f 73/1 84/1 74/1
f 74/1 84/1 83/1
f 74/1 83/1 75/1
f 75/1 83/1 82/1
f 75/1 82/1 76/1
f 76/1 82/1 81/1
f 76/1 81/1 77/1
f 77/1 81/1 80/1
f 77/1 80/1 78/1
f 78/1 80/1 79/1
f 54/1 99/1 33/1
f 33/1 99/1 100/1
f 33/1 100/1 34/1
f 34/1 100/1 101/1
f 34/1 101/1 35/1
f 35/1 101/1 102/1
f 35/1 102/1 36/1
f 36/1 102/1 103/1
f 36/1 103/1 37/1
f 37/1 103/1 104/1
f 37/1 104/1 38/1
f 38/1 104/1 105/1
f 38/1 105/1 39/1
f 39/1 105/1 106/1
f 39/1 106/1 107/1
f 99/1 54/1 98/1
f 98/1 54/1 53/1
f 98/1 53/1 97/1
f 97/1 53/1 52/1
f 97/1 52/1 96/1
f 96/1 52/1 51/1
f 96/1 51/1 95/1
f 95/1 51/1 50/1
f 95/1 50/1 49/1
f 95/1 49/1 94/1
f 94/1 49/1 48/1
f 94/1 48/1 93/1
f 93/1 48/1 47/1
f 93/1 47/1 92/1
f 92/1 47/1 46/1
f 92/1 46/1 91/1
f 91/1 46/1 45/1
f 91/1 45/1 90/1
f 90/1 45/1 44/1
f 90/1 44/1 89/1
f 89/1 44/1 43/1
f 89/1 43/1 88/1
f 88/1 43/1 42/1
f 88/1 42/1 87/1
f 87/1 42/1 41/1
f 87/1 41/1 108/1
f 108/1 41/1 40/1
f 108/1 40/1 107/1
f 107/1 40/1 39/1
f 87/1 102/1 88/1
f 88/1 102/1 101/1
f 88/1 101/1 89/1
f 89/1 101/1 100/1
f 89/1 100/1 99/1
f 89/1 99/1 90/1
f 90/1 99/1 98/1
f 90/1 98/1 91/1
f 91/1 98/1 97/1
f 91/1 97/1 92/1
f 92/1 97/1 96/1
f 92/1 96/1 93/1
f 93/1 96/1 95/1
f 93/1 95/1 94/1
f 109/1 110/1 55/1
f 55/1 110/1 111/1
f 55/1 111/1 70/1
f 70/1 111/1 112/1
f 69/1 66/1 70/1
f 70/1 66/1 65/1
f 70/1 65/1 64/1
f 68/1 67/1 69/1
f 69/1 67/1 66/1
f 64/1 63/1 70/1
f 70/1 63/1 62/1
f 70/1 62/1 55/1
f 55/1 62/1 61/1
f 55/1 61/1 60/1
f 60/1 59/1 55/1
f 55/1 59/1 56/1
f 56/1 59/1 58/1
f 56/1 58/1 57/1
f 70/1 112/1 71/1
f 71/1 112/1 29/1
f 71/1 29/1 14/1
f 29/1 112/1 30/1
f 30/1 112/1 113/1
f 30/1 113/1 102/1
f 102/1 87/1 30/1
f 30/1 87/1 13/1
f 13/1 87/1 114/1
f 13/1 114/1 109/1
f 55/1 86/1 109/1
f 109/1 86/1 14/1
f 109/1 14/1 13/1
f 86/1 71/1 14/1
f 113/1 112/1 115/1
f 115/1 112/1 111/1
f 14/1 29/1 1/1
f 1/1 29/1 22/1
f 1/1 22/1 2/1
f 2/1 22/1 21/1
f 2/1 21/1 15/1
f 15/1 21/1 32/1
f 87/1 108/1 114/1
f 114/1 108/1 116/1
f 116/1 108/1 107/1
f 116/1 107/1 106/1
f 106/1 105/1 116/1
f 116/1 105/1 115/1
f 115/1 105/1 104/1
f 115/1 104/1 103/1
f 102/1 113/1 103/1
f 103/1 113/1 115/1
f 109/1 114/1 110/1
f 110/1 114/1 116/1
f 30/1 13/1 17/1
f 17/1 13/1 6/1
f 17/1 6/1 18/1
f 18/1 6/1 5/1
f 18/1 5/1 31/1
f 31/1 5/1 16/1
f 110/1 32/1 111/1
f 111/1 32/1 31/1
f 111/1 31/1 115/1
f 115/1 31/1 16/1
f 115/1 16/1 116/1
f 116/1 16/1 110/1
f 110/1 16/1 15/1
f 110/1 15/1 32/1
# 232 elements

