# Created by Metasequoia

v 1.100000 0.000000 0.500000
v -1.100000 0.000000 0.500000
v -1.100000 2.600000 0.500000
v 1.100000 2.600000 0.500000
v -1.200000 -0.200000 0.500000
v 1.200000 -0.200000 0.500000
v 1.200000 2.700000 0.500000
v -1.200000 2.700000 0.500000
v -1.100000 0.000000 -13.500000
v -1.100000 2.600000 -13.500000
v 1.100000 2.600000 -13.500000
v 1.100000 0.000000 -13.500000
v 1.200000 -0.200000 -13.500000
v 1.200000 2.700000 -13.500000
v -1.200000 2.700000 -13.500000
v -1.200000 -0.200000 -13.500000
# 16 vertices

vt 0.00000 0.00000
# 1 texture vertices

g obj
f 2/1 6/1 1/1
f 1/1 6/1 7/1
f 1/1 7/1 4/1
f 4/1 7/1 8/1
f 4/1 8/1 3/1
f 3/1 8/1 2/1
f 2/1 8/1 5/1
f 2/1 5/1 6/1
f 9/1 10/1 2/1
f 2/1 10/1 3/1
f 10/1 11/1 3/1
f 3/1 11/1 4/1
f 11/1 12/1 4/1
f 4/1 12/1 1/1
f 12/1 9/1 1/1
f 1/1 9/1 2/1
f 13/1 14/1 6/1
f 6/1 14/1 7/1
f 14/1 15/1 7/1
f 7/1 15/1 8/1
f 15/1 16/1 8/1
f 8/1 16/1 5/1
f 16/1 13/1 5/1
f 5/1 13/1 6/1
f 12/1 16/1 9/1
f 9/1 16/1 15/1
f 9/1 15/1 10/1
f 10/1 15/1 14/1
f 10/1 14/1 11/1
f 11/1 14/1 12/1
f 12/1 14/1 13/1
f 12/1 13/1 16/1
# 32 elements

