# Created by Metasequoia

v -1.445025 2.500000 0.032902
v -1.382563 2.500000 -0.421545
v 1.313989 -0.100000 -0.613134
v 1.440829 -0.100000 -0.162824
v 1.417681 -0.100000 0.304435
v -1.350000 2.600000 1.450000
v -1.417681 2.600000 0.304435
v -1.440829 2.600000 -0.162824
v -1.313989 2.600000 -0.613134
v -1.050364 2.600000 -0.999617
v 0.569551 2.600000 -1.328285
v 1.197866 2.600000 -0.817078
v 1.395690 2.600000 -0.393128
v 1.448224 2.600000 0.071745
v 1.350000 2.600000 0.529150
v -0.860198 2.500000 -1.161568
v 1.264619 2.500000 0.470154
v -0.452907 2.500000 -1.372609
v 1.197866 -0.100000 -0.817078
v 1.304000 2.500000 0.349406
v 0.000000 2.500000 -1.445400
v 0.452907 2.500000 -1.372609
v 0.767449 2.500000 -1.230253
v 1.033619 2.500000 -1.010352
v 1.298154 2.500000 -0.635593
v 1.431937 2.500000 -0.196815
v 1.442398 2.500000 0.148283
v 1.350000 -0.100000 1.450000
v -1.350000 -0.100000 1.450000
v -1.350000 -0.100000 0.529150
v -1.417681 -0.100000 0.304435
v -1.448224 -0.100000 0.071745
v -1.440829 -0.100000 -0.162824
v -1.395690 -0.100000 -0.393128
v -1.255928 -0.100000 -0.715106
v -1.050364 -0.100000 -0.999617
v -0.776373 -0.100000 -1.219006
v -0.347811 -0.100000 -1.402768
v 0.116958 -0.100000 -1.440504
v 0.461705 -0.100000 -1.374529
v 0.776372 -0.100000 -1.219006
v 1.050364 -0.100000 -0.999617
v 1.400592 2.500000 0.375287
v 1.250000 2.500000 1.450000
v 1.350000 2.600000 1.450000
v 1.417681 2.600000 0.304435
v 1.440829 2.600000 -0.162824
v 1.313989 2.600000 -0.613134
v 0.962855 2.600000 -1.077794
v -0.776373 2.600000 -1.219006
v -1.197867 2.600000 -0.817078
v -1.395690 2.600000 -0.393128
v -1.448224 2.600000 0.071745
v -1.350000 2.600000 0.529150
v 1.350000 -0.100000 0.529150
v 1.448224 -0.100000 0.071745
v 1.395690 -0.100000 -0.393128
v -1.180848 2.500000 -0.833533
v -1.400592 2.500000 0.375288
v -1.264619 2.500000 0.470155
v -1.264619 0.000000 0.470155
v -1.400592 0.000000 0.375288
v -1.431937 0.000000 -0.196815
v -1.033619 0.000000 -1.010352
v -0.452907 0.000000 -1.372609
v 0.452907 0.000000 -1.372609
v 1.180848 0.000000 -0.833534
v 1.445025 0.000000 0.032902
v 1.304000 0.000000 0.349406
v 1.250000 0.000000 1.450000
v -0.233916 2.600000 -1.431008
v 0.000000 2.600000 -1.450000
v 0.233916 2.600000 -1.431008
v -1.250000 0.000000 1.450000
v 1.264619 0.000000 0.470154
v 1.400592 0.000000 0.375287
v 1.382563 0.000000 -0.421545
v 0.860197 0.000000 -1.161568
v 0.000000 0.000000 -1.445400
v -0.767450 0.000000 -1.230252
v -1.298154 0.000000 -0.635592
v -1.442398 0.000000 0.148283
v -1.304000 0.000000 0.349406
v -1.250000 2.500000 1.450000
v -1.304000 2.500000 0.349406
# 85 vertices

vt 0.00000 0.00000
# 1 texture vertices

g obj
f 71/1 11/1 73/1
f 50/1 11/1 71/1
f 50/1 49/1 11/1
f 10/1 49/1 50/1
f 10/1 12/1 49/1
f 51/1 12/1 10/1
f 51/1 48/1 12/1
f 9/1 48/1 51/1
f 9/1 13/1 48/1
f 52/1 13/1 9/1
f 52/1 47/1 13/1
f 8/1 47/1 52/1
f 8/1 14/1 47/1
f 53/1 14/1 8/1
f 53/1 46/1 14/1
f 7/1 46/1 53/1
f 7/1 15/1 46/1
f 54/1 15/1 7/1
f 54/1 45/1 15/1
f 6/1 45/1 54/1
f 45/1 44/1 28/1
f 6/1 44/1 45/1
f 6/1 84/1 44/1
f 29/1 84/1 6/1
f 29/1 74/1 84/1
f 28/1 74/1 29/1
f 28/1 70/1 74/1
f 44/1 70/1 28/1
f 55/1 45/1 28/1
f 15/1 45/1 55/1
f 54/1 59/1 62/1
f 7/1 59/1 54/1
f 7/1 1/1 59/1
f 53/1 1/1 7/1
f 8/1 1/1 53/1
f 8/1 2/1 1/1
f 52/1 2/1 8/1
f 9/1 2/1 52/1
f 9/1 58/1 2/1
f 51/1 58/1 9/1
f 10/1 58/1 51/1
f 10/1 16/1 58/1
f 50/1 16/1 10/1
f 50/1 18/1 16/1
f 71/1 18/1 50/1
f 71/1 21/1 18/1
f 72/1 21/1 71/1
f 73/1 21/1 72/1
f 73/1 22/1 21/1
f 11/1 22/1 73/1
f 11/1 23/1 22/1
f 49/1 23/1 11/1
f 49/1 24/1 23/1
f 12/1 24/1 49/1
f 12/1 25/1 24/1
f 48/1 25/1 12/1
f 13/1 25/1 48/1
f 13/1 26/1 25/1
f 47/1 26/1 13/1
f 14/1 26/1 47/1
f 14/1 27/1 26/1
f 46/1 27/1 14/1
f 46/1 43/1 27/1
f 15/1 43/1 46/1
f 55/1 43/1 15/1
f 55/1 76/1 43/1
f 5/1 76/1 55/1
f 5/1 68/1 76/1
f 56/1 68/1 5/1
f 4/1 68/1 56/1
f 4/1 77/1 68/1
f 57/1 77/1 4/1
f 3/1 77/1 57/1
f 3/1 67/1 77/1
f 19/1 67/1 3/1
f 42/1 67/1 19/1
f 42/1 78/1 67/1
f 41/1 78/1 42/1
f 41/1 66/1 78/1
f 40/1 66/1 41/1
f 39/1 66/1 40/1
f 39/1 79/1 66/1
f 38/1 79/1 39/1
f 38/1 65/1 79/1
f 37/1 65/1 38/1
f 37/1 80/1 65/1
f 37/1 64/1 80/1
f 36/1 64/1 37/1
f 35/1 64/1 36/1
f 35/1 81/1 64/1
f 34/1 81/1 35/1
f 34/1 63/1 81/1
f 33/1 63/1 34/1
f 32/1 63/1 33/1
f 32/1 82/1 63/1
f 31/1 82/1 32/1
f 62/1 30/1 54/1
f 62/1 31/1 30/1
f 82/1 31/1 62/1
f 29/1 54/1 30/1
f 6/1 54/1 29/1
f 40/1 38/1 39/1
f 40/1 37/1 38/1
f 41/1 37/1 40/1
f 41/1 36/1 37/1
f 42/1 36/1 41/1
f 42/1 35/1 36/1
f 19/1 35/1 42/1
f 3/1 35/1 19/1
f 3/1 34/1 35/1
f 57/1 34/1 3/1
f 57/1 33/1 34/1
f 4/1 33/1 57/1
f 4/1 32/1 33/1
f 56/1 32/1 4/1
f 56/1 31/1 32/1
f 5/1 31/1 56/1
f 5/1 30/1 31/1
f 55/1 30/1 5/1
f 55/1 29/1 30/1
f 28/1 29/1 55/1
f 20/1 27/1 43/1
f 26/1 27/1 20/1
f 20/1 25/1 26/1
f 20/1 24/1 25/1
f 23/1 24/1 20/1
f 20/1 22/1 23/1
f 21/1 22/1 20/1
f 1/1 85/1 59/1
f 2/1 85/1 1/1
f 58/1 85/1 2/1
f 16/1 85/1 58/1
f 18/1 85/1 16/1
f 21/1 85/1 18/1
f 20/1 85/1 21/1
f 20/1 60/1 85/1
f 17/1 60/1 20/1
f 17/1 84/1 60/1
f 44/1 84/1 17/1
f 17/1 70/1 44/1
f 75/1 70/1 17/1
f 17/1 69/1 75/1
f 20/1 69/1 17/1
f 20/1 76/1 69/1
f 43/1 76/1 20/1
f 59/1 83/1 62/1
f 85/1 83/1 59/1
f 85/1 61/1 83/1
f 60/1 61/1 85/1
f 84/1 61/1 60/1
f 74/1 61/1 84/1
f 83/1 82/1 62/1
f 63/1 82/1 83/1
f 83/1 81/1 63/1
f 83/1 64/1 81/1
f 80/1 64/1 83/1
f 83/1 65/1 80/1
f 79/1 65/1 83/1
f 68/1 69/1 76/1
f 77/1 69/1 68/1
f 67/1 69/1 77/1
f 78/1 69/1 67/1
f 66/1 69/1 78/1
f 79/1 69/1 66/1
f 83/1 69/1 79/1
f 83/1 75/1 69/1
f 61/1 75/1 83/1
f 61/1 70/1 75/1
f 74/1 70/1 61/1
f 71/1 73/1 72/1
# 170 elements

