# Created by Metasequoia

v -1.304000 2.500000 0.349406
v -1.337177 2.500000 0.176043
v -1.450000 2.500000 0.000000
v -1.444482 2.500000 0.126376
v -1.427971 2.500000 0.251790
v -1.400592 2.500000 0.375288
v -1.444482 0.000000 0.126376
v -1.400592 0.000000 0.375288
v -1.337177 0.000000 0.176043
v -1.450000 0.000000 0.000000
v -1.350000 0.000000 0.000000
v -1.304000 0.000000 0.349406
v -1.427971 0.000000 0.251790
v -1.350000 2.500000 0.000000
# 14 vertices

vt 0.00000 0.00000
# 1 texture vertices

g body
f 2/1 6/1 1/1
f 2/1 5/1 6/1
f 2/1 4/1 5/1
f 14/1 4/1 2/1
f 3/1 4/1 14/1
f 11/1 3/1 14/1
f 10/1 3/1 11/1
f 10/1 4/1 3/1
f 7/1 4/1 10/1
f 7/1 5/1 4/1
f 13/1 5/1 7/1
f 13/1 6/1 5/1
f 8/1 6/1 13/1
f 8/1 1/1 6/1
f 12/1 1/1 8/1
f 12/1 2/1 1/1
f 9/1 2/1 12/1
f 9/1 14/1 2/1
f 11/1 14/1 9/1
f 8/1 9/1 12/1
f 13/1 9/1 8/1
f 7/1 9/1 13/1
f 7/1 11/1 9/1
f 10/1 11/1 7/1
# 24 elements

