# Created by Metasequoia

v -2.400000 0.100000 -9.000000
v -1.500000 0.100000 -9.000000
v -2.683099 0.100000 -3.400000
v -1.500000 0.100000 -3.400000
v -1.500000 0.100000 -6.300001
v -0.700000 0.100000 -6.300001
v -0.700000 0.100000 -3.400000
v 0.000000 0.100000 -3.400000
v 0.000000 0.100000 -1.900000
v -0.700000 0.100000 -1.900000
v -0.700000 0.100000 0.000000
v -1.500000 0.100000 0.000000
v -1.500000 0.100000 -1.900000
v -3.900000 0.100000 -1.900000
# 14 vertices

vt 0.00000 0.00000
# 1 texture vertices

g body
f 2/1 1/1 3/1
f 3/1 1/1 14/1
f 3/1 14/1 13/1
f 12/1 10/1 13/1
f 13/1 10/1 7/1
f 13/1 7/1 4/1
f 4/1 7/1 6/1
f 4/1 6/1 5/1
f 12/1 11/1 10/1
f 9/1 8/1 10/1
f 10/1 8/1 7/1
f 4/1 3/1 13/1
# 12 elements

