# Created by Metasequoia

v -0.800000 0.100000 -1.500000
v -0.800000 0.100000 -4.000000
v -2.200000 0.100000 -4.000000
v -2.200000 0.100000 -1.500000
v 0.000000 0.100000 0.000000
v -3.000000 0.100000 0.000000
v -3.000000 0.100000 -7.500000
v -0.800000 0.100000 -9.500000
v -0.800000 0.100000 -8.418832
v -2.200000 0.100000 -7.146104
v -2.200000 0.100000 -5.500000
v 0.000000 0.100000 -5.500000
# 12 vertices

vt 0.00000 0.00000
# 1 texture vertices

g body
f 4/1 5/1 1/1
f 1/1 5/1 12/1
f 1/1 12/1 2/1
f 2/1 12/1 11/1
f 2/1 11/1 3/1
f 3/1 11/1 7/1
f 3/1 7/1 6/1
f 5/1 4/1 6/1
f 6/1 4/1 3/1
f 11/1 10/1 7/1
f 7/1 10/1 8/1
f 8/1 10/1 9/1
# 12 elements

