# Created by Metasequoia

v -0.006077 -0.240009 0.000000
v 0.172648 0.180912 0.000000
v 0.172648 0.180912 0.010000
v -0.006077 -0.240009 0.010000
v -0.123440 -0.240181 0.000000
v -0.123440 -0.240181 0.010000
v 0.055653 0.154367 0.000000
v 0.055653 0.154367 0.010000
v -0.173138 0.154032 0.000000
v -0.173138 0.154032 0.010000
v -0.173263 0.239747 0.000000
v -0.173263 0.239747 0.010000
v 0.172561 0.240253 0.000000
v 0.172561 0.240253 0.010000
# 14 vertices

vt 0.00000 0.10000
vt 4.57294 0.00000
vt 0.00000 0.00000
vt 4.57294 0.10000
vt 1.17363 0.00000
vt 1.17363 0.10000
vt 4.33293 0.00000
vt 4.33293 0.10000
vt 2.28791 0.00000
vt 2.28791 0.10000
vt 0.85714 0.00000
vt 0.85714 0.10000
vt 3.45824 0.00000
vt 3.45824 0.10000
vt 0.59341 0.00000
vt 0.59341 0.10000
vt 0.55961 1.54331
vt 1.72955 1.80876
vt -0.05769 -2.40045
vt 1.72869 2.40217
vt -1.72955 2.39711
vt -1.72830 1.53997
vt -1.23132 -2.40217
vt -0.55961 1.54331
vt -1.72869 2.40217
vt 1.72955 2.39711
vt -1.72955 1.80876
vt 0.05769 -2.40045
vt 1.23132 -2.40217
vt 1.72830 1.53997
# 30 texture vertices

g body
f 1/3 2/2 4/1
f 4/1 2/2 3/4
f 5/3 1/5 6/1
f 6/1 1/5 4/6
f 7/3 5/7 8/1
f 8/1 5/7 6/8
f 9/3 7/9 10/1
f 10/1 7/9 8/10
f 11/3 9/11 12/1
f 12/1 9/11 10/12
f 13/3 11/13 14/1
f 14/1 11/13 12/14
f 2/3 13/15 3/1
f 3/1 13/15 14/16
f 4/19 3/18 8/17
f 8/17 3/18 14/20
f 8/17 14/20 12/21
f 12/21 10/22 8/17
f 8/17 6/23 4/19
f 11/26 13/25 7/24
f 7/24 13/25 2/27
f 7/24 2/27 1/28
f 1/28 5/29 7/24
f 7/24 9/30 11/26
# 24 elements

