# Created by Metasequoia

v 0.056337 0.024808 0.000000
v 0.046672 0.011453 0.000000
v 0.041265 0.005722 0.000000
v 0.035168 0.001125 0.000000
v 0.028238 -0.002100 0.000000
v 0.020632 -0.004213 0.000000
v 0.004295 -0.006587 0.000000
v 0.004295 -0.006587 0.010000
v 0.020632 -0.004213 0.010000
v 0.028238 -0.002100 0.010000
v 0.035168 0.001125 0.010000
v 0.041265 0.005722 0.010000
v 0.046672 0.011453 0.010000
v 0.056337 0.024808 0.010000
v 0.056270 0.070961 0.000000
v 0.056270 0.070961 0.010000
v 0.040675 0.139181 0.000000
v 0.048176 0.123029 0.000000
v 0.053486 0.106328 0.000000
v 0.055709 0.088853 0.000000
v 0.055709 0.088853 0.010000
v 0.053486 0.106328 0.010000
v 0.048176 0.123029 0.010000
v 0.040675 0.139181 0.010000
v -0.001225 0.161207 0.000000
v 0.011216 0.159456 0.000000
v 0.022579 0.155645 0.000000
v 0.032159 0.148428 0.000000
v 0.032159 0.148428 0.010000
v 0.022579 0.155645 0.010000
v 0.011216 0.159456 0.010000
v -0.001225 0.161207 0.010000
v -0.040419 0.136095 0.000000
v -0.032853 0.146010 0.000000
v -0.024127 0.154035 0.000000
v -0.013344 0.158709 0.000000
v -0.013344 0.158709 0.010000
v -0.024127 0.154035 0.010000
v -0.032853 0.146010 0.010000
v -0.040419 0.136095 0.010000
v -0.056154 0.075412 0.000000
v -0.055172 0.091371 0.000000
v -0.052634 0.106913 0.000000
v -0.047384 0.121733 0.000000
v -0.047384 0.121733 0.010000
v -0.052634 0.106913 0.010000
v -0.055172 0.091371 0.010000
v -0.056154 0.075412 0.010000
v -0.039913 0.015601 0.000000
v -0.047306 0.029601 0.000000
v -0.052761 0.044155 0.000000
v -0.055278 0.059549 0.000000
v -0.055278 0.059549 0.010000
v -0.052761 0.044155 0.010000
v -0.047306 0.029601 0.010000
v -0.039913 0.015601 0.010000
v -0.008703 -0.004905 0.000000
v -0.020644 -0.001123 0.000000
v -0.030813 0.006178 0.000000
v -0.030813 0.006178 0.010000
v -0.020644 -0.001123 0.010000
v -0.008703 -0.004905 0.010000
v -0.025587 -0.086741 0.000000
v -0.003365 -0.083967 0.000000
v 0.007377 -0.081656 0.000000
v 0.017678 -0.078235 0.000000
v 0.036805 -0.067689 0.000000
v 0.054805 -0.054315 0.000000
v 0.054805 -0.054315 0.010000
v 0.036805 -0.067689 0.010000
v 0.017678 -0.078235 0.010000
v 0.007377 -0.081656 0.010000
v -0.003365 -0.083967 0.010000
v -0.025587 -0.086741 0.010000
v -0.129168 -0.042717 0.000000
v -0.106810 -0.061881 0.000000
v -0.095014 -0.070039 0.000000
v -0.082477 -0.076488 0.000000
v -0.069066 -0.080922 0.000000
v -0.054959 -0.083753 0.000000
v -0.054959 -0.083753 0.010000
v -0.069066 -0.080922 0.010000
v -0.082477 -0.076488 0.010000
v -0.095014 -0.070039 0.010000
v -0.106810 -0.061881 0.010000
v -0.129168 -0.042717 0.010000
v -0.167583 0.075249 0.000000
v -0.165289 0.043282 0.000000
v -0.162949 0.027702 0.000000
v -0.159180 0.012607 0.000000
v -0.153572 -0.001866 0.000000
v -0.146341 -0.015789 0.000000
v -0.146341 -0.015789 0.010000
v -0.153572 -0.001866 0.010000
v -0.159180 0.012607 0.010000
v -0.162949 0.027702 0.010000
v -0.165289 0.043282 0.010000
v -0.167583 0.075249 0.010000
v -0.146280 0.160995 0.000000
v -0.155346 0.140491 0.000000
v -0.162362 0.119476 0.000000
v -0.165984 0.097615 0.000000
v -0.165984 0.097615 0.010000
v -0.162362 0.119476 0.010000
v -0.155346 0.140491 0.010000
v -0.146280 0.160995 0.010000
v -0.086207 0.223720 0.000000
v -0.104192 0.210879 0.000000
v -0.120559 0.196490 0.000000
v -0.134229 0.179518 0.000000
v -0.134229 0.179518 0.010000
v -0.120559 0.196490 0.010000
v -0.104192 0.210879 0.010000
v -0.086207 0.223720 0.010000
v -0.000691 0.246922 0.000000
v -0.023170 0.245155 0.000000
v -0.045053 0.241203 0.000000
v -0.065934 0.233575 0.000000
v -0.065934 0.233575 0.010000
v -0.045053 0.241203 0.010000
v -0.023170 0.245155 0.010000
v -0.000691 0.246922 0.010000
v 0.085223 0.223147 0.000000
v 0.064923 0.233321 0.000000
v 0.043975 0.241166 0.000000
v 0.021958 0.245179 0.000000
v 0.021958 0.245179 0.010000
v 0.043975 0.241166 0.010000
v 0.064923 0.233321 0.010000
v 0.085223 0.223147 0.010000
v 0.145157 0.155652 0.000000
v 0.133468 0.175468 0.000000
v 0.120007 0.193700 0.000000
v 0.103536 0.209246 0.000000
v 0.103536 0.209246 0.010000
v 0.120007 0.193700 0.010000
v 0.133468 0.175468 0.010000
v 0.145157 0.155652 0.010000
v 0.167392 0.054970 0.000000
v 0.165677 0.081008 0.000000
v 0.161925 0.106587 0.000000
v 0.154646 0.131369 0.000000
v 0.154646 0.131369 0.010000
v 0.161925 0.106587 0.010000
v 0.165677 0.081008 0.010000
v 0.167392 0.054970 0.010000
v 0.167455 0.012443 0.000000
v 0.167455 0.012443 0.010000
v 0.136502 -0.125405 0.000000
v 0.150198 -0.092318 0.000000
v 0.155992 -0.075531 0.000000
v 0.160524 -0.058453 0.000000
v 0.165520 -0.023358 0.000000
v 0.165520 -0.023358 0.010000
v 0.160524 -0.058453 0.010000
v 0.155992 -0.075531 0.010000
v 0.150198 -0.092318 0.010000
v 0.136502 -0.125405 0.010000
v 0.047788 -0.215205 0.000000
v 0.074599 -0.197334 0.000000
v 0.087214 -0.187617 0.000000
v 0.098880 -0.176962 0.000000
v 0.109388 -0.165163 0.000000
v 0.118951 -0.152429 0.000000
v 0.118951 -0.152429 0.010000
v 0.109388 -0.165163 0.010000
v 0.098880 -0.176962 0.010000
v 0.087214 -0.187617 0.010000
v 0.074599 -0.197334 0.010000
v 0.047788 -0.215205 0.010000
v -0.086672 -0.246721 0.000000
v -0.051674 -0.244608 0.000000
v -0.017409 -0.239440 0.000000
v -0.000762 -0.234832 0.000000
v 0.015587 -0.228981 0.000000
v 0.015587 -0.228981 0.010000
v -0.000762 -0.234832 0.010000
v -0.017409 -0.239440 0.010000
v -0.051674 -0.244608 0.010000
v -0.086672 -0.246721 0.010000
v -0.093595 -0.246731 0.000000
v -0.093595 -0.246731 0.010000
v -0.093725 -0.157720 0.000000
v -0.093725 -0.157720 0.010000
v -0.072627 -0.157359 0.000000
v -0.072627 -0.157359 0.010000
v 0.047083 -0.076871 0.000000
v 0.038270 -0.098140 0.000000
v 0.027275 -0.116837 0.000000
v 0.020618 -0.124819 0.000000
v 0.013011 -0.131680 0.000000
v 0.004436 -0.137402 0.000000
v -0.004990 -0.142118 0.000000
v -0.025913 -0.149112 0.000000
v -0.048783 -0.153810 0.000000
v -0.048783 -0.153810 0.010000
v -0.025913 -0.149112 0.010000
v -0.004990 -0.142118 0.010000
v 0.004436 -0.137402 0.010000
v 0.013011 -0.131680 0.010000
v 0.020618 -0.124819 0.010000
v 0.027275 -0.116837 0.010000
v 0.038270 -0.098140 0.010000
v 0.047083 -0.076871 0.010000
# 204 vertices

vt -0.60779 0.10000
vt -0.45584 0.00000
vt -0.60779 0.00000
vt -0.45584 0.10000
vt -0.37987 0.00000
vt -0.37987 0.10000
vt -0.30390 0.00000
vt -0.30390 0.10000
vt -0.22792 0.00000
vt -0.22792 0.10000
vt -0.15195 0.00000
vt -0.15195 0.10000
vt 0.00000 0.00000
vt 0.00000 0.10000
vt 0.46154 0.00000
vt 0.46154 0.10000
vt -0.70014 0.10000
vt -0.52510 0.00000
vt -0.70014 0.00000
vt -0.52510 0.10000
vt -0.35007 0.00000
vt -0.35007 0.10000
vt -0.17503 0.00000
vt -0.17503 0.10000
vt -0.47337 0.10000
vt -0.35503 0.00000
vt -0.47337 0.00000
vt -0.35503 0.10000
vt -0.23669 0.00000
vt -0.23669 0.10000
vt -0.11834 0.00000
vt -0.11834 0.10000
vt -0.46571 0.10000
vt -0.34929 0.00000
vt -0.46571 0.00000
vt -0.34929 0.10000
vt -0.23286 0.00000
vt -0.23286 0.10000
vt -0.11643 0.00000
vt -0.11643 0.10000
vt -0.62694 0.10000
vt -0.47020 0.00000
vt -0.62694 0.00000
vt -0.47020 0.10000
vt -0.31347 0.00000
vt -0.31347 0.10000
vt -0.15673 0.00000
vt -0.15673 0.10000
vt -0.61991 0.10000
vt -0.46494 0.00000
vt -0.61991 0.00000
vt -0.46494 0.10000
vt -0.30996 0.00000
vt -0.30996 0.10000
vt -0.15498 0.00000
vt -0.15498 0.10000
vt -0.49464 0.10000
vt -0.37098 0.00000
vt -0.49464 0.00000
vt -0.37098 0.10000
vt -0.24732 0.00000
vt -0.24732 0.10000
vt -0.12366 0.00000
vt -0.12366 0.10000
vt -0.86687 0.10000
vt -0.65016 0.00000
vt -0.86687 0.00000
vt -0.65016 0.10000
vt -0.54180 0.00000
vt -0.54180 0.10000
vt -0.43344 0.00000
vt -0.43344 0.10000
vt -0.21672 0.00000
vt -0.21672 0.10000
vt -1.12557 0.10000
vt -0.84418 0.00000
vt -1.12557 0.00000
vt -0.84418 0.10000
vt -0.70348 0.00000
vt -0.70348 0.10000
vt -0.56279 0.00000
vt -0.56279 0.10000
vt -0.42209 0.00000
vt -0.42209 0.10000
vt -0.28139 0.00000
vt -0.28139 0.10000
vt -1.24086 0.10000
vt -0.93064 0.00000
vt -1.24086 0.00000
vt -0.93064 0.10000
vt -0.77554 0.00000
vt -0.77554 0.10000
vt -0.62043 0.00000
vt -0.62043 0.10000
vt -0.46532 0.00000
vt -0.46532 0.10000
vt -0.31021 0.00000
vt -0.31021 0.10000
vt -0.88352 0.10000
vt -0.66264 0.00000
vt -0.88352 0.00000
vt -0.66264 0.10000
vt -0.44176 0.00000
vt -0.44176 0.10000
vt -0.22088 0.00000
vt -0.22088 0.10000
vt -0.86852 0.10000
vt -0.65139 0.00000
vt -0.86852 0.00000
vt -0.65139 0.10000
vt -0.43426 0.00000
vt -0.43426 0.10000
vt -0.21713 0.00000
vt -0.21713 0.10000
vt -0.88608 0.10000
vt -0.66456 0.00000
vt -0.88608 0.00000
vt -0.66456 0.10000
vt -0.44304 0.00000
vt -0.44304 0.10000
vt -0.22152 0.00000
vt -0.22152 0.10000
vt -0.89144 0.10000
vt -0.66858 0.00000
vt -0.89144 0.00000
vt -0.66858 0.10000
vt -0.44572 0.00000
vt -0.44572 0.10000
vt -0.22286 0.00000
vt -0.22286 0.10000
vt -0.90265 0.10000
vt -0.67699 0.00000
vt -0.90265 0.00000
vt -0.67699 0.10000
vt -0.45133 0.00000
vt -0.45133 0.10000
vt -0.22566 0.00000
vt -0.22566 0.10000
vt -1.03111 0.10000
vt -0.77333 0.00000
vt -1.03111 0.00000
vt -0.77333 0.10000
vt -0.51556 0.00000
vt -0.51556 0.10000
vt -0.25778 0.00000
vt -0.25778 0.10000
vt 0.42527 0.00000
vt 0.42527 0.10000
vt -1.41287 0.10000
vt -1.05965 0.00000
vt -1.41287 0.00000
vt -1.05965 0.10000
vt -0.88304 0.00000
vt -0.88304 0.10000
vt -0.70643 0.00000
vt -0.70643 0.10000
vt -0.35322 0.00000
vt -0.35322 0.10000
vt -1.26232 0.10000
vt -0.94674 0.00000
vt -1.26232 0.00000
vt -0.94674 0.10000
vt -0.78895 0.00000
vt -0.78895 0.10000
vt -0.63116 0.00000
vt -0.63116 0.10000
vt -0.31558 0.00000
vt -0.31558 0.10000
vt -1.38109 0.10000
vt -1.03582 0.00000
vt -1.38109 0.00000
vt -1.03582 0.10000
vt -0.69054 0.00000
vt -0.69054 0.10000
vt -0.51791 0.00000
vt -0.51791 0.10000
vt -0.34527 0.00000
vt -0.34527 0.10000
vt 0.06923 0.00000
vt 0.06923 0.10000
vt 0.89011 0.00000
vt 0.89011 0.10000
vt 0.21102 0.00000
vt 0.21102 0.10000
vt -1.64003 0.10000
vt -1.43502 0.00000
vt -1.64003 0.00000
vt -1.43502 0.10000
vt -1.23002 0.00000
vt -1.23002 0.10000
vt -1.02502 0.00000
vt -1.02502 0.10000
vt -0.92251 0.00000
vt -0.92251 0.10000
vt -0.82001 0.00000
vt -0.82001 0.10000
vt -0.71751 0.00000
vt -0.71751 0.10000
vt -0.61501 0.00000
vt -0.61501 0.10000
vt -0.41001 0.00000
vt -0.41001 0.10000
vt -0.20500 0.00000
vt -0.20500 0.10000
vt 0.54869 -0.54411
vt 1.19015 -1.52525
vt 0.47147 -0.76967
vt 1.36567 -1.25501
vt 1.50262 -0.92413
vt 1.09452 -1.65259
vt 0.38334 -0.98236
vt 0.98944 -1.77058
vt 0.87278 -1.87713
vt 0.74663 -1.97430
vt 0.27339 -1.16933
vt 0.47852 -2.15301
vt 0.20682 -1.24915
vt 0.13075 -1.31776
vt 0.15651 -2.29077
vt 0.04500 -1.37497
vt -0.04926 -1.42214
vt -0.00697 -2.34928
vt -0.25848 -1.49208
vt -0.17345 -2.39536
vt -0.48719 -1.53905
vt -0.51610 -2.44704
vt -0.72563 -1.57455
vt -0.86608 -2.46816
vt -0.93661 -1.57816
vt -0.93531 -2.46827
vt 1.56056 -0.75627
vt 1.60589 -0.58549
vt 1.65585 -0.23454
vt 0.56402 0.24712
vt 1.67519 0.12347
vt 1.67456 0.54874
vt 0.56334 0.70866
vt 1.65741 0.80912
vt 1.61989 1.06491
vt 0.55774 0.88757
vt 1.54710 1.31273
vt 1.45221 1.55556
vt 0.53550 1.06232
vt 1.33532 1.75372
vt 1.20071 1.93605
vt 0.48240 1.22933
vt 1.03600 2.09150
vt 0.40740 1.39085
vt 0.85287 2.23051
vt 0.64987 2.33225
vt 0.32223 1.48333
vt 0.44039 2.41070
vt 0.22643 1.55550
vt 0.22022 2.45083
vt 0.11280 1.59360
vt -0.00627 2.46827
vt -0.01161 1.61111
vt -0.23106 2.45059
vt -0.13280 1.58614
vt -0.24063 1.53939
vt -0.44989 2.41107
vt -0.32789 1.45914
vt -0.65870 2.33479
vt -0.40355 1.35999
vt -0.86142 2.23624
vt -1.04127 2.10784
vt -0.47320 1.21637
vt -1.20495 1.96394
vt -0.52570 1.06817
vt -1.34165 1.79422
vt -1.46216 1.60899
vt -0.55108 0.91275
vt -1.55282 1.40395
vt -1.62298 1.19380
vt -0.56090 0.75317
vt -1.65920 0.97519
vt -1.67519 0.75153
vt -1.65225 0.43186
vt -0.55214 0.59453
vt -1.62885 0.27606
vt -1.59115 0.12511
vt -1.53508 -0.01962
vt -1.46277 -0.15885
vt -0.52697 0.44060
vt -1.29104 -0.42812
vt -1.06746 -0.61976
vt -0.47242 0.29505
vt -0.94950 -0.70134
vt -0.39849 0.15505
vt -0.82413 -0.76584
vt -0.69001 -0.81018
vt -0.54895 -0.83848
vt -0.30749 0.06082
vt -0.20580 -0.01218
vt -0.25523 -0.86837
vt -0.08639 -0.05000
vt -0.03301 -0.84063
vt 0.04360 -0.06683
vt 0.07441 -0.81752
vt 0.17742 -0.78331
vt 0.20696 -0.04309
vt 0.36869 -0.67785
vt 0.28302 -0.02196
vt 0.35232 0.01029
vt 0.41329 0.05626
vt 0.46736 0.11358
vt 0.72563 -1.57455
vt 0.51610 -2.44704
vt 0.48719 -1.53905
vt 0.86608 -2.46816
vt 0.93661 -1.57816
vt 0.93531 -2.46827
vt 0.17345 -2.39536
vt 0.25848 -1.49208
vt 0.00697 -2.34928
vt 0.04926 -1.42214
vt -0.15651 -2.29077
vt -0.04500 -1.37497
vt -0.13075 -1.31776
vt -0.47852 -2.15301
vt -0.20682 -1.24915
vt -0.27339 -1.16933
vt -0.74663 -1.97430
vt -0.38334 -0.98236
vt -0.87278 -1.87713
vt -0.98944 -1.77058
vt -1.09452 -1.65259
vt -0.47147 -0.76967
vt -1.19015 -1.52525
vt -0.54869 -0.54411
vt -1.36567 -1.25501
vt -1.50262 -0.92413
vt -1.56056 -0.75627
vt -1.60589 -0.58549
vt -1.65585 -0.23454
vt -0.56402 0.24712
vt -1.67519 0.12347
vt -1.67456 0.54874
vt -0.56334 0.70866
vt -1.65741 0.80912
vt -1.61989 1.06491
vt -0.55774 0.88757
vt -1.54710 1.31273
vt -1.45221 1.55556
vt -0.53550 1.06232
vt -1.33532 1.75372
vt -1.20071 1.93605
vt -0.48240 1.22933
vt -1.03600 2.09150
vt -0.40740 1.39085
vt -0.85287 2.23051
vt -0.64987 2.33225
vt -0.32223 1.48333
vt -0.44039 2.41070
vt -0.22643 1.55550
vt -0.22022 2.45083
vt -0.11280 1.59360
vt 0.00627 2.46827
vt 0.01161 1.61111
vt 0.23106 2.45059
vt 0.13280 1.58614
vt 0.24063 1.53939
vt -0.28302 -0.02196
vt -0.36869 -0.67785
vt -0.35232 0.01029
vt -0.41329 0.05626
vt -0.20696 -0.04309
vt -0.17742 -0.78331
vt -0.04360 -0.06683
vt -0.07441 -0.81752
vt 0.03301 -0.84063
vt 0.08639 -0.05000
vt 0.25523 -0.86837
vt 0.20580 -0.01218
vt 0.54895 -0.83848
vt 0.30749 0.06082
vt 0.39849 0.15505
vt 0.69001 -0.81018
vt 0.82413 -0.76584
vt 0.94950 -0.70134
vt 0.47242 0.29505
vt 1.06746 -0.61976
vt 0.52697 0.44060
vt 1.29104 -0.42812
vt 1.46277 -0.15885
vt 0.55214 0.59453
vt 1.53508 -0.01962
vt 1.59115 0.12511
vt 1.62885 0.27606
vt 1.65225 0.43186
vt 0.56090 0.75317
vt 1.67519 0.75153
vt 1.65920 0.97519
vt 1.62298 1.19380
vt 0.55108 0.91275
vt 1.55282 1.40395
vt 1.46216 1.60899
vt 0.52570 1.06817
vt 1.34165 1.79422
vt 1.20495 1.96394
vt 0.47320 1.21637
vt 1.04127 2.10784
vt 0.40355 1.35999
vt 0.86142 2.23624
vt 0.65870 2.33479
vt 0.32789 1.45914
vt 0.44989 2.41107
vt -0.46736 0.11358
# 408 texture vertices

g body
f 1/3 2/2 14/1
f 14/1 2/2 13/4
f 13/4 2/2 3/5
f 13/4 3/5 12/6
f 12/6 3/5 4/7
f 12/6 4/7 11/8
f 11/8 4/7 5/9
f 11/8 5/9 10/10
f 10/10 5/9 6/11
f 10/10 6/11 9/12
f 9/12 6/11 7/13
f 9/12 7/13 8/14
f 15/13 1/15 16/14
f 16/14 1/15 14/16
f 17/19 18/18 24/17
f 24/17 18/18 23/20
f 23/20 18/18 19/21
f 23/20 19/21 22/22
f 22/22 19/21 20/23
f 22/22 20/23 21/24
f 21/24 20/23 15/13
f 21/24 15/13 16/14
f 25/27 26/26 32/25
f 32/25 26/26 31/28
f 31/28 26/26 27/29
f 31/28 27/29 30/30
f 30/30 27/29 28/31
f 30/30 28/31 29/32
f 29/32 28/31 17/13
f 29/32 17/13 24/14
f 33/35 34/34 40/33
f 40/33 34/34 39/36
f 39/36 34/34 35/37
f 39/36 35/37 38/38
f 38/38 35/37 36/39
f 38/38 36/39 37/40
f 37/40 36/39 25/13
f 37/40 25/13 32/14
f 41/43 42/42 48/41
f 48/41 42/42 47/44
f 47/44 42/42 43/45
f 47/44 43/45 46/46
f 46/46 43/45 44/47
f 46/46 44/47 45/48
f 45/48 44/47 33/13
f 45/48 33/13 40/14
f 49/51 50/50 56/49
f 56/49 50/50 55/52
f 55/52 50/50 51/53
f 55/52 51/53 54/54
f 54/54 51/53 52/55
f 54/54 52/55 53/56
f 53/56 52/55 41/13
f 53/56 41/13 48/14
f 7/59 57/58 8/57
f 8/57 57/58 62/60
f 62/60 57/58 58/61
f 62/60 58/61 61/62
f 61/62 58/61 59/63
f 61/62 59/63 60/64
f 60/64 59/63 49/13
f 60/64 49/13 56/14
f 63/67 64/66 74/65
f 74/65 64/66 73/68
f 73/68 64/66 65/69
f 73/68 65/69 72/70
f 72/70 65/69 66/71
f 72/70 66/71 71/72
f 71/72 66/71 67/73
f 71/72 67/73 70/74
f 70/74 67/73 68/13
f 70/74 68/13 69/14
f 75/77 76/76 86/75
f 86/75 76/76 85/78
f 85/78 76/76 77/79
f 85/78 77/79 84/80
f 84/80 77/79 78/81
f 84/80 78/81 83/82
f 83/82 78/81 79/83
f 83/82 79/83 82/84
f 82/84 79/83 80/85
f 82/84 80/85 81/86
f 81/86 80/85 63/13
f 81/86 63/13 74/14
f 87/89 88/88 98/87
f 98/87 88/88 97/90
f 97/90 88/88 89/91
f 97/90 89/91 96/92
f 96/92 89/91 90/93
f 96/92 90/93 95/94
f 95/94 90/93 91/95
f 95/94 91/95 94/96
f 94/96 91/95 92/97
f 94/96 92/97 93/98
f 93/98 92/97 75/13
f 93/98 75/13 86/14
f 99/101 100/100 106/99
f 106/99 100/100 105/102
f 105/102 100/100 101/103
f 105/102 101/103 104/104
f 104/104 101/103 102/105
f 104/104 102/105 103/106
f 103/106 102/105 87/13
f 103/106 87/13 98/14
f 107/109 108/108 114/107
f 114/107 108/108 113/110
f 113/110 108/108 109/111
f 113/110 109/111 112/112
f 112/112 109/111 110/113
f 112/112 110/113 111/114
f 111/114 110/113 99/13
f 111/114 99/13 106/14
f 115/117 116/116 122/115
f 122/115 116/116 121/118
f 121/118 116/116 117/119
f 121/118 117/119 120/120
f 120/120 117/119 118/121
f 120/120 118/121 119/122
f 119/122 118/121 107/13
f 119/122 107/13 114/14
f 123/125 124/124 130/123
f 130/123 124/124 129/126
f 129/126 124/124 125/127
f 129/126 125/127 128/128
f 128/128 125/127 126/129
f 128/128 126/129 127/130
f 127/130 126/129 115/13
f 127/130 115/13 122/14
f 131/133 132/132 138/131
f 138/131 132/132 137/134
f 137/134 132/132 133/135
f 137/134 133/135 136/136
f 136/136 133/135 134/137
f 136/136 134/137 135/138
f 135/138 134/137 123/13
f 135/138 123/13 130/14
f 139/141 140/140 146/139
f 146/139 140/140 145/142
f 145/142 140/140 141/143
f 145/142 141/143 144/144
f 144/144 141/143 142/145
f 144/144 142/145 143/146
f 143/146 142/145 131/13
f 143/146 131/13 138/14
f 147/13 139/147 148/14
f 148/14 139/147 146/148
f 149/151 150/150 158/149
f 158/149 150/150 157/152
f 157/152 150/150 151/153
f 157/152 151/153 156/154
f 156/154 151/153 152/155
f 156/154 152/155 155/156
f 155/156 152/155 153/157
f 155/156 153/157 154/158
f 154/158 153/157 147/13
f 154/158 147/13 148/14
f 159/161 160/160 170/159
f 170/159 160/160 169/162
f 169/162 160/160 161/163
f 169/162 161/163 168/164
f 168/164 161/163 162/165
f 168/164 162/165 167/166
f 167/166 162/165 163/27
f 167/166 163/27 166/25
f 166/25 163/27 164/167
f 166/25 164/167 165/168
f 165/168 164/167 149/13
f 165/168 149/13 158/14
f 171/171 172/170 180/169
f 180/169 172/170 179/172
f 179/172 172/170 173/173
f 179/172 173/173 178/174
f 178/174 173/173 174/175
f 178/174 174/175 177/176
f 177/176 174/175 175/177
f 177/176 175/177 176/178
f 176/178 175/177 159/13
f 176/178 159/13 170/14
f 181/13 171/179 182/14
f 182/14 171/179 180/180
f 183/13 181/181 184/14
f 184/14 181/181 182/182
f 185/13 183/183 186/14
f 186/14 183/183 184/184
f 68/187 187/186 69/185
f 69/185 187/186 204/188
f 204/188 187/186 188/189
f 204/188 188/189 203/190
f 203/190 188/189 189/191
f 203/190 189/191 202/192
f 202/192 189/191 190/193
f 202/192 190/193 201/194
f 201/194 190/193 191/195
f 201/194 191/195 200/196
f 200/196 191/195 192/197
f 200/196 192/197 199/198
f 199/198 192/197 193/199
f 199/198 193/199 198/200
f 198/200 193/199 194/201
f 198/200 194/201 197/202
f 197/202 194/201 195/203
f 197/202 195/203 196/204
f 196/204 195/203 185/13
f 196/204 185/13 186/14
f 204/207 165/206 69/205
f 69/205 165/206 158/208
f 69/205 158/208 157/209
f 165/206 204/207 166/210
f 166/210 204/207 203/211
f 166/210 203/211 167/212
f 167/212 203/211 168/213
f 168/213 203/211 169/214
f 169/214 203/211 202/215
f 169/214 202/215 170/216
f 170/216 202/215 201/217
f 170/216 201/217 200/218
f 170/216 200/218 176/219
f 176/219 200/218 199/220
f 176/219 199/220 198/221
f 176/219 198/221 177/222
f 177/222 198/221 197/223
f 177/222 197/223 178/224
f 178/224 197/223 196/225
f 178/224 196/225 179/226
f 179/226 196/225 186/227
f 179/226 186/227 180/228
f 180/228 186/227 184/229
f 180/228 184/229 182/230
f 157/209 156/231 69/205
f 69/205 156/231 155/232
f 69/205 155/232 154/233
f 69/205 154/233 14/234
f 14/234 154/233 148/235
f 14/234 148/235 146/236
f 14/234 146/236 16/237
f 16/237 146/236 145/238
f 16/237 145/238 144/239
f 16/237 144/239 21/240
f 21/240 144/239 143/241
f 21/240 143/241 138/242
f 21/240 138/242 22/243
f 22/243 138/242 137/244
f 22/243 137/244 136/245
f 22/243 136/245 23/246
f 23/246 136/245 135/247
f 23/246 135/247 24/248
f 24/248 135/247 130/249
f 24/248 130/249 129/250
f 24/248 129/250 29/251
f 29/251 129/250 128/252
f 29/251 128/252 30/253
f 30/253 128/252 127/254
f 30/253 127/254 31/255
f 31/255 127/254 122/256
f 31/255 122/256 32/257
f 32/257 122/256 121/258
f 32/257 121/258 37/259
f 37/259 121/258 38/260
f 38/260 121/258 120/261
f 38/260 120/261 39/262
f 39/262 120/261 119/263
f 39/262 119/263 40/264
f 40/264 119/263 114/265
f 40/264 114/265 113/266
f 40/264 113/266 45/267
f 45/267 113/266 112/268
f 45/267 112/268 46/269
f 46/269 112/268 111/270
f 46/269 111/270 106/271
f 46/269 106/271 47/272
f 47/272 106/271 105/273
f 47/272 105/273 104/274
f 47/272 104/274 48/275
f 48/275 104/274 103/276
f 48/275 103/276 98/277
f 98/277 97/278 48/275
f 48/275 97/278 53/279
f 53/279 97/278 96/280
f 53/279 96/280 95/281
f 95/281 94/282 53/279
f 53/279 94/282 93/283
f 53/279 93/283 54/284
f 54/284 93/283 86/285
f 54/284 86/285 85/286
f 54/284 85/286 55/287
f 55/287 85/286 84/288
f 55/287 84/288 56/289
f 56/289 84/288 83/290
f 56/289 83/290 82/291
f 82/291 81/292 56/289
f 56/289 81/292 60/293
f 60/293 81/292 61/294
f 61/294 81/292 74/295
f 61/294 74/295 62/296
f 62/296 74/295 73/297
f 62/296 73/297 8/298
f 8/298 73/297 72/299
f 8/298 72/299 71/300
f 8/298 71/300 9/301
f 9/301 71/300 70/302
f 9/301 70/302 10/303
f 10/303 70/302 69/205
f 10/303 69/205 11/304
f 11/304 69/205 12/305
f 12/305 69/205 13/306
f 13/306 69/205 14/234
f 195/309 172/308 185/307
f 185/307 172/308 171/310
f 185/307 171/310 183/311
f 183/311 171/310 181/312
f 172/308 195/309 173/313
f 173/313 195/309 194/314
f 173/313 194/314 174/315
f 174/315 194/314 193/316
f 174/315 193/316 175/317
f 175/317 193/316 192/318
f 175/317 192/318 191/319
f 175/317 191/319 159/320
f 159/320 191/319 190/321
f 159/320 190/321 189/322
f 159/320 189/322 160/323
f 160/323 189/322 188/324
f 160/323 188/324 161/325
f 161/325 188/324 162/326
f 162/326 188/324 163/327
f 163/327 188/324 187/328
f 163/327 187/328 164/329
f 164/329 187/328 68/330
f 164/329 68/330 149/331
f 149/331 68/330 150/332
f 150/332 68/330 151/333
f 151/333 68/330 152/334
f 152/334 68/330 153/335
f 153/335 68/330 1/336
f 153/335 1/336 147/337
f 147/337 1/336 139/338
f 139/338 1/336 15/339
f 139/338 15/339 140/340
f 140/340 15/339 141/341
f 141/341 15/339 20/342
f 141/341 20/342 142/343
f 142/343 20/342 131/344
f 131/344 20/342 19/345
f 131/344 19/345 132/346
f 132/346 19/345 133/347
f 133/347 19/345 18/348
f 133/347 18/348 134/349
f 134/349 18/348 17/350
f 134/349 17/350 123/351
f 123/351 17/350 124/352
f 124/352 17/350 28/353
f 124/352 28/353 125/354
f 125/354 28/353 27/355
f 125/354 27/355 126/356
f 126/356 27/355 26/357
f 126/356 26/357 115/358
f 115/358 26/357 25/359
f 115/358 25/359 116/360
f 116/360 25/359 36/361
f 116/360 36/361 35/362
f 67/364 5/363 68/330
f 68/330 5/363 4/365
f 68/330 4/365 3/366
f 5/363 67/364 6/367
f 6/367 67/364 66/368
f 6/367 66/368 7/369
f 7/369 66/368 65/370
f 7/369 65/370 64/371
f 7/369 64/371 57/372
f 57/372 64/371 63/373
f 57/372 63/373 58/374
f 58/374 63/373 80/375
f 58/374 80/375 59/376
f 59/376 80/375 49/377
f 49/377 80/375 79/378
f 49/377 79/378 78/379
f 78/379 77/380 49/377
f 49/377 77/380 50/381
f 50/381 77/380 76/382
f 50/381 76/382 51/383
f 51/383 76/382 75/384
f 51/383 75/384 92/385
f 51/383 92/385 52/386
f 52/386 92/385 91/387
f 52/386 91/387 90/388
f 90/388 89/389 52/386
f 52/386 89/389 88/390
f 52/386 88/390 41/391
f 41/391 88/390 87/392
f 41/391 87/392 102/393
f 102/393 101/394 41/391
f 41/391 101/394 42/395
f 42/395 101/394 100/396
f 42/395 100/396 99/397
f 42/395 99/397 43/398
f 43/398 99/397 110/399
f 43/398 110/399 109/400
f 43/398 109/400 44/401
f 44/401 109/400 108/402
f 44/401 108/402 33/403
f 33/403 108/402 107/404
f 33/403 107/404 118/405
f 33/403 118/405 34/406
f 34/406 118/405 117/407
f 34/406 117/407 35/362
f 35/362 117/407 116/360
f 3/366 2/408 68/330
f 68/330 2/408 1/336
# 408 elements

